[{"tablename" : "ad_window", "data" : {"ad_window_id":53125,
 "name":"Fact Reconciliation",
 "ad_client_id":0,
 "ad_color_id":null,
 "ad_image_id":null,
 "ad_org_id":0,
 "created":"2010-09-02T17:56:34",
 "createdby":100,
 "description":null,
 "entitytype":"D",
 "help":null,
 "isactive":"Y",
 "isbetafunctionality":"N",
 "isdefault":"N",
 "issotrx":"Y",
 "processing":"N",
 "updated":"2010-09-02T17:56:34",
 "updatedby":100,
 "windowtype":"M",
 "winheight":null,
 "winwidth":null}, "children" : [{"tablename" : "ad_tab", "data" : {"ad_tab_id":53341,
 "name":"Reconciliation",
 "ad_window_id":53125,
 "ad_client_id":0,
 "ad_column_id":null,
 "ad_columnsortorder_id":null,
 "ad_columnsortyesno_id":null,
 "ad_image_id":null,
 "ad_org_id":0,
 "ad_process_id":null,
 "ad_table_id":53286,
 "commitwarning":null,
 "created":"2010-09-02T17:56:35",
 "createdby":100,
 "description":null,
 "displaylogic":null,
 "entitytype":"D",
 "hastree":"N",
 "help":null,
 "importfields":null,
 "included_tab_id":null,
 "isactive":"Y",
 "isadvancedtab":"N",
 "isinfotab":"N",
 "isinheritfiltertoreports":"N",
 "isinsertrecord":"N",
 "isreadonly":"N",
 "issinglerow":"N",
 "issorttab":"N",
 "istranslationtab":"N",
 "orderbyclause":null,
 "parent_column_id":null,
 "processing":"N",
 "readonlylogic":null,
 "seqno":10,
 "tablevel":0,
 "updated":"2010-09-02T17:56:35",
 "updatedby":100,
 "whereclause":null}, "children" : [{"tablename" : "ad_field", "data" : {"ad_field_id":59623,
 "name":"Client",
 "ad_client_id":0,
 "ad_column_id":59766,
 "ad_fieldgroup_id":null,
 "ad_org_id":0,
 "ad_reference_id":null,
 "ad_reference_value_id":null,
 "ad_tab_id":53341,
 "ad_val_rule_id":null,
 "columnspan":2,
 "created":"2010-09-02T17:56:36",
 "createdby":100,
 "defaultvalue":null,
 "description":"Client/Tenant for this installation.",
 "displaylength":22,
 "displaylogic":null,
 "entitytype":"D",
 "help":"A Client is a company or a legal entity. You cannot share data between Clients. Tenant is a synonym for Client.",
 "included_tab_id":null,
 "infofactoryclass":null,
 "isactive":"Y",
 "isallowcopy":null,
 "isallownewattributeinstance":"N",
 "iscentrallymaintained":"Y",
 "isdisplayed":"Y",
 "isdisplayedgrid":"Y",
 "isencrypted":"N",
 "isfieldonly":"N",
 "isheading":"N",
 "ismandatory":null,
 "isquickentry":null,
 "isreadonly":"N",
 "issameline":"N",
 "numlines":1,
 "obscuretype":null,
 "seqno":10,
 "seqnogrid":null,
 "sortno":0,
 "updated":"2010-09-02T17:56:36",
 "updatedby":100,
 "xposition":1}, "children" : []},{"tablename" : "ad_field", "data" : {"ad_field_id":59624,
 "name":"Organisation",
 "ad_client_id":0,
 "ad_column_id":59767,
 "ad_fieldgroup_id":null,
 "ad_org_id":0,
 "ad_reference_id":null,
 "ad_reference_value_id":null,
 "ad_tab_id":53341,
 "ad_val_rule_id":null,
 "columnspan":2,
 "created":"2010-09-02T17:56:37",
 "createdby":100,
 "defaultvalue":null,
 "description":"Organisational entity within client",
 "displaylength":22,
 "displaylogic":null,
 "entitytype":"D",
 "help":"An organisation is a unit of your client or legal entity - examples are store, department. You can share data between organisations.",
 "included_tab_id":null,
 "infofactoryclass":null,
 "isactive":"Y",
 "isallowcopy":null,
 "isallownewattributeinstance":"N",
 "iscentrallymaintained":"Y",
 "isdisplayed":"Y",
 "isdisplayedgrid":"Y",
 "isencrypted":"N",
 "isfieldonly":"N",
 "isheading":"N",
 "ismandatory":null,
 "isquickentry":null,
 "isreadonly":"N",
 "issameline":"N",
 "numlines":1,
 "obscuretype":null,
 "seqno":20,
 "seqnogrid":null,
 "sortno":0,
 "updated":"2010-09-02T17:56:37",
 "updatedby":100,
 "xposition":1}, "children" : []},{"tablename" : "ad_field", "data" : {"ad_field_id":59625,
 "name":"Accounting Fact",
 "ad_client_id":0,
 "ad_column_id":59777,
 "ad_fieldgroup_id":null,
 "ad_org_id":0,
 "ad_reference_id":null,
 "ad_reference_value_id":null,
 "ad_tab_id":53341,
 "ad_val_rule_id":null,
 "columnspan":2,
 "created":"2010-09-02T17:56:38",
 "createdby":100,
 "defaultvalue":null,
 "description":null,
 "displaylength":22,
 "displaylogic":null,
 "entitytype":"D",
 "help":null,
 "included_tab_id":null,
 "infofactoryclass":null,
 "isactive":"Y",
 "isallowcopy":null,
 "isallownewattributeinstance":"N",
 "iscentrallymaintained":"Y",
 "isdisplayed":"Y",
 "isdisplayedgrid":"Y",
 "isencrypted":"N",
 "isfieldonly":"N",
 "isheading":"N",
 "ismandatory":null,
 "isquickentry":null,
 "isreadonly":"N",
 "issameline":"N",
 "numlines":1,
 "obscuretype":null,
 "seqno":30,
 "seqnogrid":null,
 "sortno":0,
 "updated":"2010-09-02T17:56:38",
 "updatedby":100,
 "xposition":1}, "children" : []},{"tablename" : "ad_field", "data" : {"ad_field_id":59626,
 "name":"Active",
 "ad_client_id":0,
 "ad_column_id":59774,
 "ad_fieldgroup_id":null,
 "ad_org_id":0,
 "ad_reference_id":null,
 "ad_reference_value_id":null,
 "ad_tab_id":53341,
 "ad_val_rule_id":null,
 "columnspan":2,
 "created":"2010-09-02T17:56:39",
 "createdby":100,
 "defaultvalue":null,
 "description":"The record is active in the system",
 "displaylength":1,
 "displaylogic":null,
 "entitytype":"D",
 "help":"There are two methods of making records unavailable in the system: One is to delete the record, the other is to de-activate the record. A de-activated record is not available for selection, but available for reports.\nThere are two reasons for de-activating and not deleting records:\n(1) The system requires the record for audit purposes.\n(2) The record is referenced by other records. E.g., you cannot delete a Business Partner, if there are invoices for this partner record existing. You de-activate the Business Partner and prevent that this record is used for future entries.",
 "included_tab_id":null,
 "infofactoryclass":null,
 "isactive":"Y",
 "isallowcopy":null,
 "isallownewattributeinstance":"N",
 "iscentrallymaintained":"Y",
 "isdisplayed":"Y",
 "isdisplayedgrid":"Y",
 "isencrypted":"N",
 "isfieldonly":"N",
 "isheading":"N",
 "ismandatory":null,
 "isquickentry":null,
 "isreadonly":"N",
 "issameline":"N",
 "numlines":1,
 "obscuretype":null,
 "seqno":40,
 "seqnogrid":null,
 "sortno":0,
 "updated":"2010-09-02T17:56:39",
 "updatedby":100,
 "xposition":2}, "children" : []},{"tablename" : "ad_field", "data" : {"ad_field_id":59627,
 "name":"Match Code",
 "ad_client_id":0,
 "ad_column_id":59775,
 "ad_fieldgroup_id":null,
 "ad_org_id":0,
 "ad_reference_id":null,
 "ad_reference_value_id":null,
 "ad_tab_id":53341,
 "ad_val_rule_id":null,
 "columnspan":5,
 "created":"2010-09-02T17:56:40",
 "createdby":100,
 "defaultvalue":null,
 "description":"String identifying related accounting facts",
 "displaylength":60,
 "displaylogic":null,
 "entitytype":"D",
 "help":null,
 "included_tab_id":null,
 "infofactoryclass":null,
 "isactive":"Y",
 "isallowcopy":null,
 "isallownewattributeinstance":"N",
 "iscentrallymaintained":"Y",
 "isdisplayed":"Y",
 "isdisplayedgrid":"Y",
 "isencrypted":"N",
 "isfieldonly":"N",
 "isheading":"N",
 "ismandatory":null,
 "isquickentry":null,
 "isreadonly":"N",
 "issameline":"N",
 "numlines":1,
 "obscuretype":null,
 "seqno":50,
 "seqnogrid":null,
 "sortno":0,
 "updated":"2010-09-02T17:56:40",
 "updatedby":100,
 "xposition":1}, "children" : []},{"tablename" : "ad_field", "data" : {"ad_field_id":59628,
 "name":"Account",
 "ad_client_id":0,
 "ad_column_id":59773,
 "ad_fieldgroup_id":null,
 "ad_org_id":0,
 "ad_reference_id":null,
 "ad_reference_value_id":null,
 "ad_tab_id":53341,
 "ad_val_rule_id":null,
 "columnspan":2,
 "created":"2010-09-02T17:56:41",
 "createdby":100,
 "defaultvalue":null,
 "description":"Account used",
 "displaylength":22,
 "displaylogic":null,
 "entitytype":"D",
 "help":"The (natural) account used",
 "included_tab_id":null,
 "infofactoryclass":null,
 "isactive":"Y",
 "isallowcopy":null,
 "isallownewattributeinstance":"N",
 "iscentrallymaintained":"Y",
 "isdisplayed":"Y",
 "isdisplayedgrid":"Y",
 "isencrypted":"N",
 "isfieldonly":"N",
 "isheading":"N",
 "ismandatory":null,
 "isquickentry":null,
 "isreadonly":"N",
 "issameline":"N",
 "numlines":1,
 "obscuretype":null,
 "seqno":0,
 "seqnogrid":null,
 "sortno":0,
 "updated":"2010-09-02T17:56:41",
 "updatedby":100,
 "xposition":1}, "children" : []},{"tablename" : "ad_field", "data" : {"ad_field_id":59629,
 "name":"Business Partner ",
 "ad_client_id":0,
 "ad_column_id":59769,
 "ad_fieldgroup_id":null,
 "ad_org_id":0,
 "ad_reference_id":null,
 "ad_reference_value_id":null,
 "ad_tab_id":53341,
 "ad_val_rule_id":null,
 "columnspan":2,
 "created":"2010-09-02T17:56:42",
 "createdby":100,
 "defaultvalue":null,
 "description":"Identifies a Business Partner",
 "displaylength":22,
 "displaylogic":null,
 "entitytype":"D",
 "help":"A Business Partner is anyone with whom you transact.  This can include Vendor, Customer, Employee or Salesperson",
 "included_tab_id":null,
 "infofactoryclass":null,
 "isactive":"Y",
 "isallowcopy":null,
 "isallownewattributeinstance":"N",
 "iscentrallymaintained":"Y",
 "isdisplayed":"Y",
 "isdisplayedgrid":"Y",
 "isencrypted":"N",
 "isfieldonly":"N",
 "isheading":"N",
 "ismandatory":null,
 "isquickentry":null,
 "isreadonly":"N",
 "issameline":"N",
 "numlines":1,
 "obscuretype":null,
 "seqno":0,
 "seqnogrid":null,
 "sortno":0,
 "updated":"2010-09-02T17:56:42",
 "updatedby":100,
 "xposition":1}, "children" : []},{"tablename" : "ad_field", "data" : {"ad_field_id":59630,
 "name":"Accounted Amount",
 "ad_client_id":0,
 "ad_column_id":59768,
 "ad_fieldgroup_id":null,
 "ad_org_id":0,
 "ad_reference_id":null,
 "ad_reference_value_id":null,
 "ad_tab_id":53341,
 "ad_val_rule_id":null,
 "columnspan":2,
 "created":"2010-09-02T17:56:43",
 "createdby":100,
 "defaultvalue":null,
 "description":"Amount Balance in Currency of Accounting Schema",
 "displaylength":10,
 "displaylogic":null,
 "entitytype":"D",
 "help":null,
 "included_tab_id":null,
 "infofactoryclass":null,
 "isactive":"Y",
 "isallowcopy":null,
 "isallownewattributeinstance":"N",
 "iscentrallymaintained":"Y",
 "isdisplayed":"Y",
 "isdisplayedgrid":"Y",
 "isencrypted":"N",
 "isfieldonly":"N",
 "isheading":"N",
 "ismandatory":null,
 "isquickentry":null,
 "isreadonly":"N",
 "issameline":"N",
 "numlines":1,
 "obscuretype":null,
 "seqno":0,
 "seqnogrid":null,
 "sortno":0,
 "updated":"2010-09-02T17:56:43",
 "updatedby":100,
 "xposition":1}, "children" : []},{"tablename" : "ad_field", "data" : {"ad_field_id":59631,
 "name":"Account Date",
 "ad_client_id":0,
 "ad_column_id":59772,
 "ad_fieldgroup_id":null,
 "ad_org_id":0,
 "ad_reference_id":null,
 "ad_reference_value_id":null,
 "ad_tab_id":53341,
 "ad_val_rule_id":null,
 "columnspan":2,
 "created":"2010-09-02T17:56:44",
 "createdby":100,
 "defaultvalue":null,
 "description":"Accounting Date",
 "displaylength":7,
 "displaylogic":null,
 "entitytype":"D",
 "help":"The Accounting Date indicates the date to be used on the General Ledger account entries generated from this document. It is also used for any currency conversion.",
 "included_tab_id":null,
 "infofactoryclass":null,
 "isactive":"Y",
 "isallowcopy":null,
 "isallownewattributeinstance":"N",
 "iscentrallymaintained":"Y",
 "isdisplayed":"Y",
 "isdisplayedgrid":"Y",
 "isencrypted":"N",
 "isfieldonly":"N",
 "isheading":"N",
 "ismandatory":null,
 "isquickentry":null,
 "isreadonly":"N",
 "issameline":"N",
 "numlines":1,
 "obscuretype":null,
 "seqno":0,
 "seqnogrid":null,
 "sortno":0,
 "updated":"2010-09-02T17:56:44",
 "updatedby":100,
 "xposition":1}, "children" : []}]}]},
 {"tablename" : "ad_window", "data" : {"ad_window_id":53278,
 "name":"Stocktake (indirect use)",
 "ad_client_id":0,
 "ad_color_id":null,
 "ad_image_id":null,
 "ad_org_id":0,
 "created":"2013-09-23T11:48:49",
 "createdby":100,
 "description":null,
 "entitytype":"D",
 "help":null,
 "isactive":"Y",
 "isbetafunctionality":"N",
 "isdefault":"N",
 "issotrx":"Y",
 "processing":"N",
 "updated":"2013-09-23T11:48:49",
 "updatedby":100,
 "windowtype":"M",
 "winheight":0,
 "winwidth":0}, "children" : [{"tablename" : "ad_tab", "data" : {"ad_tab_id":53769,
 "name":"Stocktake",
 "ad_window_id":53278,
 "ad_client_id":0,
 "ad_column_id":null,
 "ad_columnsortorder_id":null,
 "ad_columnsortyesno_id":null,
 "ad_image_id":null,
 "ad_org_id":0,
 "ad_process_id":null,
 "ad_table_id":322,
 "commitwarning":null,
 "created":"2013-09-23T11:49:11",
 "createdby":100,
 "description":null,
 "displaylogic":null,
 "entitytype":"D",
 "hastree":"N",
 "help":null,
 "importfields":"N",
 "included_tab_id":null,
 "isactive":"Y",
 "isadvancedtab":"N",
 "isinfotab":"N",
 "isinheritfiltertoreports":"N",
 "isinsertrecord":"Y",
 "isreadonly":"N",
 "issinglerow":"N",
 "issorttab":"N",
 "istranslationtab":"N",
 "orderbyclause":null,
 "parent_column_id":null,
 "processing":"N",
 "readonlylogic":null,
 "seqno":10,
 "tablevel":0,
 "updated":"2013-09-23T11:49:11",
 "updatedby":100,
 "whereclause":null}, "children" : [{"tablename" : "ad_field", "data" : {"ad_field_id":69539,
 "name":"Attribute Set Instance",
 "ad_client_id":0,
 "ad_column_id":8550,
 "ad_fieldgroup_id":null,
 "ad_org_id":0,
 "ad_reference_id":null,
 "ad_reference_value_id":null,
 "ad_tab_id":53769,
 "ad_val_rule_id":null,
 "columnspan":2,
 "created":"2013-09-23T11:49:13",
 "createdby":100,
 "defaultvalue":null,
 "description":"Product Attribute Set Instance",
 "displaylength":26,
 "displaylogic":null,
 "entitytype":"D",
 "help":"The values of the actual Product Attribute Instances.  The product level attributes are defined on Product level.",
 "included_tab_id":null,
 "infofactoryclass":null,
 "isactive":"Y",
 "isallowcopy":null,
 "isallownewattributeinstance":"N",
 "iscentrallymaintained":"Y",
 "isdisplayed":"N",
 "isdisplayedgrid":"Y",
 "isencrypted":"N",
 "isfieldonly":"N",
 "isheading":"N",
 "ismandatory":null,
 "isquickentry":null,
 "isreadonly":"N",
 "issameline":"Y",
 "numlines":1,
 "obscuretype":null,
 "seqno":0,
 "seqnogrid":null,
 "sortno":null,
 "updated":"2013-09-23T11:49:13",
 "updatedby":100,
 "xposition":4}, "children" : []},{"tablename" : "ad_field", "data" : {"ad_field_id":69540,
 "name":"Charge",
 "ad_client_id":0,
 "ad_column_id":9950,
 "ad_fieldgroup_id":null,
 "ad_org_id":0,
 "ad_reference_id":null,
 "ad_reference_value_id":null,
 "ad_tab_id":53769,
 "ad_val_rule_id":null,
 "columnspan":2,
 "created":"2013-09-23T11:49:16",
 "createdby":100,
 "defaultvalue":null,
 "description":"Additional document charges",
 "displaylength":14,
 "displaylogic":"@InventoryType@=C",
 "entitytype":"D",
 "help":"The Charge indicates a type of Charge (Handling, Shipping, Restocking)",
 "included_tab_id":null,
 "infofactoryclass":null,
 "isactive":"Y",
 "isallowcopy":null,
 "isallownewattributeinstance":"N",
 "iscentrallymaintained":"Y",
 "isdisplayed":"N",
 "isdisplayedgrid":"Y",
 "isencrypted":"N",
 "isfieldonly":"N",
 "isheading":"N",
 "ismandatory":null,
 "isquickentry":null,
 "isreadonly":"N",
 "issameline":"Y",
 "numlines":1,
 "obscuretype":null,
 "seqno":0,
 "seqnogrid":null,
 "sortno":null,
 "updated":"2013-09-23T11:49:16",
 "updatedby":100,
 "xposition":4}, "children" : []},{"tablename" : "ad_field", "data" : {"ad_field_id":69541,
 "name":"Inventory Type",
 "ad_client_id":0,
 "ad_column_id":9951,
 "ad_fieldgroup_id":null,
 "ad_org_id":0,
 "ad_reference_id":null,
 "ad_reference_value_id":null,
 "ad_tab_id":53769,
 "ad_val_rule_id":null,
 "columnspan":2,
 "created":"2013-09-23T11:49:19",
 "createdby":100,
 "defaultvalue":null,
 "description":"Type of inventory difference",
 "displaylength":14,
 "displaylogic":null,
 "entitytype":"D",
 "help":"The type of inventory difference determines which account is used. The default is the Inventory Difference account defined for the warehouse.  Alternatively, you could select any charge.  This allows you to account for Internal Use or extraordinary inventory losses.",
 "included_tab_id":null,
 "infofactoryclass":null,
 "isactive":"Y",
 "isallowcopy":null,
 "isallownewattributeinstance":"N",
 "iscentrallymaintained":"Y",
 "isdisplayed":"N",
 "isdisplayedgrid":"Y",
 "isencrypted":"N",
 "isfieldonly":"N",
 "isheading":"N",
 "ismandatory":null,
 "isquickentry":null,
 "isreadonly":"N",
 "issameline":"N",
 "numlines":1,
 "obscuretype":null,
 "seqno":0,
 "seqnogrid":null,
 "sortno":null,
 "updated":"2013-09-23T11:49:19",
 "updatedby":100,
 "xposition":1}, "children" : []},{"tablename" : "ad_field", "data" : {"ad_field_id":69542,
 "name":"Description",
 "ad_client_id":0,
 "ad_column_id":3568,
 "ad_fieldgroup_id":null,
 "ad_org_id":0,
 "ad_reference_id":null,
 "ad_reference_value_id":null,
 "ad_tab_id":53769,
 "ad_val_rule_id":null,
 "columnspan":5,
 "created":"2013-09-23T11:49:21",
 "createdby":100,
 "defaultvalue":null,
 "description":"Optional short description of the record",
 "displaylength":60,
 "displaylogic":null,
 "entitytype":"D",
 "help":"A description is limited to 255 characters.",
 "included_tab_id":null,
 "infofactoryclass":null,
 "isactive":"Y",
 "isallowcopy":null,
 "isallownewattributeinstance":"N",
 "iscentrallymaintained":"Y",
 "isdisplayed":"Y",
 "isdisplayedgrid":"Y",
 "isencrypted":"N",
 "isfieldonly":"N",
 "isheading":"N",
 "ismandatory":null,
 "isquickentry":null,
 "isreadonly":"N",
 "issameline":"N",
 "numlines":1,
 "obscuretype":null,
 "seqno":100,
 "seqnogrid":null,
 "sortno":null,
 "updated":"2016-04-11T16:07:54",
 "updatedby":0,
 "xposition":1}, "children" : []},{"tablename" : "ad_field", "data" : {"ad_field_id":69543,
 "name":"Phys.Inventory",
 "ad_client_id":0,
 "ad_column_id":3563,
 "ad_fieldgroup_id":null,
 "ad_org_id":0,
 "ad_reference_id":null,
 "ad_reference_value_id":null,
 "ad_tab_id":53769,
 "ad_val_rule_id":null,
 "columnspan":2,
 "created":"2013-09-23T11:49:24",
 "createdby":100,
 "defaultvalue":null,
 "description":"Parameters for a Physical Inventory",
 "displaylength":14,
 "displaylogic":null,
 "entitytype":"D",
 "help":"The Physical Inventory indicates a unique parameters for a physical inventory.",
 "included_tab_id":null,
 "infofactoryclass":null,
 "isactive":"Y",
 "isallowcopy":null,
 "isallownewattributeinstance":"N",
 "iscentrallymaintained":"Y",
 "isdisplayed":"N",
 "isdisplayedgrid":"Y",
 "isencrypted":"N",
 "isfieldonly":"N",
 "isheading":"N",
 "ismandatory":null,
 "isquickentry":null,
 "isreadonly":"Y",
 "issameline":"N",
 "numlines":1,
 "obscuretype":null,
 "seqno":0,
 "seqnogrid":null,
 "sortno":null,
 "updated":"2013-09-23T11:49:24",
 "updatedby":100,
 "xposition":1}, "children" : []},{"tablename" : "ad_field", "data" : {"ad_field_id":69544,
 "name":"Organisation",
 "ad_client_id":0,
 "ad_column_id":3557,
 "ad_fieldgroup_id":null,
 "ad_org_id":0,
 "ad_reference_id":null,
 "ad_reference_value_id":null,
 "ad_tab_id":53769,
 "ad_val_rule_id":null,
 "columnspan":2,
 "created":"2013-09-23T11:49:26",
 "createdby":100,
 "defaultvalue":null,
 "description":"Organisational entity within client",
 "displaylength":14,
 "displaylogic":null,
 "entitytype":"D",
 "help":"An organisation is a unit of your client or legal entity - examples are store, department. You can share data between organisations.",
 "included_tab_id":null,
 "infofactoryclass":null,
 "isactive":"Y",
 "isallowcopy":null,
 "isallownewattributeinstance":"N",
 "iscentrallymaintained":"Y",
 "isdisplayed":"N",
 "isdisplayedgrid":"Y",
 "isencrypted":"N",
 "isfieldonly":"N",
 "isheading":"N",
 "ismandatory":null,
 "isquickentry":null,
 "isreadonly":"N",
 "issameline":"Y",
 "numlines":1,
 "obscuretype":null,
 "seqno":0,
 "seqnogrid":null,
 "sortno":null,
 "updated":"2013-09-23T11:49:26",
 "updatedby":100,
 "xposition":4}, "children" : []},{"tablename" : "ad_field", "data" : {"ad_field_id":69545,
 "name":"Client",
 "ad_client_id":0,
 "ad_column_id":3556,
 "ad_fieldgroup_id":null,
 "ad_org_id":0,
 "ad_reference_id":null,
 "ad_reference_value_id":null,
 "ad_tab_id":53769,
 "ad_val_rule_id":null,
 "columnspan":2,
 "created":"2013-09-23T11:49:28",
 "createdby":100,
 "defaultvalue":null,
 "description":"Client/Tenant for this installation.",
 "displaylength":14,
 "displaylogic":null,
 "entitytype":"D",
 "help":"A Client is a company or a legal entity. You cannot share data between Clients. Tenant is a synonym for Client.",
 "included_tab_id":null,
 "infofactoryclass":null,
 "isactive":"Y",
 "isallowcopy":null,
 "isallownewattributeinstance":"N",
 "iscentrallymaintained":"Y",
 "isdisplayed":"N",
 "isdisplayedgrid":"Y",
 "isencrypted":"N",
 "isfieldonly":"N",
 "isheading":"N",
 "ismandatory":null,
 "isquickentry":null,
 "isreadonly":"Y",
 "issameline":"N",
 "numlines":1,
 "obscuretype":null,
 "seqno":0,
 "seqnogrid":null,
 "sortno":null,
 "updated":"2013-09-23T11:49:28",
 "updatedby":100,
 "xposition":1}, "children" : []},{"tablename" : "ad_field", "data" : {"ad_field_id":69546,
 "name":"Processed",
 "ad_client_id":0,
 "ad_column_id":12071,
 "ad_fieldgroup_id":null,
 "ad_org_id":0,
 "ad_reference_id":null,
 "ad_reference_value_id":null,
 "ad_tab_id":53769,
 "ad_val_rule_id":null,
 "columnspan":2,
 "created":"2013-09-23T11:49:31",
 "createdby":100,
 "defaultvalue":null,
 "description":"The document has been processed",
 "displaylength":1,
 "displaylogic":null,
 "entitytype":"D",
 "help":"The Processed checkbox indicates that a document has been processed.",
 "included_tab_id":null,
 "infofactoryclass":null,
 "isactive":"Y",
 "isallowcopy":"N",
 "isallownewattributeinstance":"N",
 "iscentrallymaintained":"Y",
 "isdisplayed":"N",
 "isdisplayedgrid":"Y",
 "isencrypted":"N",
 "isfieldonly":"N",
 "isheading":"N",
 "ismandatory":null,
 "isquickentry":null,
 "isreadonly":"N",
 "issameline":"N",
 "numlines":1,
 "obscuretype":null,
 "seqno":0,
 "seqnogrid":null,
 "sortno":null,
 "updated":"2013-09-23T11:49:31",
 "updatedby":100,
 "xposition":2}, "children" : []},{"tablename" : "ad_field", "data" : {"ad_field_id":69547,
 "name":"Active",
 "ad_client_id":0,
 "ad_column_id":3558,
 "ad_fieldgroup_id":null,
 "ad_org_id":0,
 "ad_reference_id":null,
 "ad_reference_value_id":null,
 "ad_tab_id":53769,
 "ad_val_rule_id":null,
 "columnspan":2,
 "created":"2013-09-23T11:49:33",
 "createdby":100,
 "defaultvalue":null,
 "description":"The record is active in the system",
 "displaylength":1,
 "displaylogic":null,
 "entitytype":"D",
 "help":"There are two methods of making records unavailable in the system: One is to delete the record, the other is to de-activate the record. A de-activated record is not available for selection, but available for reports.\nThere are two reasons for de-activating and not deleting records:\n(1) The system requires the record for audit purposes.\n(2) The record is referenced by other records. E.g., you cannot delete a Business Partner, if there are invoices for this partner record existing. You de-activate the Business Partner and prevent that this record is used for future entries.",
 "included_tab_id":null,
 "infofactoryclass":null,
 "isactive":"Y",
 "isallowcopy":null,
 "isallownewattributeinstance":"N",
 "iscentrallymaintained":"Y",
 "isdisplayed":"N",
 "isdisplayedgrid":"Y",
 "isencrypted":"N",
 "isfieldonly":"N",
 "isheading":"N",
 "ismandatory":null,
 "isquickentry":null,
 "isreadonly":"N",
 "issameline":"N",
 "numlines":1,
 "obscuretype":null,
 "seqno":0,
 "seqnogrid":null,
 "sortno":null,
 "updated":"2013-09-23T11:49:33",
 "updatedby":100,
 "xposition":2}, "children" : []},{"tablename" : "ad_field", "data" : {"ad_field_id":69548,
 "name":"Internal Use Qty",
 "ad_client_id":0,
 "ad_column_id":13023,
 "ad_fieldgroup_id":null,
 "ad_org_id":0,
 "ad_reference_id":null,
 "ad_reference_value_id":null,
 "ad_tab_id":53769,
 "ad_val_rule_id":null,
 "columnspan":2,
 "created":"2013-09-23T11:49:35",
 "createdby":100,
 "defaultvalue":null,
 "description":"Internal Use Quantity removed from Inventory",
 "displaylength":26,
 "displaylogic":null,
 "entitytype":"D",
 "help":"Quantity of product inventory used internally (positive if taken out - negative if returned)",
 "included_tab_id":null,
 "infofactoryclass":null,
 "isactive":"Y",
 "isallowcopy":null,
 "isallownewattributeinstance":"N",
 "iscentrallymaintained":"Y",
 "isdisplayed":"N",
 "isdisplayedgrid":"Y",
 "isencrypted":"N",
 "isfieldonly":"N",
 "isheading":"N",
 "ismandatory":null,
 "isquickentry":null,
 "isreadonly":"N",
 "issameline":"N",
 "numlines":1,
 "obscuretype":null,
 "seqno":0,
 "seqnogrid":null,
 "sortno":null,
 "updated":"2013-09-23T11:49:35",
 "updatedby":100,
 "xposition":1}, "children" : []},{"tablename" : "ad_field", "data" : {"ad_field_id":69549,
 "name":"Search Key",
 "ad_client_id":0,
 "ad_column_id":14101,
 "ad_fieldgroup_id":null,
 "ad_org_id":0,
 "ad_reference_id":null,
 "ad_reference_value_id":null,
 "ad_tab_id":53769,
 "ad_val_rule_id":null,
 "columnspan":5,
 "created":"2013-09-23T11:49:37",
 "createdby":100,
 "defaultvalue":null,
 "description":"Search key for the record in the format required - must be unique",
 "displaylength":40,
 "displaylogic":null,
 "entitytype":"D",
 "help":"A search key allows you a fast method of finding a particular record.\nIf you leave the search key empty, the system automatically creates a numeric number.  The document sequence used for this fallback number is defined in the \"Maintain Sequence\" window with the name \"DocumentNo_<TableName>\", where TableName is the actual name of the table (e.g. C_Order).",
 "included_tab_id":null,
 "infofactoryclass":null,
 "isactive":"Y",
 "isallowcopy":null,
 "isallownewattributeinstance":"N",
 "iscentrallymaintained":"Y",
 "isdisplayed":"N",
 "isdisplayedgrid":"Y",
 "isencrypted":"N",
 "isfieldonly":"N",
 "isheading":"N",
 "ismandatory":null,
 "isquickentry":null,
 "isreadonly":"N",
 "issameline":"N",
 "numlines":1,
 "obscuretype":null,
 "seqno":0,
 "seqnogrid":null,
 "sortno":null,
 "updated":"2013-09-23T11:49:37",
 "updatedby":100,
 "xposition":1}, "children" : []},{"tablename" : "ad_field", "data" : {"ad_field_id":69550,
 "name":"UPC/EAN",
 "ad_client_id":0,
 "ad_column_id":14102,
 "ad_fieldgroup_id":null,
 "ad_org_id":0,
 "ad_reference_id":null,
 "ad_reference_value_id":null,
 "ad_tab_id":53769,
 "ad_val_rule_id":null,
 "columnspan":5,
 "created":"2013-09-23T11:49:40",
 "createdby":100,
 "defaultvalue":null,
 "description":"Bar Code (Universal Product Code or its superset European Article Number)",
 "displaylength":30,
 "displaylogic":null,
 "entitytype":"D",
 "help":"Use this field to enter the bar code for the product in any of the bar code symbologies (Codabar, Code 25, Code 39, Code 93, Code 128, UPC (A), UPC (E), EAN-13, EAN-8, ITF, ITF-14, ISBN, ISSN, JAN-13, JAN-8, POSTNET and FIM, MSI/Plessey, and Pharmacode) ",
 "included_tab_id":null,
 "infofactoryclass":null,
 "isactive":"Y",
 "isallowcopy":null,
 "isallownewattributeinstance":"N",
 "iscentrallymaintained":"Y",
 "isdisplayed":"N",
 "isdisplayedgrid":"Y",
 "isencrypted":"N",
 "isfieldonly":"N",
 "isheading":"N",
 "ismandatory":null,
 "isquickentry":null,
 "isreadonly":"N",
 "issameline":"N",
 "numlines":1,
 "obscuretype":null,
 "seqno":0,
 "seqnogrid":null,
 "sortno":null,
 "updated":"2013-09-23T11:49:40",
 "updatedby":100,
 "xposition":1}, "children" : []},{"tablename" : "ad_field", "data" : {"ad_field_id":69551,
 "name":"Phys.Inventory Line",
 "ad_client_id":0,
 "ad_column_id":3555,
 "ad_fieldgroup_id":null,
 "ad_org_id":0,
 "ad_reference_id":null,
 "ad_reference_value_id":null,
 "ad_tab_id":53769,
 "ad_val_rule_id":null,
 "columnspan":2,
 "created":"2013-09-23T11:49:42",
 "createdby":100,
 "defaultvalue":null,
 "description":"Unique line in an Inventory document",
 "displaylength":14,
 "displaylogic":null,
 "entitytype":"D",
 "help":"The Physical Inventory Line indicates the inventory document line (if applicable) for this transaction",
 "included_tab_id":null,
 "infofactoryclass":null,
 "isactive":"Y",
 "isallowcopy":null,
 "isallownewattributeinstance":"N",
 "iscentrallymaintained":"Y",
 "isdisplayed":"N",
 "isdisplayedgrid":"Y",
 "isencrypted":"N",
 "isfieldonly":"N",
 "isheading":"N",
 "ismandatory":null,
 "isquickentry":null,
 "isreadonly":"N",
 "issameline":"N",
 "numlines":1,
 "obscuretype":null,
 "seqno":0,
 "seqnogrid":null,
 "sortno":null,
 "updated":"2013-09-23T11:49:42",
 "updatedby":100,
 "xposition":1}, "children" : []},{"tablename" : "ad_field", "data" : {"ad_field_id":69552,
 "name":"Quantity count",
 "ad_client_id":0,
 "ad_column_id":3567,
 "ad_fieldgroup_id":null,
 "ad_org_id":0,
 "ad_reference_id":null,
 "ad_reference_value_id":null,
 "ad_tab_id":53769,
 "ad_val_rule_id":null,
 "columnspan":2,
 "created":"2013-09-23T11:49:44",
 "createdby":100,
 "defaultvalue":null,
 "description":"Counted Quantity",
 "displaylength":26,
 "displaylogic":null,
 "entitytype":"D",
 "help":"The Quantity Count indicates the actual inventory count taken for a product in inventory",
 "included_tab_id":null,
 "infofactoryclass":null,
 "isactive":"Y",
 "isallowcopy":null,
 "isallownewattributeinstance":"N",
 "iscentrallymaintained":"Y",
 "isdisplayed":"N",
 "isdisplayedgrid":"Y",
 "isencrypted":"N",
 "isfieldonly":"N",
 "isheading":"N",
 "ismandatory":null,
 "isquickentry":null,
 "isreadonly":"N",
 "issameline":"N",
 "numlines":1,
 "obscuretype":null,
 "seqno":0,
 "seqnogrid":null,
 "sortno":null,
 "updated":"2013-09-23T11:49:44",
 "updatedby":100,
 "xposition":1}, "children" : []},{"tablename" : "ad_field", "data" : {"ad_field_id":69553,
 "name":"Line No",
 "ad_client_id":0,
 "ad_column_id":3819,
 "ad_fieldgroup_id":null,
 "ad_org_id":0,
 "ad_reference_id":null,
 "ad_reference_value_id":null,
 "ad_tab_id":53769,
 "ad_val_rule_id":null,
 "columnspan":2,
 "created":"2013-09-23T11:49:46",
 "createdby":100,
 "defaultvalue":null,
 "description":"Unique line for this document",
 "displaylength":11,
 "displaylogic":null,
 "entitytype":"D",
 "help":"Indicates the unique line for a document.  It will also control the display order of the lines within a document.",
 "included_tab_id":null,
 "infofactoryclass":null,
 "isactive":"Y",
 "isallowcopy":"N",
 "isallownewattributeinstance":"N",
 "iscentrallymaintained":"Y",
 "isdisplayed":"Y",
 "isdisplayedgrid":"Y",
 "isencrypted":"N",
 "isfieldonly":"N",
 "isheading":"N",
 "ismandatory":null,
 "isquickentry":null,
 "isreadonly":"Y",
 "issameline":"N",
 "numlines":1,
 "obscuretype":null,
 "seqno":10,
 "seqnogrid":null,
 "sortno":1,
 "updated":"2013-09-23T11:49:46",
 "updatedby":100,
 "xposition":1}, "children" : []},{"tablename" : "ad_field", "data" : {"ad_field_id":69554,
 "name":"Aisle (X)",
 "ad_client_id":0,
 "ad_column_id":67794,
 "ad_fieldgroup_id":null,
 "ad_org_id":0,
 "ad_reference_id":null,
 "ad_reference_value_id":null,
 "ad_tab_id":53769,
 "ad_val_rule_id":null,
 "columnspan":3,
 "created":"2013-09-23T11:49:48",
 "createdby":100,
 "defaultvalue":null,
 "description":"X dimension, e.g., Aisle",
 "displaylength":60,
 "displaylogic":null,
 "entitytype":"D",
 "help":"The X dimension indicates the Aisle a product is located in.",
 "included_tab_id":null,
 "infofactoryclass":null,
 "isactive":"Y",
 "isallowcopy":null,
 "isallownewattributeinstance":"N",
 "iscentrallymaintained":"Y",
 "isdisplayed":"Y",
 "isdisplayedgrid":"Y",
 "isencrypted":"N",
 "isfieldonly":"N",
 "isheading":"N",
 "ismandatory":null,
 "isquickentry":null,
 "isreadonly":"Y",
 "issameline":"Y",
 "numlines":1,
 "obscuretype":null,
 "seqno":20,
 "seqnogrid":130,
 "sortno":0,
 "updated":"2013-09-23T11:49:48",
 "updatedby":100,
 "xposition":3}, "children" : []},{"tablename" : "ad_field", "data" : {"ad_field_id":69555,
 "name":"Locator",
 "ad_client_id":0,
 "ad_column_id":3564,
 "ad_fieldgroup_id":null,
 "ad_org_id":0,
 "ad_reference_id":null,
 "ad_reference_value_id":null,
 "ad_tab_id":53769,
 "ad_val_rule_id":null,
 "columnspan":2,
 "created":"2013-09-23T11:49:51",
 "createdby":100,
 "defaultvalue":null,
 "description":"Warehouse Locator",
 "displaylength":14,
 "displaylogic":null,
 "entitytype":"D",
 "help":"The Locator indicates where in a Warehouse a product is located.",
 "included_tab_id":null,
 "infofactoryclass":null,
 "isactive":"Y",
 "isallowcopy":null,
 "isallownewattributeinstance":"N",
 "iscentrallymaintained":"Y",
 "isdisplayed":"Y",
 "isdisplayedgrid":"Y",
 "isencrypted":"N",
 "isfieldonly":"N",
 "isheading":"N",
 "ismandatory":null,
 "isquickentry":null,
 "isreadonly":"Y",
 "issameline":"N",
 "numlines":1,
 "obscuretype":null,
 "seqno":30,
 "seqnogrid":null,
 "sortno":null,
 "updated":"2013-09-23T11:49:51",
 "updatedby":100,
 "xposition":1}, "children" : []},{"tablename" : "ad_field", "data" : {"ad_field_id":69556,
 "name":"Product",
 "ad_client_id":0,
 "ad_column_id":3565,
 "ad_fieldgroup_id":null,
 "ad_org_id":0,
 "ad_reference_id":null,
 "ad_reference_value_id":null,
 "ad_tab_id":53769,
 "ad_val_rule_id":null,
 "columnspan":5,
 "created":"2013-09-23T11:49:53",
 "createdby":100,
 "defaultvalue":null,
 "description":"Product, Service, Item",
 "displaylength":100,
 "displaylogic":null,
 "entitytype":"D",
 "help":"Identifies an item which is either purchased or sold in this organization.",
 "included_tab_id":null,
 "infofactoryclass":null,
 "isactive":"Y",
 "isallowcopy":null,
 "isallownewattributeinstance":"N",
 "iscentrallymaintained":"Y",
 "isdisplayed":"Y",
 "isdisplayedgrid":"Y",
 "isencrypted":"N",
 "isfieldonly":"N",
 "isheading":"N",
 "ismandatory":"Y",
 "isquickentry":null,
 "isreadonly":"Y",
 "issameline":"N",
 "numlines":1,
 "obscuretype":null,
 "seqno":40,
 "seqnogrid":null,
 "sortno":null,
 "updated":"2013-09-23T11:49:53",
 "updatedby":100,
 "xposition":1}, "children" : []},{"tablename" : "ad_field", "data" : {"ad_field_id":69557,
 "name":"Picked Qty",
 "ad_client_id":0,
 "ad_column_id":67798,
 "ad_fieldgroup_id":null,
 "ad_org_id":0,
 "ad_reference_id":null,
 "ad_reference_value_id":null,
 "ad_tab_id":53769,
 "ad_val_rule_id":null,
 "columnspan":2,
 "created":"2013-09-23T11:49:55",
 "createdby":100,
 "defaultvalue":null,
 "description":null,
 "displaylength":22,
 "displaylogic":null,
 "entitytype":"D",
 "help":null,
 "included_tab_id":null,
 "infofactoryclass":null,
 "isactive":"Y",
 "isallowcopy":null,
 "isallownewattributeinstance":"N",
 "iscentrallymaintained":"Y",
 "isdisplayed":"Y",
 "isdisplayedgrid":"Y",
 "isencrypted":"N",
 "isfieldonly":"N",
 "isheading":"N",
 "ismandatory":null,
 "isquickentry":null,
 "isreadonly":"Y",
 "issameline":"N",
 "numlines":1,
 "obscuretype":null,
 "seqno":50,
 "seqnogrid":140,
 "sortno":0,
 "updated":"2013-09-23T11:49:55",
 "updatedby":100,
 "xposition":1}, "children" : []},{"tablename" : "ad_field", "data" : {"ad_field_id":69558,
 "name":"First Count Qty",
 "ad_client_id":0,
 "ad_column_id":67791,
 "ad_fieldgroup_id":null,
 "ad_org_id":0,
 "ad_reference_id":null,
 "ad_reference_value_id":null,
 "ad_tab_id":53769,
 "ad_val_rule_id":null,
 "columnspan":2,
 "created":"2013-09-23T11:49:58",
 "createdby":100,
 "defaultvalue":null,
 "description":null,
 "displaylength":22,
 "displaylogic":null,
 "entitytype":"D",
 "help":null,
 "included_tab_id":null,
 "infofactoryclass":null,
 "isactive":"Y",
 "isallowcopy":null,
 "isallownewattributeinstance":"N",
 "iscentrallymaintained":"Y",
 "isdisplayed":"Y",
 "isdisplayedgrid":"Y",
 "isencrypted":"N",
 "isfieldonly":"N",
 "isheading":"N",
 "ismandatory":null,
 "isquickentry":null,
 "isreadonly":"N",
 "issameline":"N",
 "numlines":1,
 "obscuretype":null,
 "seqno":60,
 "seqnogrid":150,
 "sortno":0,
 "updated":"2013-09-23T11:49:58",
 "updatedby":100,
 "xposition":1}, "children" : []},{"tablename" : "ad_field", "data" : {"ad_field_id":69559,
 "name":"Count Entered",
 "ad_client_id":0,
 "ad_column_id":67793,
 "ad_fieldgroup_id":null,
 "ad_org_id":0,
 "ad_reference_id":null,
 "ad_reference_value_id":null,
 "ad_tab_id":53769,
 "ad_val_rule_id":null,
 "columnspan":2,
 "created":"2013-09-23T11:50:00",
 "createdby":100,
 "defaultvalue":null,
 "description":null,
 "displaylength":1,
 "displaylogic":null,
 "entitytype":"D",
 "help":null,
 "included_tab_id":null,
 "infofactoryclass":null,
 "isactive":"Y",
 "isallowcopy":null,
 "isallownewattributeinstance":"N",
 "iscentrallymaintained":"Y",
 "isdisplayed":"Y",
 "isdisplayedgrid":"Y",
 "isencrypted":"N",
 "isfieldonly":"N",
 "isheading":"N",
 "ismandatory":null,
 "isquickentry":null,
 "isreadonly":"N",
 "issameline":"Y",
 "numlines":1,
 "obscuretype":null,
 "seqno":70,
 "seqnogrid":160,
 "sortno":0,
 "updated":"2013-09-23T11:50:00",
 "updatedby":100,
 "xposition":5}, "children" : []},{"tablename" : "ad_field", "data" : {"ad_field_id":69560,
 "name":"Second Count Qty",
 "ad_client_id":0,
 "ad_column_id":67792,
 "ad_fieldgroup_id":null,
 "ad_org_id":0,
 "ad_reference_id":null,
 "ad_reference_value_id":null,
 "ad_tab_id":53769,
 "ad_val_rule_id":null,
 "columnspan":2,
 "created":"2013-09-23T11:50:02",
 "createdby":100,
 "defaultvalue":null,
 "description":null,
 "displaylength":22,
 "displaylogic":null,
 "entitytype":"D",
 "help":null,
 "included_tab_id":null,
 "infofactoryclass":null,
 "isactive":"Y",
 "isallowcopy":null,
 "isallownewattributeinstance":"N",
 "iscentrallymaintained":"Y",
 "isdisplayed":"Y",
 "isdisplayedgrid":"Y",
 "isencrypted":"N",
 "isfieldonly":"N",
 "isheading":"N",
 "ismandatory":null,
 "isquickentry":null,
 "isreadonly":"N",
 "issameline":"N",
 "numlines":1,
 "obscuretype":null,
 "seqno":80,
 "seqnogrid":170,
 "sortno":0,
 "updated":"2013-09-23T11:50:02",
 "updatedby":100,
 "xposition":1}, "children" : []},{"tablename" : "ad_field", "data" : {"ad_field_id":69561,
 "name":"Quantity book",
 "ad_client_id":0,
 "ad_column_id":3566,
 "ad_fieldgroup_id":null,
 "ad_org_id":0,
 "ad_reference_id":null,
 "ad_reference_value_id":null,
 "ad_tab_id":53769,
 "ad_val_rule_id":null,
 "columnspan":2,
 "created":"2013-09-23T11:50:05",
 "createdby":100,
 "defaultvalue":null,
 "description":"Book Quantity",
 "displaylength":26,
 "displaylogic":null,
 "entitytype":"D",
 "help":"The Quantity Book indicates the line count stored in the system for a product in inventory",
 "included_tab_id":null,
 "infofactoryclass":null,
 "isactive":"Y",
 "isallowcopy":null,
 "isallownewattributeinstance":"N",
 "iscentrallymaintained":"Y",
 "isdisplayed":"Y",
 "isdisplayedgrid":"Y",
 "isencrypted":"N",
 "isfieldonly":"N",
 "isheading":"N",
 "ismandatory":null,
 "isquickentry":null,
 "isreadonly":"Y",
 "issameline":"Y",
 "numlines":1,
 "obscuretype":null,
 "seqno":90,
 "seqnogrid":null,
 "sortno":null,
 "updated":"2013-09-23T11:50:05",
 "updatedby":100,
 "xposition":4}, "children" : []}]}]},
 {"tablename" : "ad_window", "data" : {"ad_window_id":100045,
 "name":"Print Font Library",
 "ad_client_id":0,
 "ad_color_id":null,
 "ad_image_id":null,
 "ad_org_id":0,
 "created":"2020-11-10T06:33:41",
 "createdby":100,
 "description":null,
 "entitytype":"D",
 "help":null,
 "isactive":"Y",
 "isbetafunctionality":"N",
 "isdefault":"N",
 "issotrx":"Y",
 "processing":"N",
 "updated":"2023-01-23T00:00:00",
 "updatedby":100,
 "windowtype":"M",
 "winheight":0,
 "winwidth":0}, "children" : [{"tablename" : "ad_tab", "data" : {"ad_tab_id":100140,
 "name":"Print Font Library",
 "ad_window_id":100045,
 "ad_client_id":0,
 "ad_column_id":null,
 "ad_columnsortorder_id":null,
 "ad_columnsortyesno_id":null,
 "ad_image_id":null,
 "ad_org_id":0,
 "ad_process_id":null,
 "ad_table_id":100099,
 "commitwarning":null,
 "created":"2020-11-10T06:34:15",
 "createdby":100,
 "description":null,
 "displaylogic":null,
 "entitytype":"D",
 "hastree":"N",
 "help":null,
 "importfields":"N",
 "included_tab_id":null,
 "isactive":"Y",
 "isadvancedtab":"N",
 "isinfotab":"N",
 "isinheritfiltertoreports":"N",
 "isinsertrecord":"Y",
 "isreadonly":"N",
 "issinglerow":"Y",
 "issorttab":"N",
 "istranslationtab":"N",
 "orderbyclause":null,
 "parent_column_id":null,
 "processing":"N",
 "readonlylogic":null,
 "seqno":10,
 "tablevel":0,
 "updated":"2023-01-23T00:00:00",
 "updatedby":100,
 "whereclause":null}, "children" : [{"tablename" : "ad_field", "data" : {"ad_field_id":105440,
 "name":"Active",
 "ad_client_id":0,
 "ad_column_id":103412,
 "ad_fieldgroup_id":null,
 "ad_org_id":0,
 "ad_reference_id":null,
 "ad_reference_value_id":null,
 "ad_tab_id":100140,
 "ad_val_rule_id":null,
 "columnspan":1,
 "created":"2020-11-10T06:34:18",
 "createdby":100,
 "defaultvalue":null,
 "description":"The record is active in the system",
 "displaylength":1,
 "displaylogic":null,
 "entitytype":"D",
 "help":"There are two methods of making records unavailable in the system: One is to delete the record, the other is to de-activate the record. A de-activated record is not available for selection, but available for reports.\nThere are two reasons for de-activating and not deleting records:\n(1) The system requires the record for audit purposes.\n(2) The record is referenced by other records. E.g., you cannot delete a Business Partner, if there are invoices for this partner record existing. You de-activate the Business Partner and prevent that this record is used for future entries.",
 "included_tab_id":null,
 "infofactoryclass":null,
 "isactive":"Y",
 "isallowcopy":null,
 "isallownewattributeinstance":"N",
 "iscentrallymaintained":"Y",
 "isdisplayed":"Y",
 "isdisplayedgrid":"Y",
 "isencrypted":"N",
 "isfieldonly":"N",
 "isheading":"N",
 "ismandatory":null,
 "isquickentry":null,
 "isreadonly":"N",
 "issameline":"Y",
 "numlines":1,
 "obscuretype":null,
 "seqno":40,
 "seqnogrid":null,
 "sortno":null,
 "updated":"2023-01-23T00:00:00",
 "updatedby":100,
 "xposition":1}, "children" : []},{"tablename" : "ad_field", "data" : {"ad_field_id":105441,
 "name":"Client",
 "ad_client_id":0,
 "ad_column_id":103410,
 "ad_fieldgroup_id":null,
 "ad_org_id":0,
 "ad_reference_id":null,
 "ad_reference_value_id":null,
 "ad_tab_id":100140,
 "ad_val_rule_id":null,
 "columnspan":1,
 "created":"2020-11-10T06:34:18",
 "createdby":100,
 "defaultvalue":null,
 "description":"Client/Tenant for this installation.",
 "displaylength":22,
 "displaylogic":null,
 "entitytype":"D",
 "help":"A Client is a company or a legal entity. You cannot share data between Clients. Tenant is a synonym for Client.",
 "included_tab_id":null,
 "infofactoryclass":null,
 "isactive":"Y",
 "isallowcopy":null,
 "isallownewattributeinstance":"N",
 "iscentrallymaintained":"Y",
 "isdisplayed":"Y",
 "isdisplayedgrid":"Y",
 "isencrypted":"N",
 "isfieldonly":"N",
 "isheading":"N",
 "ismandatory":null,
 "isquickentry":null,
 "isreadonly":"N",
 "issameline":"N",
 "numlines":1,
 "obscuretype":null,
 "seqno":10,
 "seqnogrid":null,
 "sortno":null,
 "updated":"2023-01-23T00:00:00",
 "updatedby":100,
 "xposition":1}, "children" : []},{"tablename" : "ad_field", "data" : {"ad_field_id":105442,
 "name":"Name",
 "ad_client_id":0,
 "ad_column_id":103418,
 "ad_fieldgroup_id":null,
 "ad_org_id":0,
 "ad_reference_id":null,
 "ad_reference_value_id":null,
 "ad_tab_id":100140,
 "ad_val_rule_id":null,
 "columnspan":1,
 "created":"2020-11-10T06:34:18",
 "createdby":100,
 "defaultvalue":null,
 "description":"Alphanumeric identifier of the entity",
 "displaylength":22,
 "displaylogic":null,
 "entitytype":"D",
 "help":"The name of an entity (record) is used as an default search option in addition to the search key. The name is up to 60 characters in length.",
 "included_tab_id":null,
 "infofactoryclass":null,
 "isactive":"Y",
 "isallowcopy":null,
 "isallownewattributeinstance":"N",
 "iscentrallymaintained":"Y",
 "isdisplayed":"Y",
 "isdisplayedgrid":"Y",
 "isencrypted":"N",
 "isfieldonly":"N",
 "isheading":"N",
 "ismandatory":null,
 "isquickentry":null,
 "isreadonly":"N",
 "issameline":"N",
 "numlines":1,
 "obscuretype":null,
 "seqno":30,
 "seqnogrid":null,
 "sortno":null,
 "updated":"2023-01-23T00:00:00",
 "updatedby":100,
 "xposition":1}, "children" : []},{"tablename" : "ad_field", "data" : {"ad_field_id":105443,
 "name":"Organisation",
 "ad_client_id":0,
 "ad_column_id":103411,
 "ad_fieldgroup_id":null,
 "ad_org_id":0,
 "ad_reference_id":null,
 "ad_reference_value_id":null,
 "ad_tab_id":100140,
 "ad_val_rule_id":null,
 "columnspan":1,
 "created":"2020-11-10T06:34:18",
 "createdby":100,
 "defaultvalue":null,
 "description":"Organisational entity within client",
 "displaylength":22,
 "displaylogic":null,
 "entitytype":"D",
 "help":"An organisation is a unit of your client or legal entity - examples are store, department. You can share data between organisations.",
 "included_tab_id":null,
 "infofactoryclass":null,
 "isactive":"Y",
 "isallowcopy":null,
 "isallownewattributeinstance":"N",
 "iscentrallymaintained":"Y",
 "isdisplayed":"Y",
 "isdisplayedgrid":"Y",
 "isencrypted":"N",
 "isfieldonly":"N",
 "isheading":"N",
 "ismandatory":null,
 "isquickentry":null,
 "isreadonly":"N",
 "issameline":"Y",
 "numlines":1,
 "obscuretype":null,
 "seqno":20,
 "seqnogrid":null,
 "sortno":null,
 "updated":"2023-01-23T00:00:00",
 "updatedby":100,
 "xposition":1}, "children" : []},{"tablename" : "ad_field", "data" : {"ad_field_id":105444,
 "name":"Print Font Library ID",
 "ad_client_id":0,
 "ad_column_id":103417,
 "ad_fieldgroup_id":null,
 "ad_org_id":0,
 "ad_reference_id":null,
 "ad_reference_value_id":null,
 "ad_tab_id":100140,
 "ad_val_rule_id":null,
 "columnspan":1,
 "created":"2020-11-10T06:34:18",
 "createdby":100,
 "defaultvalue":null,
 "description":null,
 "displaylength":22,
 "displaylogic":null,
 "entitytype":"D",
 "help":null,
 "included_tab_id":null,
 "infofactoryclass":null,
 "isactive":"Y",
 "isallowcopy":null,
 "isallownewattributeinstance":"N",
 "iscentrallymaintained":"Y",
 "isdisplayed":"N",
 "isdisplayedgrid":"N",
 "isencrypted":"N",
 "isfieldonly":"N",
 "isheading":"N",
 "ismandatory":null,
 "isquickentry":null,
 "isreadonly":"N",
 "issameline":"N",
 "numlines":1,
 "obscuretype":null,
 "seqno":null,
 "seqnogrid":null,
 "sortno":null,
 "updated":"2023-01-23T00:00:00",
 "updatedby":100,
 "xposition":1}, "children" : []},{"tablename" : "ad_field", "data" : {"ad_field_id":105456,
 "name":"Create new fonts",
 "ad_client_id":0,
 "ad_column_id":103420,
 "ad_fieldgroup_id":null,
 "ad_org_id":0,
 "ad_reference_id":null,
 "ad_reference_value_id":null,
 "ad_tab_id":100140,
 "ad_val_rule_id":null,
 "columnspan":1,
 "created":"2020-11-10T07:06:14",
 "createdby":100,
 "defaultvalue":null,
 "description":"Process the reversal immediately",
 "displaylength":1,
 "displaylogic":null,
 "entitytype":"D",
 "help":"If no, the reversal task will be created but will need to be processed manually",
 "included_tab_id":null,
 "infofactoryclass":null,
 "isactive":"Y",
 "isallowcopy":null,
 "isallownewattributeinstance":"N",
 "iscentrallymaintained":"N",
 "isdisplayed":"Y",
 "isdisplayedgrid":"Y",
 "isencrypted":"N",
 "isfieldonly":"N",
 "isheading":"N",
 "ismandatory":null,
 "isquickentry":null,
 "isreadonly":"N",
 "issameline":"N",
 "numlines":1,
 "obscuretype":null,
 "seqno":null,
 "seqnogrid":null,
 "sortno":null,
 "updated":"2023-01-23T00:00:00",
 "updatedby":100,
 "xposition":1}, "children" : []}]},{"tablename" : "ad_tab", "data" : {"ad_tab_id":100141,
 "name":"Print Font",
 "ad_window_id":100045,
 "ad_client_id":0,
 "ad_column_id":103419,
 "ad_columnsortorder_id":null,
 "ad_columnsortyesno_id":null,
 "ad_image_id":null,
 "ad_org_id":0,
 "ad_process_id":null,
 "ad_table_id":491,
 "commitwarning":null,
 "created":"2020-11-10T06:36:28",
 "createdby":100,
 "description":null,
 "displaylogic":null,
 "entitytype":"D",
 "hastree":"N",
 "help":null,
 "importfields":"N",
 "included_tab_id":null,
 "isactive":"Y",
 "isadvancedtab":"N",
 "isinfotab":"N",
 "isinheritfiltertoreports":"N",
 "isinsertrecord":"Y",
 "isreadonly":"N",
 "issinglerow":"N",
 "issorttab":"N",
 "istranslationtab":"N",
 "orderbyclause":null,
 "parent_column_id":103417,
 "processing":"N",
 "readonlylogic":null,
 "seqno":20,
 "tablevel":1,
 "updated":"2023-01-23T00:00:00",
 "updatedby":100,
 "whereclause":null}, "children" : [{"tablename" : "ad_field", "data" : {"ad_field_id":105445,
 "name":"Active",
 "ad_client_id":0,
 "ad_column_id":6984,
 "ad_fieldgroup_id":null,
 "ad_org_id":0,
 "ad_reference_id":null,
 "ad_reference_value_id":null,
 "ad_tab_id":100141,
 "ad_val_rule_id":null,
 "columnspan":1,
 "created":"2020-11-10T06:36:32",
 "createdby":100,
 "defaultvalue":null,
 "description":"The record is active in the system",
 "displaylength":1,
 "displaylogic":null,
 "entitytype":"D",
 "help":"There are two methods of making records unavailable in the system: One is to delete the record, the other is to de-activate the record. A de-activated record is not available for selection, but available for reports.\nThere are two reasons for de-activating and not deleting records:\n(1) The system requires the record for audit purposes.\n(2) The record is referenced by other records. E.g., you cannot delete a Business Partner, if there are invoices for this partner record existing. You de-activate the Business Partner and prevent that this record is used for future entries.",
 "included_tab_id":null,
 "infofactoryclass":null,
 "isactive":"Y",
 "isallowcopy":null,
 "isallownewattributeinstance":"N",
 "iscentrallymaintained":"Y",
 "isdisplayed":"Y",
 "isdisplayedgrid":"Y",
 "isencrypted":"N",
 "isfieldonly":"N",
 "isheading":"N",
 "ismandatory":null,
 "isquickentry":null,
 "isreadonly":"N",
 "issameline":"Y",
 "numlines":1,
 "obscuretype":null,
 "seqno":40,
 "seqnogrid":null,
 "sortno":null,
 "updated":"2023-01-23T00:00:00",
 "updatedby":100,
 "xposition":1}, "children" : []},{"tablename" : "ad_field", "data" : {"ad_field_id":105446,
 "name":"Client",
 "ad_client_id":0,
 "ad_column_id":6987,
 "ad_fieldgroup_id":null,
 "ad_org_id":0,
 "ad_reference_id":null,
 "ad_reference_value_id":null,
 "ad_tab_id":100141,
 "ad_val_rule_id":null,
 "columnspan":1,
 "created":"2020-11-10T06:36:32",
 "createdby":100,
 "defaultvalue":null,
 "description":"Client/Tenant for this installation.",
 "displaylength":22,
 "displaylogic":null,
 "entitytype":"D",
 "help":"A Client is a company or a legal entity. You cannot share data between Clients. Tenant is a synonym for Client.",
 "included_tab_id":null,
 "infofactoryclass":null,
 "isactive":"Y",
 "isallowcopy":null,
 "isallownewattributeinstance":"N",
 "iscentrallymaintained":"Y",
 "isdisplayed":"Y",
 "isdisplayedgrid":"Y",
 "isencrypted":"N",
 "isfieldonly":"N",
 "isheading":"N",
 "ismandatory":null,
 "isquickentry":null,
 "isreadonly":"N",
 "issameline":"N",
 "numlines":1,
 "obscuretype":null,
 "seqno":10,
 "seqnogrid":null,
 "sortno":null,
 "updated":"2023-01-23T00:00:00",
 "updatedby":100,
 "xposition":1}, "children" : []},{"tablename" : "ad_field", "data" : {"ad_field_id":105447,
 "name":"Default",
 "ad_client_id":0,
 "ad_column_id":6991,
 "ad_fieldgroup_id":null,
 "ad_org_id":0,
 "ad_reference_id":null,
 "ad_reference_value_id":null,
 "ad_tab_id":100141,
 "ad_val_rule_id":null,
 "columnspan":1,
 "created":"2020-11-10T06:36:32",
 "createdby":100,
 "defaultvalue":null,
 "description":"Default value",
 "displaylength":1,
 "displaylogic":null,
 "entitytype":"D",
 "help":"The Default Checkbox indicates if this record will be used as a default value.",
 "included_tab_id":null,
 "infofactoryclass":null,
 "isactive":"Y",
 "isallowcopy":null,
 "isallownewattributeinstance":"N",
 "iscentrallymaintained":"Y",
 "isdisplayed":"Y",
 "isdisplayedgrid":"Y",
 "isencrypted":"N",
 "isfieldonly":"N",
 "isheading":"N",
 "ismandatory":null,
 "isquickentry":null,
 "isreadonly":"N",
 "issameline":"Y",
 "numlines":1,
 "obscuretype":null,
 "seqno":70,
 "seqnogrid":null,
 "sortno":null,
 "updated":"2023-01-23T00:00:00",
 "updatedby":100,
 "xposition":1}, "children" : []},{"tablename" : "ad_field", "data" : {"ad_field_id":105448,
 "name":"Embedded Font",
 "ad_client_id":0,
 "ad_column_id":84257,
 "ad_fieldgroup_id":null,
 "ad_org_id":0,
 "ad_reference_id":null,
 "ad_reference_value_id":null,
 "ad_tab_id":100141,
 "ad_val_rule_id":null,
 "columnspan":1,
 "created":"2020-11-10T06:36:32",
 "createdby":100,
 "defaultvalue":null,
 "description":"Font is embedded in the Library",
 "displaylength":1,
 "displaylogic":null,
 "entitytype":"D",
 "help":null,
 "included_tab_id":null,
 "infofactoryclass":null,
 "isactive":"Y",
 "isallowcopy":null,
 "isallownewattributeinstance":"N",
 "iscentrallymaintained":"Y",
 "isdisplayed":"Y",
 "isdisplayedgrid":"Y",
 "isencrypted":"N",
 "isfieldonly":"N",
 "isheading":"N",
 "ismandatory":null,
 "isquickentry":null,
 "isreadonly":"N",
 "issameline":"N",
 "numlines":1,
 "obscuretype":null,
 "seqno":60,
 "seqnogrid":null,
 "sortno":null,
 "updated":"2023-01-23T00:00:00",
 "updatedby":100,
 "xposition":1}, "children" : []},{"tablename" : "ad_field", "data" : {"ad_field_id":105449,
 "name":"Font Filename",
 "ad_client_id":0,
 "ad_column_id":84258,
 "ad_fieldgroup_id":null,
 "ad_org_id":0,
 "ad_reference_id":null,
 "ad_reference_value_id":null,
 "ad_tab_id":100141,
 "ad_val_rule_id":null,
 "columnspan":1,
 "created":"2020-11-10T06:36:32",
 "createdby":100,
 "defaultvalue":null,
 "description":"Filename to use in embedding the font",
 "displaylength":20,
 "displaylogic":null,
 "entitytype":"D",
 "help":null,
 "included_tab_id":null,
 "infofactoryclass":null,
 "isactive":"Y",
 "isallowcopy":null,
 "isallownewattributeinstance":"N",
 "iscentrallymaintained":"Y",
 "isdisplayed":"Y",
 "isdisplayedgrid":"Y",
 "isencrypted":"N",
 "isfieldonly":"N",
 "isheading":"N",
 "ismandatory":null,
 "isquickentry":null,
 "isreadonly":"N",
 "issameline":"N",
 "numlines":1,
 "obscuretype":null,
 "seqno":80,
 "seqnogrid":null,
 "sortno":null,
 "updated":"2023-01-23T00:00:00",
 "updatedby":100,
 "xposition":1}, "children" : []},{"tablename" : "ad_field", "data" : {"ad_field_id":105450,
 "name":"Font Size",
 "ad_client_id":0,
 "ad_column_id":84259,
 "ad_fieldgroup_id":null,
 "ad_org_id":0,
 "ad_reference_id":null,
 "ad_reference_value_id":null,
 "ad_tab_id":100141,
 "ad_val_rule_id":null,
 "columnspan":1,
 "created":"2020-11-10T06:36:32",
 "createdby":100,
 "defaultvalue":null,
 "description":"Size of the Font",
 "displaylength":14,
 "displaylogic":null,
 "entitytype":"D",
 "help":null,
 "included_tab_id":null,
 "infofactoryclass":null,
 "isactive":"Y",
 "isallowcopy":null,
 "isallownewattributeinstance":"N",
 "iscentrallymaintained":"Y",
 "isdisplayed":"Y",
 "isdisplayedgrid":"Y",
 "isencrypted":"N",
 "isfieldonly":"N",
 "isheading":"N",
 "ismandatory":null,
 "isquickentry":null,
 "isreadonly":"N",
 "issameline":"Y",
 "numlines":1,
 "obscuretype":null,
 "seqno":90,
 "seqnogrid":null,
 "sortno":null,
 "updated":"2023-01-23T00:00:00",
 "updatedby":100,
 "xposition":1}, "children" : []},{"tablename" : "ad_field", "data" : {"ad_field_id":105451,
 "name":"Name",
 "ad_client_id":0,
 "ad_column_id":6983,
 "ad_fieldgroup_id":null,
 "ad_org_id":0,
 "ad_reference_id":null,
 "ad_reference_value_id":null,
 "ad_tab_id":100141,
 "ad_val_rule_id":null,
 "columnspan":1,
 "created":"2020-11-10T06:36:32",
 "createdby":100,
 "defaultvalue":null,
 "description":"Alphanumeric identifier of the entity",
 "displaylength":20,
 "displaylogic":null,
 "entitytype":"D",
 "help":"The name of an entity (record) is used as an default search option in addition to the search key. The name is up to 60 characters in length.",
 "included_tab_id":null,
 "infofactoryclass":null,
 "isactive":"Y",
 "isallowcopy":null,
 "isallownewattributeinstance":"N",
 "iscentrallymaintained":"Y",
 "isdisplayed":"Y",
 "isdisplayedgrid":"Y",
 "isencrypted":"N",
 "isfieldonly":"N",
 "isheading":"N",
 "ismandatory":null,
 "isquickentry":null,
 "isreadonly":"N",
 "issameline":"N",
 "numlines":1,
 "obscuretype":null,
 "seqno":50,
 "seqnogrid":null,
 "sortno":null,
 "updated":"2023-01-23T00:00:00",
 "updatedby":100,
 "xposition":1}, "children" : []},{"tablename" : "ad_field", "data" : {"ad_field_id":105452,
 "name":"Organisation",
 "ad_client_id":0,
 "ad_column_id":6986,
 "ad_fieldgroup_id":null,
 "ad_org_id":0,
 "ad_reference_id":null,
 "ad_reference_value_id":null,
 "ad_tab_id":100141,
 "ad_val_rule_id":null,
 "columnspan":1,
 "created":"2020-11-10T06:36:32",
 "createdby":100,
 "defaultvalue":null,
 "description":"Organisational entity within client",
 "displaylength":22,
 "displaylogic":null,
 "entitytype":"D",
 "help":"An organisation is a unit of your client or legal entity - examples are store, department. You can share data between organisations.",
 "included_tab_id":null,
 "infofactoryclass":null,
 "isactive":"Y",
 "isallowcopy":null,
 "isallownewattributeinstance":"N",
 "iscentrallymaintained":"Y",
 "isdisplayed":"Y",
 "isdisplayedgrid":"Y",
 "isencrypted":"N",
 "isfieldonly":"N",
 "isheading":"N",
 "ismandatory":null,
 "isquickentry":null,
 "isreadonly":"N",
 "issameline":"Y",
 "numlines":1,
 "obscuretype":null,
 "seqno":20,
 "seqnogrid":null,
 "sortno":null,
 "updated":"2023-01-23T00:00:00",
 "updatedby":100,
 "xposition":1}, "children" : []},{"tablename" : "ad_field", "data" : {"ad_field_id":105453,
 "name":"Print Font",
 "ad_client_id":0,
 "ad_column_id":6989,
 "ad_fieldgroup_id":null,
 "ad_org_id":0,
 "ad_reference_id":null,
 "ad_reference_value_id":null,
 "ad_tab_id":100141,
 "ad_val_rule_id":null,
 "columnspan":1,
 "created":"2020-11-10T06:36:33",
 "createdby":100,
 "defaultvalue":null,
 "description":"Maintain Print Font",
 "displaylength":22,
 "displaylogic":null,
 "entitytype":"D",
 "help":"Font used for printing",
 "included_tab_id":null,
 "infofactoryclass":null,
 "isactive":"Y",
 "isallowcopy":null,
 "isallownewattributeinstance":"N",
 "iscentrallymaintained":"Y",
 "isdisplayed":"N",
 "isdisplayedgrid":"N",
 "isencrypted":"N",
 "isfieldonly":"N",
 "isheading":"N",
 "ismandatory":null,
 "isquickentry":null,
 "isreadonly":"N",
 "issameline":"N",
 "numlines":1,
 "obscuretype":null,
 "seqno":null,
 "seqnogrid":null,
 "sortno":null,
 "updated":"2023-01-23T00:00:00",
 "updatedby":100,
 "xposition":1}, "children" : []},{"tablename" : "ad_field", "data" : {"ad_field_id":105454,
 "name":"Print Font Library",
 "ad_client_id":0,
 "ad_column_id":103419,
 "ad_fieldgroup_id":null,
 "ad_org_id":0,
 "ad_reference_id":null,
 "ad_reference_value_id":null,
 "ad_tab_id":100141,
 "ad_val_rule_id":null,
 "columnspan":1,
 "created":"2020-11-10T06:36:33",
 "createdby":100,
 "defaultvalue":null,
 "description":null,
 "displaylength":10,
 "displaylogic":null,
 "entitytype":"D",
 "help":null,
 "included_tab_id":null,
 "infofactoryclass":null,
 "isactive":"Y",
 "isallowcopy":null,
 "isallownewattributeinstance":"N",
 "iscentrallymaintained":"Y",
 "isdisplayed":"Y",
 "isdisplayedgrid":"Y",
 "isencrypted":"N",
 "isfieldonly":"N",
 "isheading":"N",
 "ismandatory":null,
 "isquickentry":null,
 "isreadonly":"N",
 "issameline":"N",
 "numlines":1,
 "obscuretype":null,
 "seqno":30,
 "seqnogrid":null,
 "sortno":null,
 "updated":"2023-01-23T00:00:00",
 "updatedby":100,
 "xposition":1}, "children" : []},{"tablename" : "ad_field", "data" : {"ad_field_id":105455,
 "name":"Validation code",
 "ad_client_id":0,
 "ad_column_id":6988,
 "ad_fieldgroup_id":null,
 "ad_org_id":0,
 "ad_reference_id":null,
 "ad_reference_value_id":null,
 "ad_tab_id":100141,
 "ad_val_rule_id":null,
 "columnspan":1,
 "created":"2020-11-10T06:36:33",
 "createdby":100,
 "defaultvalue":null,
 "description":"Validation Code",
 "displaylength":2000,
 "displaylogic":null,
 "entitytype":"D",
 "help":"The Validation Code displays the date, time and message of the error.",
 "included_tab_id":null,
 "infofactoryclass":null,
 "isactive":"Y",
 "isallowcopy":null,
 "isallownewattributeinstance":"N",
 "iscentrallymaintained":"Y",
 "isdisplayed":"N",
 "isdisplayedgrid":"Y",
 "isencrypted":"N",
 "isfieldonly":"N",
 "isheading":"N",
 "ismandatory":null,
 "isquickentry":null,
 "isreadonly":"N",
 "issameline":"N",
 "numlines":1,
 "obscuretype":null,
 "seqno":0,
 "seqnogrid":null,
 "sortno":null,
 "updated":"2023-01-23T00:00:00",
 "updatedby":100,
 "xposition":1}, "children" : []}]}]}]