[{"tablename" : "ad_element", "data" : {"ad_element_id":2530,
 "columnname":"M_RMAType_ID",
 "ad_client_id":0,
 "ad_org_id":0,
 "ad_reference_id":19,
 "ad_reference_value_id":null,
 "created":"2004-05-16T21:00:11",
 "createdby":0,
 "description":"Return Material Authorization Type",
 "entitytype":"Returns",
 "fieldlength":22,
 "help":"Types of RMA",
 "isactive":"Y",
 "name":"RMA Type",
 "po_description":null,
 "po_help":null,
 "po_name":null,
 "po_printname":null,
 "printname":"RMA Type",
 "updated":"2000-01-02T00:00:00",
 "updatedby":0}, "children" : []},
 {"tablename" : "ad_element", "data" : {"ad_element_id":52000,
 "columnname":"InOut_ID",
 "ad_client_id":0,
 "ad_org_id":0,
 "ad_reference_id":30,
 "ad_reference_value_id":337,
 "created":"2007-07-05T00:00:00",
 "createdby":100,
 "description":"MaterialShipment Document",
 "entitytype":"Returns",
 "fieldlength":22,
 "help":"The Material Shipment / Receipt ",
 "isactive":"Y",
 "name":"Shipment/Receipt",
 "po_description":"Material Receipt Document",
 "po_help":"The Material Shipment / Receipt ",
 "po_name":"Receipt",
 "po_printname":"Receipt",
 "printname":"Shipment/Receipt",
 "updated":"2007-07-05T00:00:00",
 "updatedby":100}, "children" : []},
 {"tablename" : "ad_element", "data" : {"ad_element_id":53866,
 "columnname":"Ref_RMA_ID",
 "ad_client_id":0,
 "ad_org_id":0,
 "ad_reference_id":30,
 "ad_reference_value_id":53306,
 "created":"2009-06-01T00:17:47",
 "createdby":100,
 "description":null,
 "entitytype":"Returns",
 "fieldlength":22,
 "help":null,
 "isactive":"Y",
 "name":"Referenced RMA",
 "po_description":null,
 "po_help":null,
 "po_name":null,
 "po_printname":null,
 "printname":"Ref RMA",
 "updated":"2009-06-01T00:17:47",
 "updatedby":100}, "children" : []},
 {"tablename" : "ad_element", "data" : {"ad_element_id":53867,
 "columnname":"Ref_RMALine_ID",
 "ad_client_id":0,
 "ad_org_id":0,
 "ad_reference_id":18,
 "ad_reference_value_id":53307,
 "created":"2009-06-01T00:18:37",
 "createdby":100,
 "description":null,
 "entitytype":"Returns",
 "fieldlength":22,
 "help":null,
 "isactive":"Y",
 "name":"Referenced RMA Line",
 "po_description":null,
 "po_help":null,
 "po_name":null,
 "po_printname":null,
 "printname":"Ref RMA Line",
 "updated":"2009-06-01T00:18:37",
 "updatedby":100}, "children" : []}]