[{"tablename" : "ad_element", "data" : {"ad_element_id":3051,
 "columnname":"IsReValidate",
 "ad_client_id":0,
 "ad_org_id":0,
 "ad_reference_id":null,
 "ad_reference_value_id":null,
 "created":"2006-04-25T19:41:09",
 "createdby":0,
 "description":"Re-Validate entries",
 "entitytype":"Manufacturing Light",
 "fieldlength":null,
 "help":null,
 "isactive":"Y",
 "name":"Re-Validate",
 "po_description":null,
 "po_help":null,
 "po_name":null,
 "po_printname":null,
 "printname":"Re-Validate",
 "updated":"2006-04-25T19:41:09",
 "updatedby":0}, "children" : []},
 {"tablename" : "ad_element", "data" : {"ad_element_id":53288,
 "columnname":"QtyRequiered",
 "ad_client_id":0,
 "ad_org_id":0,
 "ad_reference_id":29,
 "ad_reference_value_id":null,
 "created":"2007-12-17T05:00:42",
 "createdby":0,
 "description":null,
 "entitytype":"Manufacturing Light",
 "fieldlength":22,
 "help":null,
 "isactive":"Y",
 "name":"Qty Requiered",
 "po_description":null,
 "po_help":null,
 "po_name":null,
 "po_printname":null,
 "printname":"Qty Required",
 "updated":"2008-08-05T12:12:21",
 "updatedby":0}, "children" : []},
 {"tablename" : "ad_element", "data" : {"ad_element_id":53318,
 "columnname":"Levels",
 "ad_client_id":0,
 "ad_org_id":0,
 "ad_reference_id":10,
 "ad_reference_value_id":null,
 "created":"2007-12-17T08:45:39",
 "createdby":0,
 "description":null,
 "entitytype":"Manufacturing Light",
 "fieldlength":250,
 "help":null,
 "isactive":"Y",
 "name":"Levels",
 "po_description":null,
 "po_help":null,
 "po_name":null,
 "po_printname":null,
 "printname":"Levels",
 "updated":"2007-12-17T08:45:39",
 "updatedby":0}, "children" : []},
 {"tablename" : "ad_element", "data" : {"ad_element_id":53464,
 "columnname":"Sel_Product_ID",
 "ad_client_id":0,
 "ad_org_id":0,
 "ad_reference_id":13,
 "ad_reference_value_id":null,
 "created":"2008-05-12T13:34:10",
 "createdby":100,
 "description":null,
 "entitytype":"Manufacturing Light",
 "fieldlength":10,
 "help":null,
 "isactive":"Y",
 "name":"Selected Product",
 "po_description":null,
 "po_help":null,
 "po_name":null,
 "po_printname":null,
 "printname":"Selected Product",
 "updated":"2008-08-05T12:18:07",
 "updatedby":0}, "children" : []},
 {"tablename" : "ad_element", "data" : {"ad_element_id":54119,
 "columnname":"Product_BOM_Value",
 "ad_client_id":0,
 "ad_org_id":0,
 "ad_reference_id":10,
 "ad_reference_value_id":null,
 "created":"2010-02-15T13:06:18",
 "createdby":0,
 "description":"Key of Product BOM",
 "entitytype":"Manufacturing Light",
 "fieldlength":40,
 "help":null,
 "isactive":"Y",
 "name":"Product BOM Key",
 "po_description":null,
 "po_help":null,
 "po_name":null,
 "po_printname":null,
 "printname":"Product BOM Key",
 "updated":"2010-02-15T13:06:18",
 "updatedby":0}, "children" : []},
 {"tablename" : "ad_element", "data" : {"ad_element_id":55242,
 "columnname":"M_Product_QualityTest_ID",
 "ad_client_id":0,
 "ad_org_id":0,
 "ad_reference_id":13,
 "ad_reference_value_id":null,
 "created":"2011-07-27T15:17:37",
 "createdby":100,
 "description":null,
 "entitytype":"Manufacturing Light",
 "fieldlength":22,
 "help":null,
 "isactive":"Y",
 "name":"Product Quality Test",
 "po_description":null,
 "po_help":null,
 "po_name":null,
 "po_printname":null,
 "printname":"Product Quality Test",
 "updated":"2011-07-27T15:17:37",
 "updatedby":100}, "children" : []},
 {"tablename" : "ad_element", "data" : {"ad_element_id":55247,
 "columnname":"T_BOM_Indented_ID",
 "ad_client_id":0,
 "ad_org_id":0,
 "ad_reference_id":13,
 "ad_reference_value_id":null,
 "created":"2011-07-27T15:22:05",
 "createdby":100,
 "description":null,
 "entitytype":"Manufacturing Light",
 "fieldlength":10,
 "help":null,
 "isactive":"Y",
 "name":"Indented BOM Report",
 "po_description":null,
 "po_help":null,
 "po_name":null,
 "po_printname":null,
 "printname":"Indented BOM Report",
 "updated":"2011-07-27T15:22:05",
 "updatedby":100}, "children" : []},
 {"tablename" : "ad_element", "data" : {"ad_element_id":55248,
 "columnname":"CostFuture",
 "ad_client_id":0,
 "ad_org_id":0,
 "ad_reference_id":37,
 "ad_reference_value_id":null,
 "created":"2011-07-27T15:22:49",
 "createdby":100,
 "description":"Cost information",
 "entitytype":"Manufacturing Light",
 "fieldlength":22,
 "help":null,
 "isactive":"Y",
 "name":"Future Cost",
 "po_description":null,
 "po_help":null,
 "po_name":null,
 "po_printname":null,
 "printname":"Future Cost",
 "updated":"2011-07-27T15:22:49",
 "updatedby":100}, "children" : []},
 {"tablename" : "ad_element", "data" : {"ad_element_id":55796,
 "columnname":"M_ProductTo_ID",
 "ad_client_id":0,
 "ad_org_id":0,
 "ad_reference_id":null,
 "ad_reference_value_id":null,
 "created":"2013-02-08T07:10:15",
 "createdby":100,
 "description":null,
 "entitytype":"Manufacturing Light",
 "fieldlength":null,
 "help":null,
 "isactive":"Y",
 "name":"To Product",
 "po_description":null,
 "po_help":null,
 "po_name":null,
 "po_printname":null,
 "printname":"To Product",
 "updated":"2013-02-08T07:10:15",
 "updatedby":100}, "children" : []},
 {"tablename" : "ad_element", "data" : {"ad_element_id":58360,
 "columnname":"Parent_Product_Value",
 "ad_client_id":0,
 "ad_org_id":0,
 "ad_reference_id":10,
 "ad_reference_value_id":null,
 "created":"2015-12-16T16:44:46",
 "createdby":100,
 "description":"Key of  Parent Product",
 "entitytype":"Manufacturing Light",
 "fieldlength":40,
 "help":null,
 "isactive":"Y",
 "name":"Parent Product Key",
 "po_description":null,
 "po_help":null,
 "po_name":null,
 "po_printname":null,
 "printname":"Parent Product Key",
 "updated":"2015-12-16T16:44:46",
 "updatedby":100}, "children" : []},
 {"tablename" : "ad_element", "data" : {"ad_element_id":58361,
 "columnname":"BOMPath",
 "ad_client_id":0,
 "ad_org_id":0,
 "ad_reference_id":10,
 "ad_reference_value_id":null,
 "created":"2015-12-16T16:45:41",
 "createdby":100,
 "description":null,
 "entitytype":"Manufacturing Light",
 "fieldlength":500,
 "help":null,
 "isactive":"Y",
 "name":"BOM Path",
 "po_description":null,
 "po_help":null,
 "po_name":null,
 "po_printname":null,
 "printname":"BOM Path",
 "updated":"2015-12-16T16:45:41",
 "updatedby":100}, "children" : []},
 {"tablename" : "ad_element", "data" : {"ad_element_id":58634,
 "columnname":"M_WorkCentreType_ID",
 "ad_client_id":0,
 "ad_org_id":0,
 "ad_reference_id":null,
 "ad_reference_value_id":null,
 "created":"2016-05-12T14:42:02",
 "createdby":100,
 "description":null,
 "entitytype":"Manufacturing Light",
 "fieldlength":null,
 "help":null,
 "isactive":"Y",
 "name":"Work Centre Type ID",
 "po_description":null,
 "po_help":null,
 "po_name":null,
 "po_printname":null,
 "printname":"Work Centre Type ID",
 "updated":"2016-05-12T14:42:02",
 "updatedby":100}, "children" : []},
 {"tablename" : "ad_element", "data" : {"ad_element_id":58635,
 "columnname":"CapacityInTimeUOM",
 "ad_client_id":0,
 "ad_org_id":0,
 "ad_reference_id":29,
 "ad_reference_value_id":null,
 "created":"2016-05-12T14:53:45",
 "createdby":100,
 "description":"Define capacity in Capacity UOM (e.g. 40)",
 "entitytype":"Manufacturing Light",
 "fieldlength":0,
 "help":"Capacity is defined in Relation to ResourceType.UOM and ResourceType.CapacityUOM.  UOM could be define in Hours, but Capacity UOM could be define in Weeks",
 "isactive":"Y",
 "name":"Capacity In Time UOM",
 "po_description":null,
 "po_help":null,
 "po_name":null,
 "po_printname":null,
 "printname":"Capacity In Time UOM",
 "updated":"2016-05-12T14:53:45",
 "updatedby":100}, "children" : []},
 {"tablename" : "ad_element", "data" : {"ad_element_id":58636,
 "columnname":"CapacityUOM",
 "ad_client_id":0,
 "ad_org_id":0,
 "ad_reference_id":19,
 "ad_reference_value_id":null,
 "created":"2016-05-12T14:55:15",
 "createdby":100,
 "description":"Capacity measured as Daily, Weekly, Monthly, etc.",
 "entitytype":"Manufacturing Light",
 "fieldlength":0,
 "help":null,
 "isactive":"Y",
 "name":"Capacity UOM",
 "po_description":null,
 "po_help":null,
 "po_name":null,
 "po_printname":null,
 "printname":"Capacity UOM",
 "updated":"2016-05-12T14:55:15",
 "updatedby":100}, "children" : []}]