[{"tablename" : "ad_process", "data" : {"ad_process_id":53228,
 "value":"M_Product_BOM_Flag",
 "name":"Validate BOM Flags",
 "accesslevel":"3",
 "ad_client_id":0,
 "ad_form_id":null,
 "ad_org_id":0,
 "ad_printformat_id":null,
 "ad_reportview_id":null,
 "ad_tableselection_id":null,
 "ad_workflow_id":null,
 "classname":"org.compiere.process.BOMFlagValidate",
 "copyfromprocess":null,
 "created":"2011-07-27T16:24:36",
 "createdby":100,
 "description":"Validate BOM Flags",
 "entitytype":"Manufacturing Light",
 "help":"The Validate BOM Flags process checks that all Products with bills of materials are correctly flagged.",
 "isactive":"Y",
 "isbetafunctionality":"N",
 "isdirectprint":"N",
 "isreport":"N",
 "isserverprocess":"N",
 "jasperreport":null,
 "procedurename":null,
 "showhelp":"Y",
 "statistic_count":0,
 "statistic_seconds":0,
 "updated":"2011-07-27T16:24:36",
 "updatedby":100,
 "workflowvalue":null}, "children" : [{"tablename" : "ad_process_para", "data" : {"ad_process_para_id":53460,
 "name":"Product Category",
 "ad_client_id":0,
 "ad_element_id":453,
 "ad_org_id":0,
 "ad_process_id":53228,
 "ad_reference_id":19,
 "ad_reference_value_id":null,
 "ad_val_rule_id":null,
 "columnname":"M_Product_Category_ID",
 "created":"2011-07-27T16:24:36",
 "createdby":100,
 "defaultvalue":"-1",
 "defaultvalue2":null,
 "description":"Category of a Product",
 "displaylogic":null,
 "entitytype":"Manufacturing Light",
 "fieldlength":10,
 "help":"Identifies the category which this product belongs to.  Product categories are used for pricing and selection.",
 "isactive":"Y",
 "iscentrallymaintained":"Y",
 "ismandatory":"N",
 "isrange":"N",
 "readonlylogic":null,
 "seqno":10,
 "updated":"2011-07-27T16:24:36",
 "updatedby":100,
 "valuemax":null,
 "valuemin":null,
 "vformat":null}, "children" : []}]},
 {"tablename" : "ad_process", "data" : {"ad_process_id":53229,
 "value":"M_Product_BOM_Verify",
 "name":"Verify BOM Structure",
 "accesslevel":"3",
 "ad_client_id":0,
 "ad_form_id":null,
 "ad_org_id":0,
 "ad_printformat_id":null,
 "ad_reportview_id":null,
 "ad_tableselection_id":null,
 "ad_workflow_id":null,
 "classname":"org.compiere.process.BOMVerify",
 "copyfromprocess":null,
 "created":"2011-07-27T15:21:51",
 "createdby":100,
 "description":"Verify BOM for correctness",
 "entitytype":"Manufacturing Light",
 "help":"The Verify BOM process checks for circular BOMs (unsupported).",
 "isactive":"Y",
 "isbetafunctionality":"N",
 "isdirectprint":"N",
 "isreport":"N",
 "isserverprocess":"N",
 "jasperreport":null,
 "procedurename":null,
 "showhelp":"Y",
 "statistic_count":0,
 "statistic_seconds":0,
 "updated":"2011-07-27T15:21:51",
 "updatedby":100,
 "workflowvalue":null}, "children" : [{"tablename" : "ad_process_para", "data" : {"ad_process_para_id":53461,
 "name":"Product",
 "ad_client_id":0,
 "ad_element_id":454,
 "ad_org_id":0,
 "ad_process_id":53229,
 "ad_reference_id":30,
 "ad_reference_value_id":null,
 "ad_val_rule_id":null,
 "columnname":"M_Product_ID",
 "created":"2011-07-27T15:21:52",
 "createdby":100,
 "defaultvalue":null,
 "defaultvalue2":null,
 "description":"Product, Service, Item",
 "displaylogic":null,
 "entitytype":"Manufacturing Light",
 "fieldlength":10,
 "help":"Identifies an item which is either purchased or sold in this organization.",
 "isactive":"Y",
 "iscentrallymaintained":"Y",
 "ismandatory":"N",
 "isrange":"N",
 "readonlylogic":null,
 "seqno":10,
 "updated":"2011-07-27T15:21:52",
 "updatedby":100,
 "valuemax":null,
 "valuemin":null,
 "vformat":null}, "children" : []},{"tablename" : "ad_process_para", "data" : {"ad_process_para_id":53462,
 "name":"Product Category",
 "ad_client_id":0,
 "ad_element_id":453,
 "ad_org_id":0,
 "ad_process_id":53229,
 "ad_reference_id":19,
 "ad_reference_value_id":null,
 "ad_val_rule_id":null,
 "columnname":"M_Product_Category_ID",
 "created":"2011-07-27T15:21:52",
 "createdby":100,
 "defaultvalue":"-1",
 "defaultvalue2":null,
 "description":"Category of a Product",
 "displaylogic":null,
 "entitytype":"Manufacturing Light",
 "fieldlength":10,
 "help":"Identifies the category which this product belongs to.  Product categories are used for pricing and selection.",
 "isactive":"Y",
 "iscentrallymaintained":"Y",
 "ismandatory":"N",
 "isrange":"N",
 "readonlylogic":null,
 "seqno":20,
 "updated":"2011-07-27T15:21:52",
 "updatedby":100,
 "valuemax":null,
 "valuemin":null,
 "vformat":null}, "children" : []},{"tablename" : "ad_process_para", "data" : {"ad_process_para_id":53463,
 "name":"Re-Validate",
 "ad_client_id":0,
 "ad_element_id":3051,
 "ad_org_id":0,
 "ad_process_id":53229,
 "ad_reference_id":20,
 "ad_reference_value_id":null,
 "ad_val_rule_id":null,
 "columnname":"IsReValidate",
 "created":"2011-07-27T15:21:53",
 "createdby":100,
 "defaultvalue":null,
 "defaultvalue2":null,
 "description":"Re-Validate entries",
 "displaylogic":null,
 "entitytype":"Manufacturing Light",
 "fieldlength":1,
 "help":null,
 "isactive":"Y",
 "iscentrallymaintained":"Y",
 "ismandatory":"N",
 "isrange":"N",
 "readonlylogic":null,
 "seqno":30,
 "updated":"2011-07-27T15:21:53",
 "updatedby":100,
 "valuemax":null,
 "valuemin":null,
 "vformat":null}, "children" : []}]},
 {"tablename" : "ad_process", "data" : {"ad_process_id":53230,
 "value":"M_Product_BOM_Rollup",
 "name":"Rollup BOM Cost",
 "accesslevel":"3",
 "ad_client_id":0,
 "ad_form_id":null,
 "ad_org_id":0,
 "ad_printformat_id":null,
 "ad_reportview_id":null,
 "ad_tableselection_id":null,
 "ad_workflow_id":null,
 "classname":"org.compiere.process.RollUpCosts",
 "copyfromprocess":null,
 "created":"2011-07-27T15:21:53",
 "createdby":100,
 "description":"Rollup BOM cost",
 "entitytype":"Manufacturing Light",
 "help":"Rollup BOM costs from the lowest level recursively.",
 "isactive":"Y",
 "isbetafunctionality":"N",
 "isdirectprint":"N",
 "isreport":"N",
 "isserverprocess":"N",
 "jasperreport":null,
 "procedurename":null,
 "showhelp":"Y",
 "statistic_count":0,
 "statistic_seconds":0,
 "updated":"2011-07-27T15:21:53",
 "updatedby":100,
 "workflowvalue":null}, "children" : [{"tablename" : "ad_process_para", "data" : {"ad_process_para_id":53464,
 "name":"Product Category",
 "ad_client_id":0,
 "ad_element_id":453,
 "ad_org_id":0,
 "ad_process_id":53230,
 "ad_reference_id":19,
 "ad_reference_value_id":null,
 "ad_val_rule_id":null,
 "columnname":"M_Product_Category_ID",
 "created":"2011-07-27T15:21:54",
 "createdby":100,
 "defaultvalue":"-1",
 "defaultvalue2":null,
 "description":"Category of a Product",
 "displaylogic":null,
 "entitytype":"Manufacturing Light",
 "fieldlength":10,
 "help":"Identifies the category which this product belongs to.  Product categories are used for pricing and selection.",
 "isactive":"Y",
 "iscentrallymaintained":"Y",
 "ismandatory":"N",
 "isrange":"N",
 "readonlylogic":null,
 "seqno":10,
 "updated":"2011-07-27T15:21:54",
 "updatedby":100,
 "valuemax":null,
 "valuemin":null,
 "vformat":null}, "children" : []},{"tablename" : "ad_process_para", "data" : {"ad_process_para_id":53465,
 "name":"Product",
 "ad_client_id":0,
 "ad_element_id":454,
 "ad_org_id":0,
 "ad_process_id":53230,
 "ad_reference_id":30,
 "ad_reference_value_id":null,
 "ad_val_rule_id":null,
 "columnname":"M_Product_ID",
 "created":"2011-07-27T15:21:54",
 "createdby":100,
 "defaultvalue":null,
 "defaultvalue2":null,
 "description":"Product, Service, Item",
 "displaylogic":null,
 "entitytype":"Manufacturing Light",
 "fieldlength":10,
 "help":"Identifies an item which is either purchased or sold in this organization.",
 "isactive":"Y",
 "iscentrallymaintained":"Y",
 "ismandatory":"N",
 "isrange":"N",
 "readonlylogic":null,
 "seqno":20,
 "updated":"2011-07-27T15:21:54",
 "updatedby":100,
 "valuemax":null,
 "valuemin":null,
 "vformat":null}, "children" : []},{"tablename" : "ad_process_para", "data" : {"ad_process_para_id":53466,
 "name":"Cost Element",
 "ad_client_id":0,
 "ad_element_id":2700,
 "ad_org_id":0,
 "ad_process_id":53230,
 "ad_reference_id":19,
 "ad_reference_value_id":null,
 "ad_val_rule_id":null,
 "columnname":"M_CostElement_ID",
 "created":"2011-07-27T15:21:55",
 "createdby":100,
 "defaultvalue":"1000001",
 "defaultvalue2":null,
 "description":"Product Cost Element",
 "displaylogic":null,
 "entitytype":"Manufacturing Light",
 "fieldlength":10,
 "help":null,
 "isactive":"Y",
 "iscentrallymaintained":"Y",
 "ismandatory":"Y",
 "isrange":"N",
 "readonlylogic":null,
 "seqno":30,
 "updated":"2011-07-27T15:21:55",
 "updatedby":100,
 "valuemax":null,
 "valuemin":null,
 "vformat":null}, "children" : []}]},
 {"tablename" : "ad_process", "data" : {"ad_process_id":53265,
 "value":"M_Product_BOM Substitute",
 "name":"Universal substitution",
 "accesslevel":"3",
 "ad_client_id":0,
 "ad_form_id":null,
 "ad_org_id":0,
 "ad_printformat_id":null,
 "ad_reportview_id":null,
 "ad_tableselection_id":null,
 "ad_workflow_id":null,
 "classname":"org.compiere.process.UniversalSubstitution",
 "copyfromprocess":null,
 "created":"2011-07-27T15:21:55",
 "createdby":100,
 "description":"Substitute one product for another in all BOMs",
 "entitytype":"Manufacturing Light",
 "help":null,
 "isactive":"Y",
 "isbetafunctionality":"N",
 "isdirectprint":"N",
 "isreport":"N",
 "isserverprocess":"N",
 "jasperreport":null,
 "procedurename":null,
 "showhelp":"Y",
 "statistic_count":0,
 "statistic_seconds":0,
 "updated":"2011-07-27T15:21:55",
 "updatedby":100,
 "workflowvalue":null}, "children" : [{"tablename" : "ad_process_para", "data" : {"ad_process_para_id":53518,
 "name":"Product",
 "ad_client_id":0,
 "ad_element_id":454,
 "ad_org_id":0,
 "ad_process_id":53265,
 "ad_reference_id":30,
 "ad_reference_value_id":null,
 "ad_val_rule_id":null,
 "columnname":"M_Product_ID",
 "created":"2011-07-27T15:21:58",
 "createdby":100,
 "defaultvalue":null,
 "defaultvalue2":null,
 "description":"Product, Service, Item",
 "displaylogic":null,
 "entitytype":"Manufacturing Light",
 "fieldlength":22,
 "help":"Identifies an item which is either purchased or sold in this organization.",
 "isactive":"Y",
 "iscentrallymaintained":"Y",
 "ismandatory":"Y",
 "isrange":"N",
 "readonlylogic":null,
 "seqno":10,
 "updated":"2011-07-27T15:21:58",
 "updatedby":100,
 "valuemax":null,
 "valuemin":null,
 "vformat":null}, "children" : []},{"tablename" : "ad_process_para", "data" : {"ad_process_para_id":53519,
 "name":"Substitute",
 "ad_client_id":0,
 "ad_element_id":578,
 "ad_org_id":0,
 "ad_process_id":53265,
 "ad_reference_id":30,
 "ad_reference_value_id":162,
 "ad_val_rule_id":null,
 "columnname":"Substitute_ID",
 "created":"2011-07-27T15:21:59",
 "createdby":100,
 "defaultvalue":null,
 "defaultvalue2":null,
 "description":"Entity which can be used in place of this entity",
 "displaylogic":null,
 "entitytype":"Manufacturing Light",
 "fieldlength":22,
 "help":"The Substitute identifies the entity to be used as a substitute for this entity.",
 "isactive":"Y",
 "iscentrallymaintained":"Y",
 "ismandatory":"Y",
 "isrange":"N",
 "readonlylogic":null,
 "seqno":20,
 "updated":"2011-07-27T15:21:59",
 "updatedby":100,
 "valuemax":null,
 "valuemin":null,
 "vformat":null}, "children" : []}]},
 {"tablename" : "ad_process", "data" : {"ad_process_id":53266,
 "value":"M_ProductBOM_Indented",
 "name":"Indented Bill of Material",
 "accesslevel":"3",
 "ad_client_id":0,
 "ad_form_id":null,
 "ad_org_id":0,
 "ad_printformat_id":null,
 "ad_reportview_id":53039,
 "ad_tableselection_id":null,
 "ad_workflow_id":null,
 "classname":"org.compiere.process.IndentedBOM",
 "copyfromprocess":null,
 "created":"2011-07-27T16:24:11",
 "createdby":100,
 "description":"Indented BOM report",
 "entitytype":"Manufacturing Light",
 "help":null,
 "isactive":"Y",
 "isbetafunctionality":"N",
 "isdirectprint":"N",
 "isreport":"Y",
 "isserverprocess":"N",
 "jasperreport":null,
 "procedurename":null,
 "showhelp":"Y",
 "statistic_count":0,
 "statistic_seconds":0,
 "updated":"2011-07-27T16:24:11",
 "updatedby":100,
 "workflowvalue":null}, "children" : [{"tablename" : "ad_process_para", "data" : {"ad_process_para_id":53520,
 "name":"Accounting Schema",
 "ad_client_id":0,
 "ad_element_id":181,
 "ad_org_id":0,
 "ad_process_id":53266,
 "ad_reference_id":19,
 "ad_reference_value_id":null,
 "ad_val_rule_id":null,
 "columnname":"C_AcctSchema_ID",
 "created":"2011-07-27T16:24:13",
 "createdby":100,
 "defaultvalue":null,
 "defaultvalue2":null,
 "description":"Rules for accounting",
 "displaylogic":null,
 "entitytype":"Manufacturing Light",
 "fieldlength":0,
 "help":"An Accounting Schema defines the rules used in accounting such as costing method, currency and calendar",
 "isactive":"Y",
 "iscentrallymaintained":"Y",
 "ismandatory":"Y",
 "isrange":"N",
 "readonlylogic":null,
 "seqno":20,
 "updated":"2011-07-27T16:24:13",
 "updatedby":100,
 "valuemax":null,
 "valuemin":null,
 "vformat":null}, "children" : []},{"tablename" : "ad_process_para", "data" : {"ad_process_para_id":53521,
 "name":"Product",
 "ad_client_id":0,
 "ad_element_id":454,
 "ad_org_id":0,
 "ad_process_id":53266,
 "ad_reference_id":30,
 "ad_reference_value_id":null,
 "ad_val_rule_id":null,
 "columnname":"M_Product_ID",
 "created":"2011-07-27T16:24:14",
 "createdby":100,
 "defaultvalue":null,
 "defaultvalue2":null,
 "description":"Product, Service, Item",
 "displaylogic":null,
 "entitytype":"Manufacturing Light",
 "fieldlength":0,
 "help":"Identifies an item which is either purchased or sold in this organization.",
 "isactive":"Y",
 "iscentrallymaintained":"Y",
 "ismandatory":"N",
 "isrange":"N",
 "readonlylogic":null,
 "seqno":60,
 "updated":"2011-07-27T16:24:14",
 "updatedby":100,
 "valuemax":null,
 "valuemin":null,
 "vformat":null}, "children" : []},{"tablename" : "ad_process_para", "data" : {"ad_process_para_id":53522,
 "name":"Cost Element",
 "ad_client_id":0,
 "ad_element_id":2700,
 "ad_org_id":0,
 "ad_process_id":53266,
 "ad_reference_id":19,
 "ad_reference_value_id":null,
 "ad_val_rule_id":null,
 "columnname":"M_CostElement_ID",
 "created":"2011-07-27T16:24:16",
 "createdby":100,
 "defaultvalue":null,
 "defaultvalue2":null,
 "description":"Product Cost Element",
 "displaylogic":null,
 "entitytype":"Manufacturing Light",
 "fieldlength":0,
 "help":null,
 "isactive":"Y",
 "iscentrallymaintained":"Y",
 "ismandatory":"Y",
 "isrange":"N",
 "readonlylogic":null,
 "seqno":70,
 "updated":"2011-07-27T16:24:16",
 "updatedby":100,
 "valuemax":null,
 "valuemin":null,
 "vformat":null}, "children" : []}]},
 {"tablename" : "ad_process", "data" : {"ad_process_id":53267,
 "value":"RV_T_Replenish_Production",
 "name":"Replenish Report incl. Production",
 "accesslevel":"3",
 "ad_client_id":0,
 "ad_form_id":null,
 "ad_org_id":0,
 "ad_printformat_id":null,
 "ad_reportview_id":106,
 "ad_tableselection_id":null,
 "ad_workflow_id":null,
 "classname":"org.compiere.process.ReplenishReportProduction",
 "copyfromprocess":null,
 "created":"2011-07-27T16:24:17",
 "createdby":100,
 "description":"Inventory Replenish Report",
 "entitytype":"Manufacturing Light",
 "help":"Report lists products to be replenished. Note that a product can have only one current vendor. If there are more then vendor per product, both records are reset.  You need to select a current vendor manually.<br>\nMovements are only created, if a sourcing warehouse is defined for the warehouse to be replenished.",
 "isactive":"Y",
 "isbetafunctionality":"N",
 "isdirectprint":"N",
 "isreport":"Y",
 "isserverprocess":"N",
 "jasperreport":null,
 "procedurename":null,
 "showhelp":"Y",
 "statistic_count":0,
 "statistic_seconds":0,
 "updated":"2011-11-02T16:34:57",
 "updatedby":0,
 "workflowvalue":null}, "children" : [{"tablename" : "ad_process_para", "data" : {"ad_process_para_id":53523,
 "name":"Warehouse",
 "ad_client_id":0,
 "ad_element_id":459,
 "ad_org_id":0,
 "ad_process_id":53267,
 "ad_reference_id":19,
 "ad_reference_value_id":null,
 "ad_val_rule_id":null,
 "columnname":"M_Warehouse_ID",
 "created":"2011-07-27T16:24:19",
 "createdby":100,
 "defaultvalue":null,
 "defaultvalue2":null,
 "description":"Storage Warehouse and Service Point",
 "displaylogic":null,
 "entitytype":"Manufacturing Light",
 "fieldlength":0,
 "help":"The Warehouse identifies a unique Warehouse where products are stored or Services are provided.",
 "isactive":"Y",
 "iscentrallymaintained":"Y",
 "ismandatory":"N",
 "isrange":"N",
 "readonlylogic":null,
 "seqno":10,
 "updated":"2011-11-02T16:34:57",
 "updatedby":0,
 "valuemax":null,
 "valuemin":null,
 "vformat":null}, "children" : []},{"tablename" : "ad_process_para", "data" : {"ad_process_para_id":53524,
 "name":"Business Partner ",
 "ad_client_id":0,
 "ad_element_id":187,
 "ad_org_id":0,
 "ad_process_id":53267,
 "ad_reference_id":18,
 "ad_reference_value_id":223,
 "ad_val_rule_id":null,
 "columnname":"C_BPartner_ID",
 "created":"2011-07-27T16:24:21",
 "createdby":100,
 "defaultvalue":null,
 "defaultvalue2":null,
 "description":"Identifies a Business Partner",
 "displaylogic":null,
 "entitytype":"Manufacturing Light",
 "fieldlength":0,
 "help":"A Business Partner is anyone with whom you transact.  This can include Vendor, Customer, Employee or Salesperson",
 "isactive":"Y",
 "iscentrallymaintained":"Y",
 "ismandatory":"N",
 "isrange":"N",
 "readonlylogic":null,
 "seqno":20,
 "updated":"2011-11-02T16:34:57",
 "updatedby":0,
 "valuemax":null,
 "valuemin":null,
 "vformat":null}, "children" : []},{"tablename" : "ad_process_para", "data" : {"ad_process_para_id":53525,
 "name":"Product Category",
 "ad_client_id":0,
 "ad_element_id":453,
 "ad_org_id":0,
 "ad_process_id":53267,
 "ad_reference_id":19,
 "ad_reference_value_id":null,
 "ad_val_rule_id":null,
 "columnname":"M_Product_Category_ID",
 "created":"2011-07-27T16:24:22",
 "createdby":100,
 "defaultvalue":"-1",
 "defaultvalue2":null,
 "description":"Category of a Product",
 "displaylogic":null,
 "entitytype":"Manufacturing Light",
 "fieldlength":10,
 "help":"Identifies the category which this product belongs to.  Product categories are used for pricing and selection.",
 "isactive":"Y",
 "iscentrallymaintained":"Y",
 "ismandatory":"N",
 "isrange":"N",
 "readonlylogic":null,
 "seqno":25,
 "updated":"2011-11-02T16:34:57",
 "updatedby":0,
 "valuemax":null,
 "valuemin":null,
 "vformat":null}, "children" : []},{"tablename" : "ad_process_para", "data" : {"ad_process_para_id":53526,
 "name":"Is Kanban",
 "ad_client_id":0,
 "ad_element_id":null,
 "ad_org_id":0,
 "ad_process_id":53267,
 "ad_reference_id":17,
 "ad_reference_value_id":319,
 "ad_val_rule_id":null,
 "columnname":"IsKanban",
 "created":"2011-07-27T16:24:23",
 "createdby":100,
 "defaultvalue":"N",
 "defaultvalue2":null,
 "description":null,
 "displaylogic":null,
 "entitytype":"Manufacturing Light",
 "fieldlength":1,
 "help":null,
 "isactive":"Y",
 "iscentrallymaintained":"N",
 "ismandatory":"N",
 "isrange":"N",
 "readonlylogic":null,
 "seqno":26,
 "updated":"2011-11-02T16:34:57",
 "updatedby":0,
 "valuemax":null,
 "valuemin":null,
 "vformat":null}, "children" : []},{"tablename" : "ad_process_para", "data" : {"ad_process_para_id":53527,
 "name":"Create",
 "ad_client_id":0,
 "ad_element_id":2627,
 "ad_org_id":0,
 "ad_process_id":53267,
 "ad_reference_id":17,
 "ad_reference_value_id":53412,
 "ad_val_rule_id":null,
 "columnname":"ReplenishmentCreate",
 "created":"2011-07-27T16:24:32",
 "createdby":100,
 "defaultvalue":null,
 "defaultvalue2":null,
 "description":"Create from Replenishment",
 "displaylogic":null,
 "entitytype":"Manufacturing Light",
 "fieldlength":0,
 "help":null,
 "isactive":"Y",
 "iscentrallymaintained":"Y",
 "ismandatory":"N",
 "isrange":"N",
 "readonlylogic":null,
 "seqno":30,
 "updated":"2011-11-02T16:34:57",
 "updatedby":0,
 "valuemax":null,
 "valuemin":null,
 "vformat":null}, "children" : []},{"tablename" : "ad_process_para", "data" : {"ad_process_para_id":53528,
 "name":"Document Type",
 "ad_client_id":0,
 "ad_element_id":196,
 "ad_org_id":0,
 "ad_process_id":53267,
 "ad_reference_id":19,
 "ad_reference_value_id":null,
 "ad_val_rule_id":229,
 "columnname":"C_DocType_ID",
 "created":"2011-07-27T16:24:34",
 "createdby":100,
 "defaultvalue":null,
 "defaultvalue2":null,
 "description":"Document type or rules",
 "displaylogic":null,
 "entitytype":"Manufacturing Light",
 "fieldlength":0,
 "help":"The Document Type determines document sequence and processing rules",
 "isactive":"Y",
 "iscentrallymaintained":"Y",
 "ismandatory":"N",
 "isrange":"N",
 "readonlylogic":null,
 "seqno":40,
 "updated":"2011-11-02T16:34:57",
 "updatedby":0,
 "valuemax":null,
 "valuemin":null,
 "vformat":null}, "children" : []}]},
 {"tablename" : "ad_process", "data" : {"ad_process_id":53348,
 "value":"M_Product_BOM_RollupFuture",
 "name":"Rollup BOM Future Cost",
 "accesslevel":"3",
 "ad_client_id":0,
 "ad_form_id":null,
 "ad_org_id":0,
 "ad_printformat_id":null,
 "ad_reportview_id":null,
 "ad_tableselection_id":null,
 "ad_workflow_id":null,
 "classname":"org.compiere.process.RollUpCostsFuture",
 "copyfromprocess":null,
 "created":"2013-01-03T21:50:48",
 "createdby":100,
 "description":"Rollup BOM future cost",
 "entitytype":"Manufacturing Light",
 "help":"Rollup BOM future costs from the lowest level recursively.",
 "isactive":"Y",
 "isbetafunctionality":"N",
 "isdirectprint":"N",
 "isreport":"N",
 "isserverprocess":"N",
 "jasperreport":null,
 "procedurename":null,
 "showhelp":"Y",
 "statistic_count":384,
 "statistic_seconds":1820,
 "updated":"2013-01-03T21:50:48",
 "updatedby":100,
 "workflowvalue":null}, "children" : [{"tablename" : "ad_process_para", "data" : {"ad_process_para_id":53852,
 "name":"Cost Element",
 "ad_client_id":0,
 "ad_element_id":2700,
 "ad_org_id":0,
 "ad_process_id":53348,
 "ad_reference_id":19,
 "ad_reference_value_id":null,
 "ad_val_rule_id":null,
 "columnname":"M_CostElement_ID",
 "created":"2013-01-03T21:52:41",
 "createdby":100,
 "defaultvalue":"1000001",
 "defaultvalue2":null,
 "description":"Product Cost Element",
 "displaylogic":null,
 "entitytype":"Manufacturing Light",
 "fieldlength":0,
 "help":null,
 "isactive":"Y",
 "iscentrallymaintained":"Y",
 "ismandatory":"Y",
 "isrange":"N",
 "readonlylogic":null,
 "seqno":10,
 "updated":"2016-04-12T09:52:23.093499",
 "updatedby":100,
 "valuemax":null,
 "valuemin":null,
 "vformat":null}, "children" : []},{"tablename" : "ad_process_para", "data" : {"ad_process_para_id":53853,
 "name":"Product Category",
 "ad_client_id":0,
 "ad_element_id":453,
 "ad_org_id":0,
 "ad_process_id":53348,
 "ad_reference_id":19,
 "ad_reference_value_id":null,
 "ad_val_rule_id":null,
 "columnname":"M_Product_Category_ID",
 "created":"2013-01-03T21:54:38",
 "createdby":100,
 "defaultvalue":"-1",
 "defaultvalue2":null,
 "description":"Category of a Product",
 "displaylogic":"@M_Product_ID@=0",
 "entitytype":"Manufacturing Light",
 "fieldlength":0,
 "help":"Identifies the category which this product belongs to.  Product categories are used for pricing and selection.",
 "isactive":"Y",
 "iscentrallymaintained":"Y",
 "ismandatory":"N",
 "isrange":"N",
 "readonlylogic":null,
 "seqno":20,
 "updated":"2016-04-12T09:52:23.093499",
 "updatedby":100,
 "valuemax":null,
 "valuemin":null,
 "vformat":null}, "children" : []},{"tablename" : "ad_process_para", "data" : {"ad_process_para_id":53854,
 "name":"Product",
 "ad_client_id":0,
 "ad_element_id":454,
 "ad_org_id":0,
 "ad_process_id":53348,
 "ad_reference_id":30,
 "ad_reference_value_id":null,
 "ad_val_rule_id":null,
 "columnname":"M_Product_ID",
 "created":"2013-01-03T21:56:02",
 "createdby":100,
 "defaultvalue":null,
 "defaultvalue2":null,
 "description":"Product, Service, Item",
 "displaylogic":"@M_Product_Category_ID@=0",
 "entitytype":"Manufacturing Light",
 "fieldlength":0,
 "help":"Identifies an item which is either purchased or sold in this organization.",
 "isactive":"Y",
 "iscentrallymaintained":"Y",
 "ismandatory":"N",
 "isrange":"N",
 "readonlylogic":null,
 "seqno":30,
 "updated":"2016-04-12T09:52:23.093499",
 "updatedby":100,
 "valuemax":null,
 "valuemin":null,
 "vformat":null}, "children" : []}]},
 {"tablename" : "ad_process", "data" : {"ad_process_id":53355,
 "value":"BOMCopy",
 "name":"BOM Copy",
 "accesslevel":"3",
 "ad_client_id":0,
 "ad_form_id":null,
 "ad_org_id":0,
 "ad_printformat_id":null,
 "ad_reportview_id":null,
 "ad_tableselection_id":null,
 "ad_workflow_id":null,
 "classname":"org.compiere.process.BOMCopy",
 "copyfromprocess":"N",
 "created":"2013-02-08T06:49:34",
 "createdby":100,
 "description":null,
 "entitytype":"Manufacturing Light",
 "help":null,
 "isactive":"Y",
 "isbetafunctionality":"N",
 "isdirectprint":"N",
 "isreport":"N",
 "isserverprocess":"N",
 "jasperreport":null,
 "procedurename":null,
 "showhelp":"Y",
 "statistic_count":3,
 "statistic_seconds":4,
 "updated":"2016-04-11T16:07:22",
 "updatedby":0,
 "workflowvalue":null}, "children" : [{"tablename" : "ad_process_para", "data" : {"ad_process_para_id":53861,
 "name":"Product",
 "ad_client_id":0,
 "ad_element_id":454,
 "ad_org_id":0,
 "ad_process_id":53355,
 "ad_reference_id":30,
 "ad_reference_value_id":211,
 "ad_val_rule_id":null,
 "columnname":"M_Product_ID",
 "created":"2013-02-08T06:50:17",
 "createdby":100,
 "defaultvalue":null,
 "defaultvalue2":null,
 "description":"Product, Service, Item",
 "displaylogic":null,
 "entitytype":"Manufacturing Light",
 "fieldlength":0,
 "help":"Identifies an item which is either purchased or sold in this organization.",
 "isactive":"Y",
 "iscentrallymaintained":"Y",
 "ismandatory":"Y",
 "isrange":"N",
 "readonlylogic":null,
 "seqno":10,
 "updated":"2013-02-08T06:50:17",
 "updatedby":100,
 "valuemax":null,
 "valuemin":null,
 "vformat":null}, "children" : []},{"tablename" : "ad_process_para", "data" : {"ad_process_para_id":53862,
 "name":"To Product",
 "ad_client_id":0,
 "ad_element_id":55796,
 "ad_org_id":0,
 "ad_process_id":53355,
 "ad_reference_id":30,
 "ad_reference_value_id":162,
 "ad_val_rule_id":null,
 "columnname":"M_ProductTo_ID",
 "created":"2013-02-08T06:50:19",
 "createdby":100,
 "defaultvalue":null,
 "defaultvalue2":null,
 "description":"Product to be converted to (must have UOM Conversion defined to From Product)",
 "displaylogic":null,
 "entitytype":"Manufacturing Light",
 "fieldlength":0,
 "help":null,
 "isactive":"Y",
 "iscentrallymaintained":"N",
 "ismandatory":"Y",
 "isrange":"N",
 "readonlylogic":null,
 "seqno":20,
 "updated":"2016-04-11T16:07:22",
 "updatedby":0,
 "valuemax":null,
 "valuemin":null,
 "vformat":null}, "children" : []}]},
 {"tablename" : "ad_process", "data" : {"ad_process_id":53707,
 "value":"M_Production_Delete",
 "name":"Delete Production",
 "accesslevel":"3",
 "ad_client_id":0,
 "ad_form_id":null,
 "ad_org_id":0,
 "ad_printformat_id":null,
 "ad_reportview_id":null,
 "ad_tableselection_id":null,
 "ad_workflow_id":null,
 "classname":"org.compiere.process.ProductionDelete",
 "copyfromprocess":null,
 "created":"2014-10-21T20:25:19",
 "createdby":100,
 "description":"Delete open production orders",
 "entitytype":"Manufacturing Light",
 "help":"Delete open production orders that are not started. (WIP)",
 "isactive":"Y",
 "isbetafunctionality":"N",
 "isdirectprint":"N",
 "isreport":"N",
 "isserverprocess":"N",
 "jasperreport":null,
 "procedurename":null,
 "showhelp":"Y",
 "statistic_count":0,
 "statistic_seconds":0,
 "updated":"2014-10-21T20:25:19",
 "updatedby":100,
 "workflowvalue":null}, "children" : [{"tablename" : "ad_process_para", "data" : {"ad_process_para_id":54989,
 "name":"Delete old/existing records",
 "ad_client_id":0,
 "ad_element_id":1669,
 "ad_org_id":0,
 "ad_process_id":53707,
 "ad_reference_id":20,
 "ad_reference_value_id":null,
 "ad_val_rule_id":null,
 "columnname":"DeleteOld",
 "created":"2014-10-21T20:25:21",
 "createdby":100,
 "defaultvalue":"Y",
 "defaultvalue2":null,
 "description":"Otherwise records will be added",
 "displaylogic":null,
 "entitytype":"Manufacturing Light",
 "fieldlength":0,
 "help":null,
 "isactive":"Y",
 "iscentrallymaintained":"Y",
 "ismandatory":"N",
 "isrange":"N",
 "readonlylogic":null,
 "seqno":50,
 "updated":"2016-04-12T09:52:23.093499",
 "updatedby":100,
 "valuemax":null,
 "valuemin":null,
 "vformat":null}, "children" : []}]},
 {"tablename" : "ad_process", "data" : {"ad_process_id":53888,
 "value":"ProductionBatchMigrateOlderDB",
 "name":"Production Batch migration with older DB",
 "accesslevel":"3",
 "ad_client_id":0,
 "ad_form_id":null,
 "ad_org_id":0,
 "ad_printformat_id":null,
 "ad_reportview_id":null,
 "ad_tableselection_id":null,
 "ad_workflow_id":null,
 "classname":"org.compiere.process.ProductionBatchMigrateOlderDB",
 "copyfromprocess":"N",
 "created":"2016-08-22T17:12:57",
 "createdby":100,
 "description":null,
 "entitytype":"Manufacturing Light",
 "help":null,
 "isactive":"Y",
 "isbetafunctionality":"N",
 "isdirectprint":"N",
 "isreport":"N",
 "isserverprocess":"N",
 "jasperreport":null,
 "procedurename":null,
 "showhelp":"Y",
 "statistic_count":0,
 "statistic_seconds":0,
 "updated":"2016-08-22T17:12:57",
 "updatedby":100,
 "workflowvalue":null}, "children" : []},
 {"tablename" : "ad_process", "data" : {"ad_process_id":53946,
 "value":"ProductionTestKitPull",
 "name":"Production Test - Kit Pull",
 "accesslevel":"3",
 "ad_client_id":0,
 "ad_form_id":null,
 "ad_org_id":0,
 "ad_printformat_id":null,
 "ad_reportview_id":null,
 "ad_tableselection_id":null,
 "ad_workflow_id":null,
 "classname":"org.adempiere.webui.process.ProductionTestKitPull",
 "copyfromprocess":"N",
 "created":"2017-04-18T12:36:56",
 "createdby":100,
 "description":null,
 "entitytype":"Manufacturing Light",
 "help":null,
 "isactive":"Y",
 "isbetafunctionality":"N",
 "isdirectprint":"N",
 "isreport":"Y",
 "isserverprocess":"N",
 "jasperreport":null,
 "procedurename":null,
 "showhelp":"Y",
 "statistic_count":0,
 "statistic_seconds":0,
 "updated":"2017-04-18T12:36:56",
 "updatedby":100,
 "workflowvalue":null}, "children" : [{"tablename" : "ad_process_para", "data" : {"ad_process_para_id":55789,
 "name":"Warehouse",
 "ad_client_id":0,
 "ad_element_id":459,
 "ad_org_id":0,
 "ad_process_id":53946,
 "ad_reference_id":19,
 "ad_reference_value_id":197,
 "ad_val_rule_id":null,
 "columnname":"M_Warehouse_ID",
 "created":"2017-04-18T12:39:08",
 "createdby":100,
 "defaultvalue":null,
 "defaultvalue2":null,
 "description":"Storage Warehouse and Service Point",
 "displaylogic":null,
 "entitytype":"Manufacturing Light",
 "fieldlength":0,
 "help":"The Warehouse identifies a unique Warehouse where products are stored or Services are provided.",
 "isactive":"Y",
 "iscentrallymaintained":"Y",
 "ismandatory":"Y",
 "isrange":"N",
 "readonlylogic":null,
 "seqno":10,
 "updated":"2019-02-04T13:39:33.247367",
 "updatedby":100,
 "valuemax":null,
 "valuemin":null,
 "vformat":null}, "children" : []},{"tablename" : "ad_process_para", "data" : {"ad_process_para_id":55790,
 "name":"Product",
 "ad_client_id":0,
 "ad_element_id":454,
 "ad_org_id":0,
 "ad_process_id":53946,
 "ad_reference_id":30,
 "ad_reference_value_id":null,
 "ad_val_rule_id":null,
 "columnname":"M_Product_ID",
 "created":"2017-04-18T12:41:07",
 "createdby":100,
 "defaultvalue":null,
 "defaultvalue2":null,
 "description":"Product, Service, Item",
 "displaylogic":null,
 "entitytype":"Manufacturing Light",
 "fieldlength":0,
 "help":"Identifies an item which is either purchased or sold in this organization.",
 "isactive":"Y",
 "iscentrallymaintained":"Y",
 "ismandatory":"Y",
 "isrange":"N",
 "readonlylogic":null,
 "seqno":20,
 "updated":"2019-02-04T13:39:33.247367",
 "updatedby":100,
 "valuemax":null,
 "valuemin":null,
 "vformat":null}, "children" : []},{"tablename" : "ad_process_para", "data" : {"ad_process_para_id":55791,
 "name":"Qty Required",
 "ad_client_id":0,
 "ad_element_id":53288,
 "ad_org_id":0,
 "ad_process_id":53946,
 "ad_reference_id":29,
 "ad_reference_value_id":null,
 "ad_val_rule_id":null,
 "columnname":"QtyRequired",
 "created":"2017-04-18T12:41:47",
 "createdby":100,
 "defaultvalue":"1",
 "defaultvalue2":null,
 "description":null,
 "displaylogic":null,
 "entitytype":"Manufacturing Light",
 "fieldlength":0,
 "help":null,
 "isactive":"Y",
 "iscentrallymaintained":"Y",
 "ismandatory":"Y",
 "isrange":"N",
 "readonlylogic":null,
 "seqno":30,
 "updated":"2019-02-04T13:39:33.247367",
 "updatedby":100,
 "valuemax":null,
 "valuemin":null,
 "vformat":null}, "children" : []},{"tablename" : "ad_process_para", "data" : {"ad_process_para_id":55792,
 "name":"Level no",
 "ad_client_id":0,
 "ad_element_id":1982,
 "ad_org_id":0,
 "ad_process_id":53946,
 "ad_reference_id":11,
 "ad_reference_value_id":null,
 "ad_val_rule_id":null,
 "columnname":"LevelNo",
 "created":"2017-04-18T12:42:25",
 "createdby":100,
 "defaultvalue":"99",
 "defaultvalue2":null,
 "description":null,
 "displaylogic":null,
 "entitytype":"Manufacturing Light",
 "fieldlength":0,
 "help":null,
 "isactive":"Y",
 "iscentrallymaintained":"Y",
 "ismandatory":"Y",
 "isrange":"N",
 "readonlylogic":null,
 "seqno":40,
 "updated":"2019-02-04T13:39:33.247367",
 "updatedby":100,
 "valuemax":null,
 "valuemin":null,
 "vformat":null}, "children" : []}]}]