[{"tablename" : "ad_process", "data" : {"ad_process_id":259,
 "value":"M_DistributionList Create",
 "name":"Create Orders",
 "accesslevel":"1",
 "ad_client_id":0,
 "ad_form_id":null,
 "ad_org_id":0,
 "ad_printformat_id":null,
 "ad_reportview_id":null,
 "ad_tableselection_id":null,
 "ad_workflow_id":null,
 "classname":"org.compiere.process.DistributionCreate",
 "copyfromprocess":null,
 "created":"2004-03-10T21:07:52",
 "createdby":0,
 "description":"Create orders based on Distribution List line items",
 "entitytype":"Manufacturing Management",
 "help":"Please note that due to rounding, the total quantity of the order(s) is likely to be higher then the quantity entered.",
 "isactive":"Y",
 "isbetafunctionality":"N",
 "isdirectprint":"N",
 "isreport":"N",
 "isserverprocess":"N",
 "jasperreport":null,
 "procedurename":null,
 "showhelp":"Y",
 "statistic_count":0,
 "statistic_seconds":0,
 "updated":"2000-01-02T00:00:00",
 "updatedby":0,
 "workflowvalue":null}, "children" : [{"tablename" : "ad_process_para", "data" : {"ad_process_para_id":462,
 "name":"Product",
 "ad_client_id":0,
 "ad_element_id":454,
 "ad_org_id":0,
 "ad_process_id":259,
 "ad_reference_id":30,
 "ad_reference_value_id":null,
 "ad_val_rule_id":null,
 "columnname":"M_Product_ID",
 "created":"2004-03-10T21:09:19",
 "createdby":0,
 "defaultvalue":null,
 "defaultvalue2":null,
 "description":"Product, Service, Item",
 "displaylogic":null,
 "entitytype":"Manufacturing Management",
 "fieldlength":0,
 "help":"Identifies an item which is either purchased or sold in this organization.",
 "isactive":"Y",
 "iscentrallymaintained":"Y",
 "ismandatory":"Y",
 "isrange":"N",
 "readonlylogic":null,
 "seqno":10,
 "updated":"2000-01-02T00:00:00",
 "updatedby":0,
 "valuemax":null,
 "valuemin":null,
 "vformat":null}, "children" : []},{"tablename" : "ad_process_para", "data" : {"ad_process_para_id":463,
 "name":"Quantity",
 "ad_client_id":0,
 "ad_element_id":526,
 "ad_org_id":0,
 "ad_process_id":259,
 "ad_reference_id":29,
 "ad_reference_value_id":null,
 "ad_val_rule_id":null,
 "columnname":"Qty",
 "created":"2004-03-10T22:01:51",
 "createdby":0,
 "defaultvalue":null,
 "defaultvalue2":null,
 "description":"Quantity",
 "displaylogic":null,
 "entitytype":"Manufacturing Management",
 "fieldlength":0,
 "help":"The Quantity indicates the number of a specific product or item for this document.",
 "isactive":"Y",
 "iscentrallymaintained":"Y",
 "ismandatory":"N",
 "isrange":"N",
 "readonlylogic":null,
 "seqno":20,
 "updated":"2000-01-02T00:00:00",
 "updatedby":0,
 "valuemax":null,
 "valuemin":null,
 "vformat":null}, "children" : []},{"tablename" : "ad_process_para", "data" : {"ad_process_para_id":464,
 "name":"Create Single Order",
 "ad_client_id":0,
 "ad_element_id":2447,
 "ad_org_id":0,
 "ad_process_id":259,
 "ad_reference_id":20,
 "ad_reference_value_id":null,
 "ad_val_rule_id":null,
 "columnname":"IsCreateSingleOrder",
 "created":"2004-03-10T22:08:48",
 "createdby":0,
 "defaultvalue":"N",
 "defaultvalue2":null,
 "description":"For all shipments create one Order",
 "displaylogic":null,
 "entitytype":"Manufacturing Management",
 "fieldlength":0,
 "help":null,
 "isactive":"Y",
 "iscentrallymaintained":"Y",
 "ismandatory":"N",
 "isrange":"N",
 "readonlylogic":null,
 "seqno":30,
 "updated":"2000-01-02T00:00:00",
 "updatedby":0,
 "valuemax":null,
 "valuemin":null,
 "vformat":null}, "children" : []},{"tablename" : "ad_process_para", "data" : {"ad_process_para_id":465,
 "name":"Invoice Partner",
 "ad_client_id":0,
 "ad_element_id":2039,
 "ad_org_id":0,
 "ad_process_id":259,
 "ad_reference_id":18,
 "ad_reference_value_id":138,
 "ad_val_rule_id":193,
 "columnname":"Bill_BPartner_ID",
 "created":"2004-03-10T22:10:08",
 "createdby":0,
 "defaultvalue":null,
 "defaultvalue2":null,
 "description":"Business Partner to be invoiced",
 "displaylogic":null,
 "entitytype":"Manufacturing Management",
 "fieldlength":0,
 "help":"If empty the shipment business partner will be invoiced",
 "isactive":"Y",
 "iscentrallymaintained":"Y",
 "ismandatory":"N",
 "isrange":"N",
 "readonlylogic":null,
 "seqno":40,
 "updated":"2000-01-02T00:00:00",
 "updatedby":0,
 "valuemax":null,
 "valuemin":null,
 "vformat":null}, "children" : []},{"tablename" : "ad_process_para", "data" : {"ad_process_para_id":466,
 "name":"Invoice Location",
 "ad_client_id":0,
 "ad_element_id":2040,
 "ad_org_id":0,
 "ad_process_id":259,
 "ad_reference_id":18,
 "ad_reference_value_id":159,
 "ad_val_rule_id":119,
 "columnname":"Bill_Location_ID",
 "created":"2004-03-10T22:11:38",
 "createdby":0,
 "defaultvalue":null,
 "defaultvalue2":null,
 "description":"Business Partner Location for invoicing",
 "displaylogic":null,
 "entitytype":"Manufacturing Management",
 "fieldlength":0,
 "help":null,
 "isactive":"Y",
 "iscentrallymaintained":"Y",
 "ismandatory":"N",
 "isrange":"N",
 "readonlylogic":null,
 "seqno":50,
 "updated":"2000-01-02T00:00:00",
 "updatedby":0,
 "valuemax":null,
 "valuemin":null,
 "vformat":null}, "children" : []},{"tablename" : "ad_process_para", "data" : {"ad_process_para_id":470,
 "name":"Test",
 "ad_client_id":0,
 "ad_element_id":2153,
 "ad_org_id":0,
 "ad_process_id":259,
 "ad_reference_id":20,
 "ad_reference_value_id":null,
 "ad_val_rule_id":null,
 "columnname":"IsTest",
 "created":"2004-03-11T22:52:41",
 "createdby":0,
 "defaultvalue":null,
 "defaultvalue2":null,
 "description":"Execute in Test Mode",
 "displaylogic":null,
 "entitytype":"Manufacturing Management",
 "fieldlength":0,
 "help":null,
 "isactive":"Y",
 "iscentrallymaintained":"Y",
 "ismandatory":"N",
 "isrange":"N",
 "readonlylogic":null,
 "seqno":60,
 "updated":"2000-01-02T00:00:00",
 "updatedby":0,
 "valuemax":null,
 "valuemin":null,
 "vformat":null}, "children" : []}]},
 {"tablename" : "ad_process", "data" : {"ad_process_id":271,
 "value":"M_DistributionRun Create",
 "name":"Create Orders",
 "accesslevel":"1",
 "ad_client_id":0,
 "ad_form_id":null,
 "ad_org_id":0,
 "ad_printformat_id":null,
 "ad_reportview_id":null,
 "ad_tableselection_id":null,
 "ad_workflow_id":null,
 "classname":"org.compiere.process.DistributionRun",
 "copyfromprocess":null,
 "created":"2004-04-01T17:10:23",
 "createdby":0,
 "description":"Create orders based on Distribution List line items",
 "entitytype":"Manufacturing Management",
 "help":"Please note that due to rounding, the total quantity of the order(s) is likely to be higher then the quantity entered.",
 "isactive":"Y",
 "isbetafunctionality":"N",
 "isdirectprint":"N",
 "isreport":"N",
 "isserverprocess":"N",
 "jasperreport":null,
 "procedurename":null,
 "showhelp":"Y",
 "statistic_count":0,
 "statistic_seconds":0,
 "updated":"2000-01-02T00:00:00",
 "updatedby":0,
 "workflowvalue":null}, "children" : [{"tablename" : "ad_process_para", "data" : {"ad_process_para_id":483,
 "name":"Document Type",
 "ad_client_id":0,
 "ad_element_id":196,
 "ad_org_id":0,
 "ad_process_id":271,
 "ad_reference_id":19,
 "ad_reference_value_id":null,
 "ad_val_rule_id":172,
 "columnname":"C_DocType_ID",
 "created":"2004-04-01T17:14:48",
 "createdby":0,
 "defaultvalue":null,
 "defaultvalue2":null,
 "description":"Document type or rules",
 "displaylogic":null,
 "entitytype":"Manufacturing Management",
 "fieldlength":0,
 "help":"The Document Type determines document sequence and processing rules",
 "isactive":"Y",
 "iscentrallymaintained":"Y",
 "ismandatory":"Y",
 "isrange":"N",
 "readonlylogic":null,
 "seqno":10,
 "updated":"2000-01-02T00:00:00",
 "updatedby":0,
 "valuemax":null,
 "valuemin":null,
 "vformat":null}, "children" : []},{"tablename" : "ad_process_para", "data" : {"ad_process_para_id":484,
 "name":"Date Promised",
 "ad_client_id":0,
 "ad_element_id":269,
 "ad_org_id":0,
 "ad_process_id":271,
 "ad_reference_id":15,
 "ad_reference_value_id":null,
 "ad_val_rule_id":null,
 "columnname":"DatePromised",
 "created":"2004-04-01T17:16:05",
 "createdby":0,
 "defaultvalue":null,
 "defaultvalue2":null,
 "description":"Date Order was promised",
 "displaylogic":null,
 "entitytype":"Manufacturing Management",
 "fieldlength":0,
 "help":"The Date Promised indicates the date, if any, that an Order was promised for.",
 "isactive":"Y",
 "iscentrallymaintained":"Y",
 "ismandatory":"Y",
 "isrange":"N",
 "readonlylogic":null,
 "seqno":20,
 "updated":"2008-08-22T12:56:36",
 "updatedby":0,
 "valuemax":null,
 "valuemin":null,
 "vformat":null}, "children" : []},{"tablename" : "ad_process_para", "data" : {"ad_process_para_id":486,
 "name":"Test",
 "ad_client_id":0,
 "ad_element_id":2153,
 "ad_org_id":0,
 "ad_process_id":271,
 "ad_reference_id":20,
 "ad_reference_value_id":null,
 "ad_val_rule_id":null,
 "columnname":"IsTest",
 "created":"2004-04-08T02:50:09",
 "createdby":0,
 "defaultvalue":"'Y'",
 "defaultvalue2":null,
 "description":"Execute in Test Mode",
 "displaylogic":null,
 "entitytype":"Manufacturing Management",
 "fieldlength":0,
 "help":null,
 "isactive":"Y",
 "iscentrallymaintained":"Y",
 "ismandatory":"N",
 "isrange":"N",
 "readonlylogic":null,
 "seqno":40,
 "updated":"2008-08-22T13:02:23",
 "updatedby":0,
 "valuemax":null,
 "valuemin":null,
 "vformat":null}, "children" : []},{"tablename" : "ad_process_para", "data" : {"ad_process_para_id":53241,
 "name":"Consolidate to one Document",
 "ad_client_id":0,
 "ad_element_id":2182,
 "ad_org_id":0,
 "ad_process_id":271,
 "ad_reference_id":20,
 "ad_reference_value_id":null,
 "ad_val_rule_id":null,
 "columnname":"ConsolidateDocument",
 "created":"2008-08-05T22:16:27",
 "createdby":0,
 "defaultvalue":"'Y'",
 "defaultvalue2":null,
 "description":"Consolidate Lines into one Document",
 "displaylogic":null,
 "entitytype":"Manufacturing Management",
 "fieldlength":1,
 "help":null,
 "isactive":"Y",
 "iscentrallymaintained":"Y",
 "ismandatory":"N",
 "isrange":"N",
 "readonlylogic":null,
 "seqno":30,
 "updated":"2008-08-22T13:00:58",
 "updatedby":0,
 "valuemax":null,
 "valuemin":null,
 "vformat":null}, "children" : []}]},
 {"tablename" : "ad_process", "data" : {"ad_process_id":286,
 "value":"M_MovementConfirm_Process",
 "name":"Process Confirmation",
 "accesslevel":"1",
 "ad_client_id":0,
 "ad_form_id":null,
 "ad_org_id":0,
 "ad_printformat_id":null,
 "ad_reportview_id":null,
 "ad_tableselection_id":null,
 "ad_workflow_id":129,
 "classname":null,
 "copyfromprocess":null,
 "created":"2000-05-07T20:14:57",
 "createdby":0,
 "description":"Process Inventory Movement Confirmation",
 "entitytype":"Manufacturing Management",
 "help":null,
 "isactive":"Y",
 "isbetafunctionality":"N",
 "isdirectprint":"N",
 "isreport":"N",
 "isserverprocess":"N",
 "jasperreport":null,
 "procedurename":null,
 "showhelp":"Y",
 "statistic_count":0,
 "statistic_seconds":0,
 "updated":"2000-01-02T00:00:00",
 "updatedby":0,
 "workflowvalue":null}, "children" : []},
 {"tablename" : "ad_process", "data" : {"ad_process_id":304,
 "value":"AD_Workflow_Validate",
 "name":"Validate Workflow",
 "accesslevel":"6",
 "ad_client_id":0,
 "ad_form_id":null,
 "ad_org_id":0,
 "ad_printformat_id":null,
 "ad_reportview_id":null,
 "ad_tableselection_id":null,
 "ad_workflow_id":null,
 "classname":"org.compiere.wf.WorkflowValidate",
 "copyfromprocess":null,
 "created":"2004-09-01T21:25:04",
 "createdby":0,
 "description":"Validate thet the workflos is correct",
 "entitytype":"Manufacturing Management",
 "help":"(limited checking)",
 "isactive":"Y",
 "isbetafunctionality":"N",
 "isdirectprint":"N",
 "isreport":"N",
 "isserverprocess":"N",
 "jasperreport":null,
 "procedurename":null,
 "showhelp":"Y",
 "statistic_count":0,
 "statistic_seconds":0,
 "updated":"2007-12-17T03:15:40",
 "updatedby":0,
 "workflowvalue":null}, "children" : []},
 {"tablename" : "ad_process", "data" : {"ad_process_id":53028,
 "value":"Rpt PP_Order",
 "name":"Manufacturing Order",
 "accesslevel":"3",
 "ad_client_id":0,
 "ad_form_id":null,
 "ad_org_id":0,
 "ad_printformat_id":null,
 "ad_reportview_id":null,
 "ad_tableselection_id":null,
 "ad_workflow_id":null,
 "classname":null,
 "copyfromprocess":null,
 "created":"2007-12-17T05:17:24",
 "createdby":0,
 "description":null,
 "entitytype":"Manufacturing Management",
 "help":null,
 "isactive":"Y",
 "isbetafunctionality":"Y",
 "isdirectprint":"Y",
 "isreport":"Y",
 "isserverprocess":"N",
 "jasperreport":null,
 "procedurename":null,
 "showhelp":"Y",
 "statistic_count":0,
 "statistic_seconds":0,
 "updated":"2008-07-25T00:41:32",
 "updatedby":0,
 "workflowvalue":null}, "children" : []},
 {"tablename" : "ad_process", "data" : {"ad_process_id":53044,
 "value":"Rpt DD_Order",
 "name":"Distribution Order Print",
 "accesslevel":"3",
 "ad_client_id":0,
 "ad_form_id":null,
 "ad_org_id":0,
 "ad_printformat_id":null,
 "ad_reportview_id":null,
 "ad_tableselection_id":null,
 "ad_workflow_id":null,
 "classname":null,
 "copyfromprocess":null,
 "created":"2007-12-17T07:19:55",
 "createdby":0,
 "description":"** Special ** Do not change **",
 "entitytype":"Manufacturing Management",
 "help":null,
 "isactive":"Y",
 "isbetafunctionality":"Y",
 "isdirectprint":"Y",
 "isreport":"Y",
 "isserverprocess":"N",
 "jasperreport":null,
 "procedurename":null,
 "showhelp":"Y",
 "statistic_count":0,
 "statistic_seconds":0,
 "updated":"2008-07-25T00:42:06",
 "updatedby":0,
 "workflowvalue":null}, "children" : []},
 {"tablename" : "ad_process", "data" : {"ad_process_id":53144,
 "value":"RV_M_Forecast",
 "name":"Forecast Report",
 "accesslevel":"3",
 "ad_client_id":0,
 "ad_form_id":null,
 "ad_org_id":0,
 "ad_printformat_id":null,
 "ad_reportview_id":53021,
 "ad_tableselection_id":null,
 "ad_workflow_id":null,
 "classname":null,
 "copyfromprocess":null,
 "created":"2008-06-25T22:52:00",
 "createdby":0,
 "description":"Forecast Report",
 "entitytype":"Manufacturing Management",
 "help":"Forecast Report",
 "isactive":"Y",
 "isbetafunctionality":"Y",
 "isdirectprint":"N",
 "isreport":"Y",
 "isserverprocess":"N",
 "jasperreport":null,
 "procedurename":null,
 "showhelp":"Y",
 "statistic_count":0,
 "statistic_seconds":0,
 "updated":"2008-06-25T22:52:00",
 "updatedby":0,
 "workflowvalue":null}, "children" : [{"tablename" : "ad_process_para", "data" : {"ad_process_para_id":53186,
 "name":"Sales Representative",
 "ad_client_id":0,
 "ad_element_id":1063,
 "ad_org_id":0,
 "ad_process_id":53144,
 "ad_reference_id":18,
 "ad_reference_value_id":190,
 "ad_val_rule_id":null,
 "columnname":"SalesRep_ID",
 "created":"2008-06-25T22:52:01",
 "createdby":0,
 "defaultvalue":null,
 "defaultvalue2":null,
 "description":"Sales Representative or Company Agent",
 "displaylogic":null,
 "entitytype":"Manufacturing Management",
 "fieldlength":22,
 "help":"The Sales Representative indicates the Sales Rep for this Region.  Any Sales Rep must be a valid internal user.",
 "isactive":"Y",
 "iscentrallymaintained":"Y",
 "ismandatory":"N",
 "isrange":"N",
 "readonlylogic":null,
 "seqno":60,
 "updated":"2008-07-08T19:07:13",
 "updatedby":0,
 "valuemax":null,
 "valuemin":null,
 "vformat":null}, "children" : []},{"tablename" : "ad_process_para", "data" : {"ad_process_para_id":53187,
 "name":"Date Promised",
 "ad_client_id":0,
 "ad_element_id":269,
 "ad_org_id":0,
 "ad_process_id":53144,
 "ad_reference_id":15,
 "ad_reference_value_id":null,
 "ad_val_rule_id":null,
 "columnname":"DatePromised",
 "created":"2008-06-25T22:52:02",
 "createdby":0,
 "defaultvalue":null,
 "defaultvalue2":null,
 "description":"Date Order was promised",
 "displaylogic":null,
 "entitytype":"Manufacturing Management",
 "fieldlength":8,
 "help":"The Date Promised indicates the date, if any, that an Order was promised for.",
 "isactive":"Y",
 "iscentrallymaintained":"Y",
 "ismandatory":"N",
 "isrange":"Y",
 "readonlylogic":null,
 "seqno":80,
 "updated":"2008-07-08T19:08:02",
 "updatedby":0,
 "valuemax":null,
 "valuemin":null,
 "vformat":null}, "children" : []},{"tablename" : "ad_process_para", "data" : {"ad_process_para_id":53188,
 "name":"Product Category",
 "ad_client_id":0,
 "ad_element_id":453,
 "ad_org_id":0,
 "ad_process_id":53144,
 "ad_reference_id":19,
 "ad_reference_value_id":null,
 "ad_val_rule_id":null,
 "columnname":"M_Product_Category_ID",
 "created":"2008-06-25T22:52:02",
 "createdby":0,
 "defaultvalue":null,
 "defaultvalue2":null,
 "description":"Category of a Product",
 "displaylogic":null,
 "entitytype":"Manufacturing Management",
 "fieldlength":22,
 "help":"Identifies the category which this product belongs to.  Product categories are used for pricing and selection.",
 "isactive":"Y",
 "iscentrallymaintained":"Y",
 "ismandatory":"N",
 "isrange":"N",
 "readonlylogic":null,
 "seqno":50,
 "updated":"2008-07-08T19:06:18",
 "updatedby":0,
 "valuemax":null,
 "valuemin":null,
 "vformat":null}, "children" : []},{"tablename" : "ad_process_para", "data" : {"ad_process_para_id":53189,
 "name":"Product",
 "ad_client_id":0,
 "ad_element_id":454,
 "ad_org_id":0,
 "ad_process_id":53144,
 "ad_reference_id":19,
 "ad_reference_value_id":null,
 "ad_val_rule_id":null,
 "columnname":"M_Product_ID",
 "created":"2008-06-25T22:52:03",
 "createdby":0,
 "defaultvalue":null,
 "defaultvalue2":null,
 "description":"Product, Service, Item",
 "displaylogic":null,
 "entitytype":"Manufacturing Management",
 "fieldlength":22,
 "help":"Identifies an item which is either purchased or sold in this organization.",
 "isactive":"Y",
 "iscentrallymaintained":"Y",
 "ismandatory":"N",
 "isrange":"N",
 "readonlylogic":null,
 "seqno":70,
 "updated":"2008-07-08T19:07:38",
 "updatedby":0,
 "valuemax":null,
 "valuemin":null,
 "vformat":null}, "children" : []},{"tablename" : "ad_process_para", "data" : {"ad_process_para_id":53190,
 "name":"Period",
 "ad_client_id":0,
 "ad_element_id":206,
 "ad_org_id":0,
 "ad_process_id":53144,
 "ad_reference_id":19,
 "ad_reference_value_id":null,
 "ad_val_rule_id":217,
 "columnname":"C_Period_ID",
 "created":"2008-06-25T22:52:03",
 "createdby":0,
 "defaultvalue":null,
 "defaultvalue2":null,
 "description":"Period of the Calendar",
 "displaylogic":null,
 "entitytype":"Manufacturing Management",
 "fieldlength":22,
 "help":"The Period indicates an exclusive range of dates for a calendar.",
 "isactive":"Y",
 "iscentrallymaintained":"Y",
 "ismandatory":"N",
 "isrange":"N",
 "readonlylogic":null,
 "seqno":40,
 "updated":"2008-07-08T19:05:55",
 "updatedby":0,
 "valuemax":null,
 "valuemin":null,
 "vformat":null}, "children" : []},{"tablename" : "ad_process_para", "data" : {"ad_process_para_id":53191,
 "name":"Year",
 "ad_client_id":0,
 "ad_element_id":223,
 "ad_org_id":0,
 "ad_process_id":53144,
 "ad_reference_id":19,
 "ad_reference_value_id":null,
 "ad_val_rule_id":198,
 "columnname":"C_Year_ID",
 "created":"2008-06-25T22:52:04",
 "createdby":0,
 "defaultvalue":null,
 "defaultvalue2":null,
 "description":"Calendar Year",
 "displaylogic":null,
 "entitytype":"Manufacturing Management",
 "fieldlength":22,
 "help":"The Year uniquely identifies an accounting year for a calendar.",
 "isactive":"Y",
 "iscentrallymaintained":"Y",
 "ismandatory":"N",
 "isrange":"N",
 "readonlylogic":null,
 "seqno":30,
 "updated":"2008-07-08T19:05:27",
 "updatedby":0,
 "valuemax":null,
 "valuemin":null,
 "vformat":null}, "children" : []},{"tablename" : "ad_process_para", "data" : {"ad_process_para_id":53192,
 "name":"Calendar",
 "ad_client_id":0,
 "ad_element_id":190,
 "ad_org_id":0,
 "ad_process_id":53144,
 "ad_reference_id":19,
 "ad_reference_value_id":null,
 "ad_val_rule_id":null,
 "columnname":"C_Calendar_ID",
 "created":"2008-06-25T22:52:04",
 "createdby":0,
 "defaultvalue":null,
 "defaultvalue2":null,
 "description":"Accounting Calendar Name",
 "displaylogic":null,
 "entitytype":"Manufacturing Management",
 "fieldlength":22,
 "help":"The Calendar uniquely identifies an accounting calendar.  Multiple calendars can be used.  For example you may need a standard calendar that runs from Jan 1 to Dec 31 and a fiscal calendar that runs from July 1 to June 30.",
 "isactive":"Y",
 "iscentrallymaintained":"Y",
 "ismandatory":"Y",
 "isrange":"N",
 "readonlylogic":null,
 "seqno":20,
 "updated":"2008-07-08T19:04:51",
 "updatedby":0,
 "valuemax":null,
 "valuemin":null,
 "vformat":null}, "children" : []},{"tablename" : "ad_process_para", "data" : {"ad_process_para_id":53193,
 "name":"Forecast",
 "ad_client_id":0,
 "ad_element_id":2498,
 "ad_org_id":0,
 "ad_process_id":53144,
 "ad_reference_id":19,
 "ad_reference_value_id":null,
 "ad_val_rule_id":null,
 "columnname":"M_Forecast_ID",
 "created":"2008-06-25T22:52:05",
 "createdby":0,
 "defaultvalue":null,
 "defaultvalue2":null,
 "description":"Material Forecast",
 "displaylogic":null,
 "entitytype":"Manufacturing Management",
 "fieldlength":22,
 "help":"Material Forecast",
 "isactive":"Y",
 "iscentrallymaintained":"Y",
 "ismandatory":"Y",
 "isrange":"N",
 "readonlylogic":null,
 "seqno":10,
 "updated":"2008-07-08T19:04:08",
 "updatedby":0,
 "valuemax":null,
 "valuemin":null,
 "vformat":null}, "children" : []}]},
 {"tablename" : "ad_process", "data" : {"ad_process_id":53146,
 "value":"RV_M_Forecast_Period",
 "name":"Forecast Report by Period",
 "accesslevel":"3",
 "ad_client_id":0,
 "ad_form_id":null,
 "ad_org_id":0,
 "ad_printformat_id":null,
 "ad_reportview_id":53022,
 "ad_tableselection_id":null,
 "ad_workflow_id":null,
 "classname":null,
 "copyfromprocess":null,
 "created":"2008-06-25T22:52:24",
 "createdby":0,
 "description":"Forecast Report by Period",
 "entitytype":"Manufacturing Management",
 "help":"Forecast Report by Period",
 "isactive":"Y",
 "isbetafunctionality":"Y",
 "isdirectprint":"N",
 "isreport":"Y",
 "isserverprocess":"N",
 "jasperreport":null,
 "procedurename":null,
 "showhelp":"Y",
 "statistic_count":0,
 "statistic_seconds":0,
 "updated":"2008-06-25T22:52:24",
 "updatedby":0,
 "workflowvalue":null}, "children" : [{"tablename" : "ad_process_para", "data" : {"ad_process_para_id":53195,
 "name":"Product",
 "ad_client_id":0,
 "ad_element_id":454,
 "ad_org_id":0,
 "ad_process_id":53146,
 "ad_reference_id":19,
 "ad_reference_value_id":null,
 "ad_val_rule_id":null,
 "columnname":"M_Product_ID",
 "created":"2008-06-25T22:52:26",
 "createdby":0,
 "defaultvalue":null,
 "defaultvalue2":null,
 "description":"Product, Service, Item",
 "displaylogic":null,
 "entitytype":"Manufacturing Management",
 "fieldlength":22,
 "help":"Identifies an item which is either purchased or sold in this organization.",
 "isactive":"Y",
 "iscentrallymaintained":"Y",
 "ismandatory":"N",
 "isrange":"N",
 "readonlylogic":null,
 "seqno":60,
 "updated":"2008-12-21T04:02:14.754505",
 "updatedby":0,
 "valuemax":null,
 "valuemin":null,
 "vformat":null}, "children" : []},{"tablename" : "ad_process_para", "data" : {"ad_process_para_id":53197,
 "name":"Period",
 "ad_client_id":0,
 "ad_element_id":206,
 "ad_org_id":0,
 "ad_process_id":53146,
 "ad_reference_id":19,
 "ad_reference_value_id":null,
 "ad_val_rule_id":217,
 "columnname":"C_Period_ID",
 "created":"2008-06-25T22:52:27",
 "createdby":0,
 "defaultvalue":null,
 "defaultvalue2":null,
 "description":"Period of the Calendar",
 "displaylogic":null,
 "entitytype":"Manufacturing Management",
 "fieldlength":22,
 "help":"The Period indicates an exclusive range of dates for a calendar.",
 "isactive":"Y",
 "iscentrallymaintained":"Y",
 "ismandatory":"N",
 "isrange":"N",
 "readonlylogic":null,
 "seqno":40,
 "updated":"2008-12-21T04:02:14.754505",
 "updatedby":0,
 "valuemax":null,
 "valuemin":null,
 "vformat":null}, "children" : []},{"tablename" : "ad_process_para", "data" : {"ad_process_para_id":53198,
 "name":"Year",
 "ad_client_id":0,
 "ad_element_id":223,
 "ad_org_id":0,
 "ad_process_id":53146,
 "ad_reference_id":19,
 "ad_reference_value_id":null,
 "ad_val_rule_id":198,
 "columnname":"C_Year_ID",
 "created":"2008-06-25T22:52:28",
 "createdby":0,
 "defaultvalue":null,
 "defaultvalue2":null,
 "description":"Calendar Year",
 "displaylogic":null,
 "entitytype":"Manufacturing Management",
 "fieldlength":22,
 "help":"The Year uniquely identifies an accounting year for a calendar.",
 "isactive":"Y",
 "iscentrallymaintained":"Y",
 "ismandatory":"N",
 "isrange":"N",
 "readonlylogic":null,
 "seqno":30,
 "updated":"2008-12-21T04:02:14.754505",
 "updatedby":0,
 "valuemax":null,
 "valuemin":null,
 "vformat":null}, "children" : []},{"tablename" : "ad_process_para", "data" : {"ad_process_para_id":53199,
 "name":"Calendar",
 "ad_client_id":0,
 "ad_element_id":190,
 "ad_org_id":0,
 "ad_process_id":53146,
 "ad_reference_id":19,
 "ad_reference_value_id":null,
 "ad_val_rule_id":null,
 "columnname":"C_Calendar_ID",
 "created":"2008-06-25T22:52:28",
 "createdby":0,
 "defaultvalue":null,
 "defaultvalue2":null,
 "description":"Accounting Calendar Name",
 "displaylogic":null,
 "entitytype":"Manufacturing Management",
 "fieldlength":22,
 "help":"The Calendar uniquely identifies an accounting calendar.  Multiple calendars can be used.  For example you may need a standard calendar that runs from Jan 1 to Dec 31 and a fiscal calendar that runs from July 1 to June 30.",
 "isactive":"Y",
 "iscentrallymaintained":"Y",
 "ismandatory":"Y",
 "isrange":"N",
 "readonlylogic":null,
 "seqno":20,
 "updated":"2008-12-21T04:02:14.754505",
 "updatedby":0,
 "valuemax":null,
 "valuemin":null,
 "vformat":null}, "children" : []},{"tablename" : "ad_process_para", "data" : {"ad_process_para_id":53200,
 "name":"Forecast",
 "ad_client_id":0,
 "ad_element_id":2498,
 "ad_org_id":0,
 "ad_process_id":53146,
 "ad_reference_id":19,
 "ad_reference_value_id":null,
 "ad_val_rule_id":null,
 "columnname":"M_Forecast_ID",
 "created":"2008-06-25T22:52:29",
 "createdby":0,
 "defaultvalue":null,
 "defaultvalue2":null,
 "description":"Material Forecast",
 "displaylogic":null,
 "entitytype":"Manufacturing Management",
 "fieldlength":22,
 "help":"Material Forecast",
 "isactive":"Y",
 "iscentrallymaintained":"Y",
 "ismandatory":"Y",
 "isrange":"N",
 "readonlylogic":null,
 "seqno":10,
 "updated":"2008-12-21T04:02:14.754505",
 "updatedby":0,
 "valuemax":null,
 "valuemin":null,
 "vformat":null}, "children" : []}]}]