[{"tablename" : "ad_window", "data" : {"ad_window_id":237,
 "name":"Resource Type",
 "ad_client_id":0,
 "ad_color_id":null,
 "ad_image_id":null,
 "ad_org_id":0,
 "created":"2002-06-15T22:26:25",
 "createdby":0,
 "description":"Maintain Resource Types",
 "entitytype":"Manufacturing Management",
 "help":"Maintain Resource types and their principal availability. it is used to calculate the available time in a resource. It allows input of starting time and end time for the slot according to the working days.",
 "isactive":"Y",
 "isbetafunctionality":"Y",
 "isdefault":"N",
 "issotrx":"Y",
 "processing":"N",
 "updated":"2011-11-02T16:35:05",
 "updatedby":0,
 "windowtype":"M",
 "winheight":null,
 "winwidth":null}, "children" : [{"tablename" : "ad_tab", "data" : {"ad_tab_id":418,
 "name":"Resource Type",
 "ad_window_id":237,
 "ad_client_id":0,
 "ad_column_id":null,
 "ad_columnsortorder_id":null,
 "ad_columnsortyesno_id":null,
 "ad_image_id":null,
 "ad_org_id":0,
 "ad_process_id":null,
 "ad_table_id":480,
 "commitwarning":null,
 "created":"2002-06-15T22:27:06",
 "createdby":0,
 "description":"Maintain Resource Types",
 "displaylogic":null,
 "entitytype":"Manufacturing Management",
 "hastree":"N",
 "help":"Maintain Resource types and their principal availability.",
 "importfields":null,
 "included_tab_id":null,
 "isactive":"Y",
 "isadvancedtab":"N",
 "isinfotab":"N",
 "isinheritfiltertoreports":"N",
 "isinsertrecord":"Y",
 "isreadonly":"N",
 "issinglerow":"N",
 "issorttab":"N",
 "istranslationtab":"N",
 "orderbyclause":null,
 "parent_column_id":null,
 "processing":"N",
 "readonlylogic":null,
 "seqno":10,
 "tablevel":0,
 "updated":"2007-12-17T01:47:02",
 "updatedby":0,
 "whereclause":null}, "children" : [{"tablename" : "ad_field", "data" : {"ad_field_id":5539,
 "name":"Resource Type",
 "ad_client_id":0,
 "ad_column_id":6889,
 "ad_fieldgroup_id":null,
 "ad_org_id":0,
 "ad_reference_id":null,
 "ad_reference_value_id":null,
 "ad_tab_id":418,
 "ad_val_rule_id":null,
 "columnspan":2,
 "created":"2002-06-15T23:51:25",
 "createdby":0,
 "defaultvalue":null,
 "description":null,
 "displaylength":14,
 "displaylogic":null,
 "entitytype":"Manufacturing Management",
 "help":null,
 "included_tab_id":null,
 "infofactoryclass":null,
 "isactive":"Y",
 "isallowcopy":null,
 "isallownewattributeinstance":"N",
 "iscentrallymaintained":"Y",
 "isdisplayed":"N",
 "isdisplayedgrid":"Y",
 "isencrypted":"N",
 "isfieldonly":"N",
 "isheading":"N",
 "ismandatory":null,
 "isquickentry":null,
 "isreadonly":"N",
 "issameline":"N",
 "numlines":1,
 "obscuretype":null,
 "seqno":10,
 "seqnogrid":null,
 "sortno":0,
 "updated":"2007-12-17T01:47:16",
 "updatedby":0,
 "xposition":1}, "children" : []},{"tablename" : "ad_field", "data" : {"ad_field_id":5540,
 "name":"Client",
 "ad_client_id":0,
 "ad_column_id":6890,
 "ad_fieldgroup_id":null,
 "ad_org_id":0,
 "ad_reference_id":null,
 "ad_reference_value_id":null,
 "ad_tab_id":418,
 "ad_val_rule_id":null,
 "columnspan":2,
 "created":"2002-06-15T23:51:25",
 "createdby":0,
 "defaultvalue":null,
 "description":"Client/Tenant for this installation.",
 "displaylength":14,
 "displaylogic":null,
 "entitytype":"Manufacturing Management",
 "help":"A Client is a company or a legal entity. You cannot share data between Clients. Tenant is a synonym for Client.",
 "included_tab_id":null,
 "infofactoryclass":null,
 "isactive":"Y",
 "isallowcopy":null,
 "isallownewattributeinstance":"N",
 "iscentrallymaintained":"Y",
 "isdisplayed":"Y",
 "isdisplayedgrid":"Y",
 "isencrypted":"N",
 "isfieldonly":"N",
 "isheading":"N",
 "ismandatory":null,
 "isquickentry":null,
 "isreadonly":"N",
 "issameline":"N",
 "numlines":1,
 "obscuretype":null,
 "seqno":30,
 "seqnogrid":null,
 "sortno":0,
 "updated":"2007-12-17T01:47:50",
 "updatedby":0,
 "xposition":1}, "children" : []},{"tablename" : "ad_field", "data" : {"ad_field_id":5541,
 "name":"Organisation",
 "ad_client_id":0,
 "ad_column_id":6891,
 "ad_fieldgroup_id":null,
 "ad_org_id":0,
 "ad_reference_id":null,
 "ad_reference_value_id":null,
 "ad_tab_id":418,
 "ad_val_rule_id":null,
 "columnspan":2,
 "created":"2002-06-15T23:51:25",
 "createdby":0,
 "defaultvalue":null,
 "description":"Organisational entity within client",
 "displaylength":14,
 "displaylogic":null,
 "entitytype":"Manufacturing Management",
 "help":"An organisation is a unit of your client or legal entity - examples are store, department. You can share data between organisations.",
 "included_tab_id":null,
 "infofactoryclass":null,
 "isactive":"Y",
 "isallowcopy":null,
 "isallownewattributeinstance":"N",
 "iscentrallymaintained":"Y",
 "isdisplayed":"Y",
 "isdisplayedgrid":"Y",
 "isencrypted":"N",
 "isfieldonly":"N",
 "isheading":"N",
 "ismandatory":null,
 "isquickentry":null,
 "isreadonly":"N",
 "issameline":"Y",
 "numlines":1,
 "obscuretype":null,
 "seqno":40,
 "seqnogrid":null,
 "sortno":0,
 "updated":"2007-12-17T01:48:07",
 "updatedby":0,
 "xposition":4}, "children" : []},{"tablename" : "ad_field", "data" : {"ad_field_id":5542,
 "name":"Active",
 "ad_client_id":0,
 "ad_column_id":6892,
 "ad_fieldgroup_id":null,
 "ad_org_id":0,
 "ad_reference_id":null,
 "ad_reference_value_id":null,
 "ad_tab_id":418,
 "ad_val_rule_id":null,
 "columnspan":2,
 "created":"2002-06-15T23:51:25",
 "createdby":0,
 "defaultvalue":null,
 "description":"The record is active in the system",
 "displaylength":1,
 "displaylogic":null,
 "entitytype":"Manufacturing Management",
 "help":"There are two methods of making records unavailable in the system: One is to delete the record, the other is to de-activate the record. A de-activated record is not available for selection, but available for reports.\nThere are two reasons for de-activating and not deleting records:\n(1) The system requires the record for audit purposes.\n(2) The record is referenced by other records. E.g., you cannot delete a Business Partner, if there are invoices for this partner record existing. You de-activate the Business Partner and prevent that this record is used for future entries.",
 "included_tab_id":null,
 "infofactoryclass":null,
 "isactive":"Y",
 "isallowcopy":null,
 "isallownewattributeinstance":"N",
 "iscentrallymaintained":"Y",
 "isdisplayed":"Y",
 "isdisplayedgrid":"Y",
 "isencrypted":"N",
 "isfieldonly":"N",
 "isheading":"N",
 "ismandatory":null,
 "isquickentry":null,
 "isreadonly":"N",
 "issameline":"N",
 "numlines":1,
 "obscuretype":null,
 "seqno":80,
 "seqnogrid":null,
 "sortno":0,
 "updated":"2007-12-17T01:49:18",
 "updatedby":0,
 "xposition":2}, "children" : []},{"tablename" : "ad_field", "data" : {"ad_field_id":5543,
 "name":"Search Key",
 "ad_client_id":0,
 "ad_column_id":6897,
 "ad_fieldgroup_id":null,
 "ad_org_id":0,
 "ad_reference_id":null,
 "ad_reference_value_id":null,
 "ad_tab_id":418,
 "ad_val_rule_id":null,
 "columnspan":5,
 "created":"2002-06-15T23:51:25",
 "createdby":0,
 "defaultvalue":null,
 "description":"Search key for the record in the format required - must be unique",
 "displaylength":40,
 "displaylogic":null,
 "entitytype":"Manufacturing Management",
 "help":"A search key allows you a fast method of finding a particular record.\nIf you leave the search key empty, the system automatically creates a numeric number.  The document sequence used for this fallback number is defined in the \"Maintain Sequence\" window with the name \"DocumentNo_<TableName>\", where TableName is the actual name of the table (e.g. C_Order).",
 "included_tab_id":null,
 "infofactoryclass":null,
 "isactive":"Y",
 "isallowcopy":null,
 "isallownewattributeinstance":"N",
 "iscentrallymaintained":"Y",
 "isdisplayed":"Y",
 "isdisplayedgrid":"Y",
 "isencrypted":"N",
 "isfieldonly":"N",
 "isheading":"N",
 "ismandatory":null,
 "isquickentry":null,
 "isreadonly":"N",
 "issameline":"N",
 "numlines":1,
 "obscuretype":null,
 "seqno":50,
 "seqnogrid":null,
 "sortno":1,
 "updated":"2007-12-17T01:48:26",
 "updatedby":0,
 "xposition":1}, "children" : []},{"tablename" : "ad_field", "data" : {"ad_field_id":5544,
 "name":"Name",
 "ad_client_id":0,
 "ad_column_id":6898,
 "ad_fieldgroup_id":null,
 "ad_org_id":0,
 "ad_reference_id":null,
 "ad_reference_value_id":null,
 "ad_tab_id":418,
 "ad_val_rule_id":null,
 "columnspan":5,
 "created":"2002-06-15T23:51:25",
 "createdby":0,
 "defaultvalue":null,
 "description":"Alphanumeric identifier of the entity",
 "displaylength":60,
 "displaylogic":null,
 "entitytype":"Manufacturing Management",
 "help":"The name of an entity (record) is used as an default search option in addition to the search key. The name is up to 60 characters in length.",
 "included_tab_id":null,
 "infofactoryclass":null,
 "isactive":"Y",
 "isallowcopy":null,
 "isallownewattributeinstance":"N",
 "iscentrallymaintained":"Y",
 "isdisplayed":"Y",
 "isdisplayedgrid":"Y",
 "isencrypted":"N",
 "isfieldonly":"N",
 "isheading":"N",
 "ismandatory":null,
 "isquickentry":null,
 "isreadonly":"N",
 "issameline":"N",
 "numlines":1,
 "obscuretype":null,
 "seqno":60,
 "seqnogrid":null,
 "sortno":0,
 "updated":"2007-12-17T01:48:43",
 "updatedby":0,
 "xposition":1}, "children" : []},{"tablename" : "ad_field", "data" : {"ad_field_id":5545,
 "name":"Description",
 "ad_client_id":0,
 "ad_column_id":6899,
 "ad_fieldgroup_id":null,
 "ad_org_id":0,
 "ad_reference_id":null,
 "ad_reference_value_id":null,
 "ad_tab_id":418,
 "ad_val_rule_id":null,
 "columnspan":5,
 "created":"2002-06-15T23:51:25",
 "createdby":0,
 "defaultvalue":null,
 "description":"Optional short description of the record",
 "displaylength":60,
 "displaylogic":null,
 "entitytype":"Manufacturing Management",
 "help":"A description is limited to 255 characters.",
 "included_tab_id":null,
 "infofactoryclass":null,
 "isactive":"Y",
 "isallowcopy":null,
 "isallownewattributeinstance":"N",
 "iscentrallymaintained":"Y",
 "isdisplayed":"Y",
 "isdisplayedgrid":"Y",
 "isencrypted":"N",
 "isfieldonly":"N",
 "isheading":"N",
 "ismandatory":null,
 "isquickentry":null,
 "isreadonly":"N",
 "issameline":"N",
 "numlines":1,
 "obscuretype":null,
 "seqno":70,
 "seqnogrid":null,
 "sortno":0,
 "updated":"2007-12-17T01:49:00",
 "updatedby":0,
 "xposition":1}, "children" : []},{"tablename" : "ad_field", "data" : {"ad_field_id":5546,
 "name":"UOM",
 "ad_client_id":0,
 "ad_column_id":6900,
 "ad_fieldgroup_id":null,
 "ad_org_id":0,
 "ad_reference_id":null,
 "ad_reference_value_id":null,
 "ad_tab_id":418,
 "ad_val_rule_id":null,
 "columnspan":2,
 "created":"2002-06-15T23:51:25",
 "createdby":0,
 "defaultvalue":null,
 "description":"Unit of Measure",
 "displaylength":14,
 "displaylogic":null,
 "entitytype":"Manufacturing Management",
 "help":"The UOM defines a unique non monetary Unit of Measure",
 "included_tab_id":null,
 "infofactoryclass":null,
 "isactive":"Y",
 "isallowcopy":null,
 "isallownewattributeinstance":"N",
 "iscentrallymaintained":"Y",
 "isdisplayed":"Y",
 "isdisplayedgrid":"Y",
 "isencrypted":"N",
 "isfieldonly":"N",
 "isheading":"N",
 "ismandatory":null,
 "isquickentry":null,
 "isreadonly":"N",
 "issameline":"N",
 "numlines":1,
 "obscuretype":null,
 "seqno":90,
 "seqnogrid":null,
 "sortno":0,
 "updated":"2007-12-17T01:49:37",
 "updatedby":0,
 "xposition":1}, "children" : []},{"tablename" : "ad_field", "data" : {"ad_field_id":5547,
 "name":"Allow UoM Fractions",
 "ad_client_id":0,
 "ad_column_id":6901,
 "ad_fieldgroup_id":null,
 "ad_org_id":0,
 "ad_reference_id":null,
 "ad_reference_value_id":null,
 "ad_tab_id":418,
 "ad_val_rule_id":null,
 "columnspan":2,
 "created":"2002-06-15T23:51:25",
 "createdby":0,
 "defaultvalue":null,
 "description":"Allow Unit of Measure Fractions",
 "displaylength":1,
 "displaylogic":null,
 "entitytype":"Manufacturing Management",
 "help":"If allowed, you can enter UoM Fractions",
 "included_tab_id":null,
 "infofactoryclass":null,
 "isactive":"Y",
 "isallowcopy":null,
 "isallownewattributeinstance":"N",
 "iscentrallymaintained":"Y",
 "isdisplayed":"Y",
 "isdisplayedgrid":"Y",
 "isencrypted":"N",
 "isfieldonly":"N",
 "isheading":"N",
 "ismandatory":null,
 "isquickentry":null,
 "isreadonly":"N",
 "issameline":"Y",
 "numlines":1,
 "obscuretype":null,
 "seqno":100,
 "seqnogrid":null,
 "sortno":0,
 "updated":"2007-12-17T01:49:54",
 "updatedby":0,
 "xposition":5}, "children" : []},{"tablename" : "ad_field", "data" : {"ad_field_id":5575,
 "name":"Tuesday",
 "ad_client_id":0,
 "ad_column_id":6919,
 "ad_fieldgroup_id":null,
 "ad_org_id":0,
 "ad_reference_id":null,
 "ad_reference_value_id":null,
 "ad_tab_id":418,
 "ad_val_rule_id":null,
 "columnspan":2,
 "created":"2002-06-20T21:16:07",
 "createdby":0,
 "defaultvalue":null,
 "description":"Available on Tuesdays",
 "displaylength":1,
 "displaylogic":"@IsDateSlot@=Y",
 "entitytype":"Manufacturing Management",
 "help":null,
 "included_tab_id":null,
 "infofactoryclass":null,
 "isactive":"Y",
 "isallowcopy":null,
 "isallownewattributeinstance":"N",
 "iscentrallymaintained":"Y",
 "isdisplayed":"Y",
 "isdisplayedgrid":"Y",
 "isencrypted":"N",
 "isfieldonly":"N",
 "isheading":"N",
 "ismandatory":null,
 "isquickentry":null,
 "isreadonly":"N",
 "issameline":"Y",
 "numlines":1,
 "obscuretype":null,
 "seqno":200,
 "seqnogrid":null,
 "sortno":0,
 "updated":"2007-12-17T01:52:55",
 "updatedby":0,
 "xposition":5}, "children" : []},{"tablename" : "ad_field", "data" : {"ad_field_id":5576,
 "name":"Sunday",
 "ad_client_id":0,
 "ad_column_id":6920,
 "ad_fieldgroup_id":null,
 "ad_org_id":0,
 "ad_reference_id":null,
 "ad_reference_value_id":null,
 "ad_tab_id":418,
 "ad_val_rule_id":null,
 "columnspan":2,
 "created":"2002-06-20T21:16:07",
 "createdby":0,
 "defaultvalue":null,
 "description":"Available on Sundays",
 "displaylength":1,
 "displaylogic":"@IsDateSlot@=Y",
 "entitytype":"Manufacturing Management",
 "help":null,
 "included_tab_id":null,
 "infofactoryclass":null,
 "isactive":"Y",
 "isallowcopy":null,
 "isallownewattributeinstance":"N",
 "iscentrallymaintained":"Y",
 "isdisplayed":"Y",
 "isdisplayedgrid":"Y",
 "isencrypted":"N",
 "isfieldonly":"N",
 "isheading":"N",
 "ismandatory":null,
 "isquickentry":null,
 "isreadonly":"N",
 "issameline":"Y",
 "numlines":1,
 "obscuretype":null,
 "seqno":180,
 "seqnogrid":null,
 "sortno":0,
 "updated":"2007-12-17T01:52:21",
 "updatedby":0,
 "xposition":5}, "children" : []},{"tablename" : "ad_field", "data" : {"ad_field_id":5577,
 "name":"Saturday",
 "ad_client_id":0,
 "ad_column_id":6921,
 "ad_fieldgroup_id":null,
 "ad_org_id":0,
 "ad_reference_id":null,
 "ad_reference_value_id":null,
 "ad_tab_id":418,
 "ad_val_rule_id":null,
 "columnspan":2,
 "created":"2002-06-20T21:16:07",
 "createdby":0,
 "defaultvalue":null,
 "description":"Available on Saturday",
 "displaylength":1,
 "displaylogic":"@IsDateSlot@=Y",
 "entitytype":"Manufacturing Management",
 "help":null,
 "included_tab_id":null,
 "infofactoryclass":null,
 "isactive":"Y",
 "isallowcopy":null,
 "isallownewattributeinstance":"N",
 "iscentrallymaintained":"Y",
 "isdisplayed":"Y",
 "isdisplayedgrid":"Y",
 "isencrypted":"N",
 "isfieldonly":"N",
 "isheading":"N",
 "ismandatory":null,
 "isquickentry":null,
 "isreadonly":"N",
 "issameline":"Y",
 "numlines":1,
 "obscuretype":null,
 "seqno":240,
 "seqnogrid":null,
 "sortno":0,
 "updated":"2007-12-17T01:53:56",
 "updatedby":0,
 "xposition":5}, "children" : []},{"tablename" : "ad_field", "data" : {"ad_field_id":5578,
 "name":"Time Slot",
 "ad_client_id":0,
 "ad_column_id":6922,
 "ad_fieldgroup_id":null,
 "ad_org_id":0,
 "ad_reference_id":null,
 "ad_reference_value_id":null,
 "ad_tab_id":418,
 "ad_val_rule_id":null,
 "columnspan":2,
 "created":"2002-06-20T21:16:07",
 "createdby":0,
 "defaultvalue":null,
 "description":"Resource has time slot availability",
 "displaylength":1,
 "displaylogic":null,
 "entitytype":"Manufacturing Management",
 "help":"Resource is only available at certain times",
 "included_tab_id":null,
 "infofactoryclass":null,
 "isactive":"Y",
 "isallowcopy":null,
 "isallownewattributeinstance":"N",
 "iscentrallymaintained":"Y",
 "isdisplayed":"Y",
 "isdisplayedgrid":"Y",
 "isencrypted":"N",
 "isfieldonly":"N",
 "isheading":"N",
 "ismandatory":null,
 "isquickentry":null,
 "isreadonly":"N",
 "issameline":"N",
 "numlines":1,
 "obscuretype":null,
 "seqno":140,
 "seqnogrid":null,
 "sortno":0,
 "updated":"2007-12-17T01:51:03",
 "updatedby":0,
 "xposition":2}, "children" : []},{"tablename" : "ad_field", "data" : {"ad_field_id":5579,
 "name":"Slot End",
 "ad_client_id":0,
 "ad_column_id":6923,
 "ad_fieldgroup_id":null,
 "ad_org_id":0,
 "ad_reference_id":null,
 "ad_reference_value_id":null,
 "ad_tab_id":418,
 "ad_val_rule_id":null,
 "columnspan":2,
 "created":"2002-06-20T21:16:07",
 "createdby":0,
 "defaultvalue":null,
 "description":"Time when timeslot ends",
 "displaylength":1,
 "displaylogic":"@IsTimeSlot@=Y",
 "entitytype":"Manufacturing Management",
 "help":"Ending time for time slots",
 "included_tab_id":null,
 "infofactoryclass":null,
 "isactive":"Y",
 "isallowcopy":null,
 "isallownewattributeinstance":"N",
 "iscentrallymaintained":"Y",
 "isdisplayed":"Y",
 "isdisplayedgrid":"Y",
 "isencrypted":"N",
 "isfieldonly":"N",
 "isheading":"N",
 "ismandatory":"Y",
 "isquickentry":null,
 "isreadonly":"N",
 "issameline":"Y",
 "numlines":1,
 "obscuretype":null,
 "seqno":160,
 "seqnogrid":null,
 "sortno":0,
 "updated":"2008-12-15T16:46:08",
 "updatedby":0,
 "xposition":4}, "children" : []},{"tablename" : "ad_field", "data" : {"ad_field_id":5580,
 "name":"Friday",
 "ad_client_id":0,
 "ad_column_id":6924,
 "ad_fieldgroup_id":null,
 "ad_org_id":0,
 "ad_reference_id":null,
 "ad_reference_value_id":null,
 "ad_tab_id":418,
 "ad_val_rule_id":null,
 "columnspan":2,
 "created":"2002-06-20T21:16:07",
 "createdby":0,
 "defaultvalue":null,
 "description":"Available on Fridays",
 "displaylength":1,
 "displaylogic":"@IsDateSlot@=Y",
 "entitytype":"Manufacturing Management",
 "help":null,
 "included_tab_id":null,
 "infofactoryclass":null,
 "isactive":"Y",
 "isallowcopy":null,
 "isallownewattributeinstance":"N",
 "iscentrallymaintained":"Y",
 "isdisplayed":"Y",
 "isdisplayedgrid":"Y",
 "isencrypted":"N",
 "isfieldonly":"N",
 "isheading":"N",
 "ismandatory":null,
 "isquickentry":null,
 "isreadonly":"N",
 "issameline":"N",
 "numlines":1,
 "obscuretype":null,
 "seqno":230,
 "seqnogrid":null,
 "sortno":0,
 "updated":"2007-12-17T01:53:41",
 "updatedby":0,
 "xposition":2}, "children" : []},{"tablename" : "ad_field", "data" : {"ad_field_id":5581,
 "name":"Single Assignment only",
 "ad_client_id":0,
 "ad_column_id":6925,
 "ad_fieldgroup_id":null,
 "ad_org_id":0,
 "ad_reference_id":null,
 "ad_reference_value_id":null,
 "ad_tab_id":418,
 "ad_val_rule_id":null,
 "columnspan":2,
 "created":"2002-06-20T21:16:07",
 "createdby":0,
 "defaultvalue":null,
 "description":"Only one assignment at a time (no double-booking or overlapping)",
 "displaylength":1,
 "displaylogic":null,
 "entitytype":"Manufacturing Management",
 "help":"If selected, you can only have one assignment for the resource at a single point in time.   It is also  not possible to have overlapping assignments.",
 "included_tab_id":null,
 "infofactoryclass":null,
 "isactive":"Y",
 "isallowcopy":null,
 "isallownewattributeinstance":"N",
 "iscentrallymaintained":"Y",
 "isdisplayed":"Y",
 "isdisplayedgrid":"Y",
 "isencrypted":"N",
 "isfieldonly":"N",
 "isheading":"N",
 "ismandatory":null,
 "isquickentry":null,
 "isreadonly":"N",
 "issameline":"N",
 "numlines":1,
 "obscuretype":null,
 "seqno":130,
 "seqnogrid":null,
 "sortno":0,
 "updated":"2007-12-17T01:50:48",
 "updatedby":0,
 "xposition":2}, "children" : []},{"tablename" : "ad_field", "data" : {"ad_field_id":5582,
 "name":"Thursday",
 "ad_client_id":0,
 "ad_column_id":6926,
 "ad_fieldgroup_id":null,
 "ad_org_id":0,
 "ad_reference_id":null,
 "ad_reference_value_id":null,
 "ad_tab_id":418,
 "ad_val_rule_id":null,
 "columnspan":2,
 "created":"2002-06-20T21:16:07",
 "createdby":0,
 "defaultvalue":null,
 "description":"Available on Thursdays",
 "displaylength":1,
 "displaylogic":"@IsDateSlot@=Y",
 "entitytype":"Manufacturing Management",
 "help":null,
 "included_tab_id":null,
 "infofactoryclass":null,
 "isactive":"Y",
 "isallowcopy":null,
 "isallownewattributeinstance":"N",
 "iscentrallymaintained":"Y",
 "isdisplayed":"Y",
 "isdisplayedgrid":"Y",
 "isencrypted":"N",
 "isfieldonly":"N",
 "isheading":"N",
 "ismandatory":null,
 "isquickentry":null,
 "isreadonly":"N",
 "issameline":"Y",
 "numlines":1,
 "obscuretype":null,
 "seqno":220,
 "seqnogrid":null,
 "sortno":0,
 "updated":"2007-12-17T01:53:25",
 "updatedby":0,
 "xposition":5}, "children" : []},{"tablename" : "ad_field", "data" : {"ad_field_id":5583,
 "name":"Wednesday",
 "ad_client_id":0,
 "ad_column_id":6927,
 "ad_fieldgroup_id":null,
 "ad_org_id":0,
 "ad_reference_id":null,
 "ad_reference_value_id":null,
 "ad_tab_id":418,
 "ad_val_rule_id":null,
 "columnspan":2,
 "created":"2002-06-20T21:16:07",
 "createdby":0,
 "defaultvalue":null,
 "description":"Available on Wednesdays",
 "displaylength":1,
 "displaylogic":"@IsDateSlot@=Y",
 "entitytype":"Manufacturing Management",
 "help":null,
 "included_tab_id":null,
 "infofactoryclass":null,
 "isactive":"Y",
 "isallowcopy":null,
 "isallownewattributeinstance":"N",
 "iscentrallymaintained":"Y",
 "isdisplayed":"Y",
 "isdisplayedgrid":"Y",
 "isencrypted":"N",
 "isfieldonly":"N",
 "isheading":"N",
 "ismandatory":null,
 "isquickentry":null,
 "isreadonly":"N",
 "issameline":"N",
 "numlines":1,
 "obscuretype":null,
 "seqno":210,
 "seqnogrid":null,
 "sortno":0,
 "updated":"2007-12-17T01:53:10",
 "updatedby":0,
 "xposition":2}, "children" : []},{"tablename" : "ad_field", "data" : {"ad_field_id":5584,
 "name":"Slot Start",
 "ad_client_id":0,
 "ad_column_id":6928,
 "ad_fieldgroup_id":null,
 "ad_org_id":0,
 "ad_reference_id":null,
 "ad_reference_value_id":null,
 "ad_tab_id":418,
 "ad_val_rule_id":null,
 "columnspan":2,
 "created":"2002-06-20T21:16:07",
 "createdby":0,
 "defaultvalue":null,
 "description":"Time when timeslot starts",
 "displaylength":1,
 "displaylogic":"@IsTimeSlot@=Y",
 "entitytype":"Manufacturing Management",
 "help":"Starting time for time slots",
 "included_tab_id":null,
 "infofactoryclass":null,
 "isactive":"Y",
 "isallowcopy":null,
 "isallownewattributeinstance":"N",
 "iscentrallymaintained":"Y",
 "isdisplayed":"Y",
 "isdisplayedgrid":"Y",
 "isencrypted":"N",
 "isfieldonly":"N",
 "isheading":"N",
 "ismandatory":"Y",
 "isquickentry":null,
 "isreadonly":"N",
 "issameline":"N",
 "numlines":1,
 "obscuretype":null,
 "seqno":150,
 "seqnogrid":null,
 "sortno":0,
 "updated":"2008-12-15T16:46:02",
 "updatedby":0,
 "xposition":1}, "children" : []},{"tablename" : "ad_field", "data" : {"ad_field_id":5585,
 "name":"Monday",
 "ad_client_id":0,
 "ad_column_id":6929,
 "ad_fieldgroup_id":null,
 "ad_org_id":0,
 "ad_reference_id":null,
 "ad_reference_value_id":null,
 "ad_tab_id":418,
 "ad_val_rule_id":null,
 "columnspan":2,
 "created":"2002-06-20T21:16:07",
 "createdby":0,
 "defaultvalue":null,
 "description":"Available on Mondays",
 "displaylength":1,
 "displaylogic":"@IsDateSlot@=Y",
 "entitytype":"Manufacturing Management",
 "help":null,
 "included_tab_id":null,
 "infofactoryclass":null,
 "isactive":"Y",
 "isallowcopy":null,
 "isallownewattributeinstance":"N",
 "iscentrallymaintained":"Y",
 "isdisplayed":"Y",
 "isdisplayedgrid":"Y",
 "isencrypted":"N",
 "isfieldonly":"N",
 "isheading":"N",
 "ismandatory":null,
 "isquickentry":null,
 "isreadonly":"N",
 "issameline":"N",
 "numlines":1,
 "obscuretype":null,
 "seqno":190,
 "seqnogrid":null,
 "sortno":0,
 "updated":"2007-12-17T01:52:41",
 "updatedby":0,
 "xposition":2}, "children" : []},{"tablename" : "ad_field", "data" : {"ad_field_id":5586,
 "name":"Day Slot",
 "ad_client_id":0,
 "ad_column_id":6930,
 "ad_fieldgroup_id":null,
 "ad_org_id":0,
 "ad_reference_id":null,
 "ad_reference_value_id":null,
 "ad_tab_id":418,
 "ad_val_rule_id":null,
 "columnspan":2,
 "created":"2002-06-20T21:16:07",
 "createdby":0,
 "defaultvalue":null,
 "description":"Resource has day slot availability",
 "displaylength":1,
 "displaylogic":null,
 "entitytype":"Manufacturing Management",
 "help":"Resource is only available on certain days",
 "included_tab_id":null,
 "infofactoryclass":null,
 "isactive":"Y",
 "isallowcopy":null,
 "isallownewattributeinstance":"N",
 "iscentrallymaintained":"Y",
 "isdisplayed":"Y",
 "isdisplayedgrid":"Y",
 "isencrypted":"N",
 "isfieldonly":"N",
 "isheading":"N",
 "ismandatory":null,
 "isquickentry":null,
 "isreadonly":"N",
 "issameline":"N",
 "numlines":1,
 "obscuretype":null,
 "seqno":170,
 "seqnogrid":null,
 "sortno":0,
 "updated":"2007-12-17T01:51:58",
 "updatedby":0,
 "xposition":2}, "children" : []},{"tablename" : "ad_field", "data" : {"ad_field_id":5587,
 "name":"Tax Category",
 "ad_client_id":0,
 "ad_column_id":6932,
 "ad_fieldgroup_id":null,
 "ad_org_id":0,
 "ad_reference_id":null,
 "ad_reference_value_id":null,
 "ad_tab_id":418,
 "ad_val_rule_id":null,
 "columnspan":2,
 "created":"2002-06-20T23:27:11",
 "createdby":0,
 "defaultvalue":null,
 "description":"Tax Category",
 "displaylength":14,
 "displaylogic":null,
 "entitytype":"Manufacturing Management",
 "help":"The Tax Category provides a method of grouping similar taxes.  For example, Sales Tax or Value Added Tax.",
 "included_tab_id":null,
 "infofactoryclass":null,
 "isactive":"Y",
 "isallowcopy":null,
 "isallownewattributeinstance":"N",
 "iscentrallymaintained":"Y",
 "isdisplayed":"Y",
 "isdisplayedgrid":"Y",
 "isencrypted":"N",
 "isfieldonly":"N",
 "isheading":"N",
 "ismandatory":null,
 "isquickentry":null,
 "isreadonly":"N",
 "issameline":"Y",
 "numlines":1,
 "obscuretype":null,
 "seqno":120,
 "seqnogrid":null,
 "sortno":0,
 "updated":"2007-12-17T01:50:32",
 "updatedby":0,
 "xposition":4}, "children" : []},{"tablename" : "ad_field", "data" : {"ad_field_id":5588,
 "name":"Product Category",
 "ad_client_id":0,
 "ad_column_id":6931,
 "ad_fieldgroup_id":null,
 "ad_org_id":0,
 "ad_reference_id":null,
 "ad_reference_value_id":null,
 "ad_tab_id":418,
 "ad_val_rule_id":null,
 "columnspan":2,
 "created":"2002-06-20T23:27:11",
 "createdby":0,
 "defaultvalue":null,
 "description":"Category of a Product",
 "displaylength":14,
 "displaylogic":null,
 "entitytype":"Manufacturing Management",
 "help":"Identifies the category which this product belongs to.  Product categories are used for pricing and selection.",
 "included_tab_id":null,
 "infofactoryclass":null,
 "isactive":"Y",
 "isallowcopy":null,
 "isallownewattributeinstance":"N",
 "iscentrallymaintained":"Y",
 "isdisplayed":"Y",
 "isdisplayedgrid":"Y",
 "isencrypted":"N",
 "isfieldonly":"N",
 "isheading":"N",
 "ismandatory":null,
 "isquickentry":null,
 "isreadonly":"N",
 "issameline":"N",
 "numlines":1,
 "obscuretype":null,
 "seqno":110,
 "seqnogrid":null,
 "sortno":0,
 "updated":"2007-12-17T01:50:16",
 "updatedby":0,
 "xposition":1}, "children" : []},{"tablename" : "ad_field", "data" : {"ad_field_id":6569,
 "name":"Chargeable Quantity",
 "ad_client_id":0,
 "ad_column_id":8837,
 "ad_fieldgroup_id":null,
 "ad_org_id":0,
 "ad_reference_id":null,
 "ad_reference_value_id":null,
 "ad_tab_id":418,
 "ad_val_rule_id":null,
 "columnspan":2,
 "created":"2003-06-02T00:06:31",
 "createdby":0,
 "defaultvalue":null,
 "description":null,
 "displaylength":11,
 "displaylogic":null,
 "entitytype":"Manufacturing Management",
 "help":null,
 "included_tab_id":null,
 "infofactoryclass":null,
 "isactive":"Y",
 "isallowcopy":null,
 "isallownewattributeinstance":"N",
 "iscentrallymaintained":"Y",
 "isdisplayed":"N",
 "isdisplayedgrid":"Y",
 "isencrypted":"N",
 "isfieldonly":"N",
 "isheading":"N",
 "ismandatory":null,
 "isquickentry":null,
 "isreadonly":"N",
 "issameline":"N",
 "numlines":1,
 "obscuretype":null,
 "seqno":20,
 "seqnogrid":null,
 "sortno":0,
 "updated":"2007-12-17T01:47:33",
 "updatedby":0,
 "xposition":1}, "children" : []}]}]},
 {"tablename" : "ad_window", "data" : {"ad_window_id":328,
 "name":"Forecast",
 "ad_client_id":0,
 "ad_color_id":null,
 "ad_image_id":null,
 "ad_org_id":0,
 "created":"2004-04-17T11:11:08",
 "createdby":0,
 "description":"Maintain Material Forecast",
 "entitytype":"Manufacturing Management",
 "help":"Material Forecast",
 "isactive":"Y",
 "isbetafunctionality":"Y",
 "isdefault":"N",
 "issotrx":"Y",
 "processing":"N",
 "updated":"2000-01-02T00:00:00",
 "updatedby":0,
 "windowtype":"M",
 "winheight":null,
 "winwidth":null}, "children" : [{"tablename" : "ad_tab", "data" : {"ad_tab_id":653,
 "name":"Forecast",
 "ad_window_id":328,
 "ad_client_id":0,
 "ad_column_id":null,
 "ad_columnsortorder_id":null,
 "ad_columnsortyesno_id":null,
 "ad_image_id":null,
 "ad_org_id":0,
 "ad_process_id":null,
 "ad_table_id":720,
 "commitwarning":null,
 "created":"2004-04-17T11:11:37",
 "createdby":0,
 "description":"Material Forecast",
 "displaylogic":null,
 "entitytype":"Manufacturing Management",
 "hastree":"N",
 "help":"Material Forecast",
 "importfields":null,
 "included_tab_id":null,
 "isactive":"Y",
 "isadvancedtab":"N",
 "isinfotab":"N",
 "isinheritfiltertoreports":"N",
 "isinsertrecord":"Y",
 "isreadonly":"N",
 "issinglerow":"Y",
 "issorttab":"N",
 "istranslationtab":"N",
 "orderbyclause":null,
 "parent_column_id":null,
 "processing":"N",
 "readonlylogic":null,
 "seqno":10,
 "tablevel":0,
 "updated":"2008-07-09T22:08:27",
 "updatedby":0,
 "whereclause":null}, "children" : [{"tablename" : "ad_field", "data" : {"ad_field_id":10290,
 "name":"Comment/Help",
 "ad_client_id":0,
 "ad_column_id":11905,
 "ad_fieldgroup_id":null,
 "ad_org_id":0,
 "ad_reference_id":null,
 "ad_reference_value_id":null,
 "ad_tab_id":653,
 "ad_val_rule_id":null,
 "columnspan":5,
 "created":"2004-04-17T11:14:57",
 "createdby":0,
 "defaultvalue":null,
 "description":"Comment or Hint",
 "displaylength":60,
 "displaylogic":null,
 "entitytype":"Manufacturing Management",
 "help":"The Help field contains a hint, comment or help about the use of this item.",
 "included_tab_id":null,
 "infofactoryclass":null,
 "isactive":"Y",
 "isallowcopy":null,
 "isallownewattributeinstance":"N",
 "iscentrallymaintained":"Y",
 "isdisplayed":"Y",
 "isdisplayedgrid":"Y",
 "isencrypted":"N",
 "isfieldonly":"N",
 "isheading":"N",
 "ismandatory":null,
 "isquickentry":null,
 "isreadonly":"N",
 "issameline":"N",
 "numlines":1,
 "obscuretype":null,
 "seqno":50,
 "seqnogrid":null,
 "sortno":0,
 "updated":"2008-06-25T22:51:17",
 "updatedby":0,
 "xposition":1}, "children" : []},{"tablename" : "ad_field", "data" : {"ad_field_id":10291,
 "name":"Name",
 "ad_client_id":0,
 "ad_column_id":11908,
 "ad_fieldgroup_id":null,
 "ad_org_id":0,
 "ad_reference_id":null,
 "ad_reference_value_id":null,
 "ad_tab_id":653,
 "ad_val_rule_id":null,
 "columnspan":5,
 "created":"2004-04-17T11:14:57",
 "createdby":0,
 "defaultvalue":null,
 "description":"Alphanumeric identifier of the entity",
 "displaylength":60,
 "displaylogic":null,
 "entitytype":"Manufacturing Management",
 "help":"The name of an entity (record) is used as an default search option in addition to the search key. The name is up to 60 characters in length.",
 "included_tab_id":null,
 "infofactoryclass":null,
 "isactive":"Y",
 "isallowcopy":null,
 "isallownewattributeinstance":"N",
 "iscentrallymaintained":"Y",
 "isdisplayed":"Y",
 "isdisplayedgrid":"Y",
 "isencrypted":"N",
 "isfieldonly":"N",
 "isheading":"N",
 "ismandatory":null,
 "isquickentry":null,
 "isreadonly":"N",
 "issameline":"N",
 "numlines":1,
 "obscuretype":null,
 "seqno":30,
 "seqnogrid":null,
 "sortno":1,
 "updated":"2008-06-25T22:51:16",
 "updatedby":0,
 "xposition":1}, "children" : []},{"tablename" : "ad_field", "data" : {"ad_field_id":10292,
 "name":"Year",
 "ad_client_id":0,
 "ad_column_id":11909,
 "ad_fieldgroup_id":null,
 "ad_org_id":0,
 "ad_reference_id":null,
 "ad_reference_value_id":null,
 "ad_tab_id":653,
 "ad_val_rule_id":null,
 "columnspan":2,
 "created":"2004-04-17T11:14:57",
 "createdby":0,
 "defaultvalue":null,
 "description":"Calendar Year",
 "displaylength":14,
 "displaylogic":null,
 "entitytype":"Manufacturing Management",
 "help":"The Year uniquely identifies an accounting year for a calendar.",
 "included_tab_id":null,
 "infofactoryclass":null,
 "isactive":"Y",
 "isallowcopy":null,
 "isallownewattributeinstance":"N",
 "iscentrallymaintained":"Y",
 "isdisplayed":"Y",
 "isdisplayedgrid":"Y",
 "isencrypted":"N",
 "isfieldonly":"N",
 "isheading":"N",
 "ismandatory":null,
 "isquickentry":null,
 "isreadonly":"N",
 "issameline":"Y",
 "numlines":1,
 "obscuretype":null,
 "seqno":100,
 "seqnogrid":null,
 "sortno":0,
 "updated":"2008-06-25T22:51:18",
 "updatedby":0,
 "xposition":4}, "children" : []},{"tablename" : "ad_field", "data" : {"ad_field_id":10293,
 "name":"Client",
 "ad_client_id":0,
 "ad_column_id":11910,
 "ad_fieldgroup_id":null,
 "ad_org_id":0,
 "ad_reference_id":null,
 "ad_reference_value_id":null,
 "ad_tab_id":653,
 "ad_val_rule_id":null,
 "columnspan":2,
 "created":"2004-04-17T11:14:57",
 "createdby":0,
 "defaultvalue":null,
 "description":"Client/Tenant for this installation.",
 "displaylength":14,
 "displaylogic":null,
 "entitytype":"Manufacturing Management",
 "help":"A Client is a company or a legal entity. You cannot share data between Clients. Tenant is a synonym for Client.",
 "included_tab_id":null,
 "infofactoryclass":null,
 "isactive":"Y",
 "isallowcopy":null,
 "isallownewattributeinstance":"N",
 "iscentrallymaintained":"Y",
 "isdisplayed":"Y",
 "isdisplayedgrid":"Y",
 "isencrypted":"N",
 "isfieldonly":"N",
 "isheading":"N",
 "ismandatory":null,
 "isquickentry":null,
 "isreadonly":"N",
 "issameline":"N",
 "numlines":1,
 "obscuretype":null,
 "seqno":10,
 "seqnogrid":null,
 "sortno":0,
 "updated":"2008-06-25T22:51:15",
 "updatedby":0,
 "xposition":1}, "children" : []},{"tablename" : "ad_field", "data" : {"ad_field_id":10294,
 "name":"Description",
 "ad_client_id":0,
 "ad_column_id":11911,
 "ad_fieldgroup_id":null,
 "ad_org_id":0,
 "ad_reference_id":null,
 "ad_reference_value_id":null,
 "ad_tab_id":653,
 "ad_val_rule_id":null,
 "columnspan":5,
 "created":"2004-04-17T11:14:57",
 "createdby":0,
 "defaultvalue":null,
 "description":"Optional short description of the record",
 "displaylength":60,
 "displaylogic":null,
 "entitytype":"Manufacturing Management",
 "help":"A description is limited to 255 characters.",
 "included_tab_id":null,
 "infofactoryclass":null,
 "isactive":"Y",
 "isallowcopy":null,
 "isallownewattributeinstance":"N",
 "iscentrallymaintained":"Y",
 "isdisplayed":"Y",
 "isdisplayedgrid":"Y",
 "isencrypted":"N",
 "isfieldonly":"N",
 "isheading":"N",
 "ismandatory":null,
 "isquickentry":null,
 "isreadonly":"N",
 "issameline":"N",
 "numlines":1,
 "obscuretype":null,
 "seqno":40,
 "seqnogrid":null,
 "sortno":0,
 "updated":"2008-06-25T22:51:16",
 "updatedby":0,
 "xposition":1}, "children" : []},{"tablename" : "ad_field", "data" : {"ad_field_id":10295,
 "name":"Calendar",
 "ad_client_id":0,
 "ad_column_id":11912,
 "ad_fieldgroup_id":null,
 "ad_org_id":0,
 "ad_reference_id":null,
 "ad_reference_value_id":null,
 "ad_tab_id":653,
 "ad_val_rule_id":null,
 "columnspan":2,
 "created":"2004-04-17T11:14:57",
 "createdby":0,
 "defaultvalue":null,
 "description":"Accounting Calendar Name",
 "displaylength":14,
 "displaylogic":null,
 "entitytype":"Manufacturing Management",
 "help":"The Calendar uniquely identifies an accounting calendar.  Multiple calendars can be used.  For example you may need a standard calendar that runs from Jan 1 to Dec 31 and a fiscal calendar that runs from July 1 to June 30.",
 "included_tab_id":null,
 "infofactoryclass":null,
 "isactive":"Y",
 "isallowcopy":null,
 "isallownewattributeinstance":"N",
 "iscentrallymaintained":"Y",
 "isdisplayed":"Y",
 "isdisplayedgrid":"Y",
 "isencrypted":"N",
 "isfieldonly":"N",
 "isheading":"N",
 "ismandatory":null,
 "isquickentry":null,
 "isreadonly":"N",
 "issameline":"N",
 "numlines":1,
 "obscuretype":null,
 "seqno":90,
 "seqnogrid":null,
 "sortno":0,
 "updated":"2008-06-25T22:51:18",
 "updatedby":0,
 "xposition":1}, "children" : []},{"tablename" : "ad_field", "data" : {"ad_field_id":10296,
 "name":"Active",
 "ad_client_id":0,
 "ad_column_id":11913,
 "ad_fieldgroup_id":null,
 "ad_org_id":0,
 "ad_reference_id":null,
 "ad_reference_value_id":null,
 "ad_tab_id":653,
 "ad_val_rule_id":null,
 "columnspan":2,
 "created":"2004-04-17T11:14:57",
 "createdby":0,
 "defaultvalue":null,
 "description":"The record is active in the system",
 "displaylength":1,
 "displaylogic":null,
 "entitytype":"Manufacturing Management",
 "help":"There are two methods of making records unavailable in the system: One is to delete the record, the other is to de-activate the record. A de-activated record is not available for selection, but available for reports.\nThere are two reasons for de-activating and not deleting records:\n(1) The system requires the record for audit purposes.\n(2) The record is referenced by other records. E.g., you cannot delete a Business Partner, if there are invoices for this partner record existing. You de-activate the Business Partner and prevent that this record is used for future entries.",
 "included_tab_id":null,
 "infofactoryclass":null,
 "isactive":"Y",
 "isallowcopy":null,
 "isallownewattributeinstance":"N",
 "iscentrallymaintained":"Y",
 "isdisplayed":"Y",
 "isdisplayedgrid":"Y",
 "isencrypted":"N",
 "isfieldonly":"N",
 "isheading":"N",
 "ismandatory":null,
 "isquickentry":null,
 "isreadonly":"N",
 "issameline":"N",
 "numlines":1,
 "obscuretype":null,
 "seqno":60,
 "seqnogrid":null,
 "sortno":0,
 "updated":"2008-06-25T22:51:17",
 "updatedby":0,
 "xposition":2}, "children" : []},{"tablename" : "ad_field", "data" : {"ad_field_id":10297,
 "name":"Default",
 "ad_client_id":0,
 "ad_column_id":11915,
 "ad_fieldgroup_id":null,
 "ad_org_id":0,
 "ad_reference_id":null,
 "ad_reference_value_id":null,
 "ad_tab_id":653,
 "ad_val_rule_id":null,
 "columnspan":2,
 "created":"2004-04-17T11:14:57",
 "createdby":0,
 "defaultvalue":null,
 "description":"Default value",
 "displaylength":1,
 "displaylogic":null,
 "entitytype":"Manufacturing Management",
 "help":"The Default Checkbox indicates if this record will be used as a default value.",
 "included_tab_id":null,
 "infofactoryclass":null,
 "isactive":"Y",
 "isallowcopy":null,
 "isallownewattributeinstance":"N",
 "iscentrallymaintained":"Y",
 "isdisplayed":"Y",
 "isdisplayedgrid":"Y",
 "isencrypted":"N",
 "isfieldonly":"N",
 "isheading":"N",
 "ismandatory":null,
 "isquickentry":null,
 "isreadonly":"N",
 "issameline":"N",
 "numlines":1,
 "obscuretype":null,
 "seqno":70,
 "seqnogrid":null,
 "sortno":0,
 "updated":"2008-06-25T22:51:17",
 "updatedby":0,
 "xposition":2}, "children" : []},{"tablename" : "ad_field", "data" : {"ad_field_id":10298,
 "name":"Process Now",
 "ad_client_id":0,
 "ad_column_id":11916,
 "ad_fieldgroup_id":null,
 "ad_org_id":0,
 "ad_reference_id":null,
 "ad_reference_value_id":null,
 "ad_tab_id":653,
 "ad_val_rule_id":null,
 "columnspan":2,
 "created":"2004-04-17T11:14:57",
 "createdby":0,
 "defaultvalue":null,
 "description":null,
 "displaylength":23,
 "displaylogic":null,
 "entitytype":"Manufacturing Management",
 "help":null,
 "included_tab_id":null,
 "infofactoryclass":null,
 "isactive":"Y",
 "isallowcopy":null,
 "isallownewattributeinstance":"N",
 "iscentrallymaintained":"Y",
 "isdisplayed":"Y",
 "isdisplayedgrid":"Y",
 "isencrypted":"N",
 "isfieldonly":"N",
 "isheading":"N",
 "ismandatory":null,
 "isquickentry":null,
 "isreadonly":"N",
 "issameline":"N",
 "numlines":1,
 "obscuretype":null,
 "seqno":120,
 "seqnogrid":null,
 "sortno":0,
 "updated":"2008-06-25T22:51:18",
 "updatedby":0,
 "xposition":2}, "children" : []},{"tablename" : "ad_field", "data" : {"ad_field_id":10299,
 "name":"Organisation",
 "ad_client_id":0,
 "ad_column_id":11917,
 "ad_fieldgroup_id":null,
 "ad_org_id":0,
 "ad_reference_id":null,
 "ad_reference_value_id":null,
 "ad_tab_id":653,
 "ad_val_rule_id":null,
 "columnspan":2,
 "created":"2004-04-17T11:14:57",
 "createdby":0,
 "defaultvalue":null,
 "description":"Organisational entity within client",
 "displaylength":14,
 "displaylogic":null,
 "entitytype":"Manufacturing Management",
 "help":"An organisation is a unit of your client or legal entity - examples are store, department. You can share data between organisations.",
 "included_tab_id":null,
 "infofactoryclass":null,
 "isactive":"Y",
 "isallowcopy":null,
 "isallownewattributeinstance":"N",
 "iscentrallymaintained":"Y",
 "isdisplayed":"Y",
 "isdisplayedgrid":"Y",
 "isencrypted":"N",
 "isfieldonly":"N",
 "isheading":"N",
 "ismandatory":null,
 "isquickentry":null,
 "isreadonly":"N",
 "issameline":"Y",
 "numlines":1,
 "obscuretype":null,
 "seqno":20,
 "seqnogrid":null,
 "sortno":0,
 "updated":"2008-06-25T22:51:16",
 "updatedby":0,
 "xposition":4}, "children" : []},{"tablename" : "ad_field", "data" : {"ad_field_id":10300,
 "name":"Forecast",
 "ad_client_id":0,
 "ad_column_id":11918,
 "ad_fieldgroup_id":null,
 "ad_org_id":0,
 "ad_reference_id":null,
 "ad_reference_value_id":null,
 "ad_tab_id":653,
 "ad_val_rule_id":null,
 "columnspan":2,
 "created":"2004-04-17T11:14:57",
 "createdby":0,
 "defaultvalue":null,
 "description":"Material Forecast",
 "displaylength":14,
 "displaylogic":null,
 "entitytype":"Manufacturing Management",
 "help":"Material Forecast",
 "included_tab_id":654,
 "infofactoryclass":null,
 "isactive":"Y",
 "isallowcopy":null,
 "isallownewattributeinstance":"N",
 "iscentrallymaintained":"Y",
 "isdisplayed":"Y",
 "isdisplayedgrid":"Y",
 "isencrypted":"N",
 "isfieldonly":"N",
 "isheading":"N",
 "ismandatory":null,
 "isquickentry":null,
 "isreadonly":"N",
 "issameline":"N",
 "numlines":1,
 "obscuretype":null,
 "seqno":110,
 "seqnogrid":null,
 "sortno":0,
 "updated":"2008-07-09T22:05:06",
 "updatedby":0,
 "xposition":1}, "children" : []},{"tablename" : "ad_field", "data" : {"ad_field_id":56278,
 "name":"Price List",
 "ad_client_id":0,
 "ad_column_id":56112,
 "ad_fieldgroup_id":null,
 "ad_org_id":0,
 "ad_reference_id":null,
 "ad_reference_value_id":null,
 "ad_tab_id":653,
 "ad_val_rule_id":null,
 "columnspan":2,
 "created":"2008-06-25T23:01:48",
 "createdby":0,
 "defaultvalue":null,
 "description":"Unique identifier of a Price List",
 "displaylength":22,
 "displaylogic":null,
 "entitytype":"Manufacturing Management",
 "help":"Price Lists are used to determine the pricing, margin and cost of items purchased or sold.",
 "included_tab_id":null,
 "infofactoryclass":null,
 "isactive":"Y",
 "isallowcopy":null,
 "isallownewattributeinstance":"N",
 "iscentrallymaintained":"Y",
 "isdisplayed":"Y",
 "isdisplayedgrid":"Y",
 "isencrypted":"N",
 "isfieldonly":"N",
 "isheading":"N",
 "ismandatory":null,
 "isquickentry":null,
 "isreadonly":"N",
 "issameline":"Y",
 "numlines":1,
 "obscuretype":null,
 "seqno":80,
 "seqnogrid":null,
 "sortno":null,
 "updated":"2008-06-25T23:02:28",
 "updatedby":0,
 "xposition":4}, "children" : []}]},{"tablename" : "ad_tab", "data" : {"ad_tab_id":654,
 "name":"Line",
 "ad_window_id":328,
 "ad_client_id":0,
 "ad_column_id":null,
 "ad_columnsortorder_id":null,
 "ad_columnsortyesno_id":null,
 "ad_image_id":null,
 "ad_org_id":0,
 "ad_process_id":null,
 "ad_table_id":722,
 "commitwarning":null,
 "created":"2004-04-17T11:11:56",
 "createdby":0,
 "description":"Forecast Line",
 "displaylogic":null,
 "entitytype":"Manufacturing Management",
 "hastree":"N",
 "help":"Forecast of Product Qyantity by Period",
 "importfields":null,
 "included_tab_id":null,
 "isactive":"Y",
 "isadvancedtab":"N",
 "isinfotab":"N",
 "isinheritfiltertoreports":"N",
 "isinsertrecord":"Y",
 "isreadonly":"N",
 "issinglerow":"N",
 "issorttab":"N",
 "istranslationtab":"N",
 "orderbyclause":null,
 "parent_column_id":null,
 "processing":"N",
 "readonlylogic":null,
 "seqno":20,
 "tablevel":1,
 "updated":"2008-06-25T22:51:29",
 "updatedby":0,
 "whereclause":null}, "children" : [{"tablename" : "ad_field", "data" : {"ad_field_id":10301,
 "name":"Product",
 "ad_client_id":0,
 "ad_column_id":11941,
 "ad_fieldgroup_id":null,
 "ad_org_id":0,
 "ad_reference_id":null,
 "ad_reference_value_id":null,
 "ad_tab_id":654,
 "ad_val_rule_id":null,
 "columnspan":2,
 "created":"2004-04-17T11:14:57",
 "createdby":0,
 "defaultvalue":null,
 "description":"Product, Service, Item",
 "displaylength":26,
 "displaylogic":null,
 "entitytype":"Manufacturing Management",
 "help":"Identifies an item which is either purchased or sold in this organization.",
 "included_tab_id":null,
 "infofactoryclass":null,
 "isactive":"Y",
 "isallowcopy":null,
 "isallownewattributeinstance":"N",
 "iscentrallymaintained":"Y",
 "isdisplayed":"Y",
 "isdisplayedgrid":"Y",
 "isencrypted":"N",
 "isfieldonly":"N",
 "isheading":"N",
 "ismandatory":null,
 "isquickentry":null,
 "isreadonly":"N",
 "issameline":"N",
 "numlines":1,
 "obscuretype":null,
 "seqno":30,
 "seqnogrid":null,
 "sortno":0,
 "updated":"2008-06-25T22:51:32",
 "updatedby":0,
 "xposition":1}, "children" : []},{"tablename" : "ad_field", "data" : {"ad_field_id":10302,
 "name":"Forecast Line",
 "ad_client_id":0,
 "ad_column_id":11942,
 "ad_fieldgroup_id":null,
 "ad_org_id":0,
 "ad_reference_id":null,
 "ad_reference_value_id":null,
 "ad_tab_id":654,
 "ad_val_rule_id":null,
 "columnspan":2,
 "created":"2004-04-17T11:14:57",
 "createdby":0,
 "defaultvalue":null,
 "description":"Forecast Line",
 "displaylength":14,
 "displaylogic":null,
 "entitytype":"Manufacturing Management",
 "help":"Forecast of Product Qyantity by Period",
 "included_tab_id":null,
 "infofactoryclass":null,
 "isactive":"Y",
 "isallowcopy":null,
 "isallownewattributeinstance":"N",
 "iscentrallymaintained":"Y",
 "isdisplayed":"N",
 "isdisplayedgrid":"Y",
 "isencrypted":"N",
 "isfieldonly":"N",
 "isheading":"N",
 "ismandatory":null,
 "isquickentry":null,
 "isreadonly":"N",
 "issameline":"N",
 "numlines":1,
 "obscuretype":null,
 "seqno":0,
 "seqnogrid":null,
 "sortno":0,
 "updated":"2008-06-25T22:51:30",
 "updatedby":0,
 "xposition":1}, "children" : []},{"tablename" : "ad_field", "data" : {"ad_field_id":10303,
 "name":"Period",
 "ad_client_id":0,
 "ad_column_id":11934,
 "ad_fieldgroup_id":null,
 "ad_org_id":0,
 "ad_reference_id":null,
 "ad_reference_value_id":null,
 "ad_tab_id":654,
 "ad_val_rule_id":null,
 "columnspan":2,
 "created":"2004-04-17T11:14:57",
 "createdby":0,
 "defaultvalue":null,
 "description":"Period of the Calendar",
 "displaylength":14,
 "displaylogic":null,
 "entitytype":"Manufacturing Management",
 "help":"The Period indicates an exclusive range of dates for a calendar.",
 "included_tab_id":null,
 "infofactoryclass":null,
 "isactive":"Y",
 "isallowcopy":null,
 "isallownewattributeinstance":"N",
 "iscentrallymaintained":"Y",
 "isdisplayed":"Y",
 "isdisplayedgrid":"Y",
 "isencrypted":"N",
 "isfieldonly":"N",
 "isheading":"N",
 "ismandatory":null,
 "isquickentry":null,
 "isreadonly":"N",
 "issameline":"N",
 "numlines":1,
 "obscuretype":null,
 "seqno":60,
 "seqnogrid":null,
 "sortno":1,
 "updated":"2008-06-25T22:51:31",
 "updatedby":0,
 "xposition":1}, "children" : []},{"tablename" : "ad_field", "data" : {"ad_field_id":10304,
 "name":"Client",
 "ad_client_id":0,
 "ad_column_id":11935,
 "ad_fieldgroup_id":null,
 "ad_org_id":0,
 "ad_reference_id":null,
 "ad_reference_value_id":null,
 "ad_tab_id":654,
 "ad_val_rule_id":null,
 "columnspan":2,
 "created":"2004-04-17T11:14:57",
 "createdby":0,
 "defaultvalue":null,
 "description":"Client/Tenant for this installation.",
 "displaylength":14,
 "displaylogic":null,
 "entitytype":"Manufacturing Management",
 "help":"A Client is a company or a legal entity. You cannot share data between Clients. Tenant is a synonym for Client.",
 "included_tab_id":null,
 "infofactoryclass":null,
 "isactive":"Y",
 "isallowcopy":null,
 "isallownewattributeinstance":"N",
 "iscentrallymaintained":"Y",
 "isdisplayed":"N",
 "isdisplayedgrid":"Y",
 "isencrypted":"N",
 "isfieldonly":"N",
 "isheading":"N",
 "ismandatory":null,
 "isquickentry":null,
 "isreadonly":"Y",
 "issameline":"N",
 "numlines":1,
 "obscuretype":null,
 "seqno":0,
 "seqnogrid":null,
 "sortno":0,
 "updated":"2008-06-25T22:51:30",
 "updatedby":0,
 "xposition":1}, "children" : []},{"tablename" : "ad_field", "data" : {"ad_field_id":10305,
 "name":"Organisation",
 "ad_client_id":0,
 "ad_column_id":11937,
 "ad_fieldgroup_id":null,
 "ad_org_id":0,
 "ad_reference_id":null,
 "ad_reference_value_id":null,
 "ad_tab_id":654,
 "ad_val_rule_id":null,
 "columnspan":2,
 "created":"2004-04-17T11:14:57",
 "createdby":0,
 "defaultvalue":null,
 "description":"Organisational entity within client",
 "displaylength":14,
 "displaylogic":null,
 "entitytype":"Manufacturing Management",
 "help":"An organisation is a unit of your client or legal entity - examples are store, department. You can share data between organisations.",
 "included_tab_id":null,
 "infofactoryclass":null,
 "isactive":"Y",
 "isallowcopy":null,
 "isallownewattributeinstance":"N",
 "iscentrallymaintained":"Y",
 "isdisplayed":"N",
 "isdisplayedgrid":"Y",
 "isencrypted":"N",
 "isfieldonly":"N",
 "isheading":"N",
 "ismandatory":null,
 "isquickentry":null,
 "isreadonly":"Y",
 "issameline":"Y",
 "numlines":1,
 "obscuretype":null,
 "seqno":0,
 "seqnogrid":null,
 "sortno":0,
 "updated":"2008-06-25T22:51:30",
 "updatedby":0,
 "xposition":4}, "children" : []},{"tablename" : "ad_field", "data" : {"ad_field_id":10306,
 "name":"Quantity",
 "ad_client_id":0,
 "ad_column_id":11938,
 "ad_fieldgroup_id":null,
 "ad_org_id":0,
 "ad_reference_id":null,
 "ad_reference_value_id":null,
 "ad_tab_id":654,
 "ad_val_rule_id":null,
 "columnspan":2,
 "created":"2004-04-17T11:14:57",
 "createdby":0,
 "defaultvalue":null,
 "description":"Quantity",
 "displaylength":26,
 "displaylogic":null,
 "entitytype":"Manufacturing Management",
 "help":"The Quantity indicates the number of a specific product or item for this document.",
 "included_tab_id":null,
 "infofactoryclass":null,
 "isactive":"Y",
 "isallowcopy":null,
 "isallownewattributeinstance":"N",
 "iscentrallymaintained":"Y",
 "isdisplayed":"Y",
 "isdisplayedgrid":"Y",
 "isencrypted":"N",
 "isfieldonly":"N",
 "isheading":"N",
 "ismandatory":null,
 "isquickentry":null,
 "isreadonly":"N",
 "issameline":"N",
 "numlines":1,
 "obscuretype":null,
 "seqno":40,
 "seqnogrid":null,
 "sortno":0,
 "updated":"2008-06-25T22:51:32",
 "updatedby":0,
 "xposition":1}, "children" : []},{"tablename" : "ad_field", "data" : {"ad_field_id":10307,
 "name":"Forecast",
 "ad_client_id":0,
 "ad_column_id":11939,
 "ad_fieldgroup_id":null,
 "ad_org_id":0,
 "ad_reference_id":null,
 "ad_reference_value_id":null,
 "ad_tab_id":654,
 "ad_val_rule_id":null,
 "columnspan":2,
 "created":"2004-04-17T11:14:57",
 "createdby":0,
 "defaultvalue":null,
 "description":"Material Forecast",
 "displaylength":14,
 "displaylogic":null,
 "entitytype":"Manufacturing Management",
 "help":"Material Forecast",
 "included_tab_id":null,
 "infofactoryclass":null,
 "isactive":"Y",
 "isallowcopy":null,
 "isallownewattributeinstance":"N",
 "iscentrallymaintained":"Y",
 "isdisplayed":"N",
 "isdisplayedgrid":"Y",
 "isencrypted":"N",
 "isfieldonly":"N",
 "isheading":"N",
 "ismandatory":null,
 "isquickentry":null,
 "isreadonly":"Y",
 "issameline":"N",
 "numlines":1,
 "obscuretype":null,
 "seqno":0,
 "seqnogrid":null,
 "sortno":0,
 "updated":"2008-06-25T22:51:31",
 "updatedby":0,
 "xposition":1}, "children" : []},{"tablename" : "ad_field", "data" : {"ad_field_id":10308,
 "name":"Active",
 "ad_client_id":0,
 "ad_column_id":11940,
 "ad_fieldgroup_id":null,
 "ad_org_id":0,
 "ad_reference_id":null,
 "ad_reference_value_id":null,
 "ad_tab_id":654,
 "ad_val_rule_id":null,
 "columnspan":2,
 "created":"2004-04-17T11:14:57",
 "createdby":0,
 "defaultvalue":null,
 "description":"The record is active in the system",
 "displaylength":1,
 "displaylogic":null,
 "entitytype":"Manufacturing Management",
 "help":"There are two methods of making records unavailable in the system: One is to delete the record, the other is to de-activate the record. A de-activated record is not available for selection, but available for reports.\nThere are two reasons for de-activating and not deleting records:\n(1) The system requires the record for audit purposes.\n(2) The record is referenced by other records. E.g., you cannot delete a Business Partner, if there are invoices for this partner record existing. You de-activate the Business Partner and prevent that this record is used for future entries.",
 "included_tab_id":null,
 "infofactoryclass":null,
 "isactive":"Y",
 "isallowcopy":null,
 "isallownewattributeinstance":"N",
 "iscentrallymaintained":"Y",
 "isdisplayed":"Y",
 "isdisplayedgrid":"Y",
 "isencrypted":"N",
 "isfieldonly":"N",
 "isheading":"N",
 "ismandatory":null,
 "isquickentry":null,
 "isreadonly":"N",
 "issameline":"N",
 "numlines":1,
 "obscuretype":null,
 "seqno":80,
 "seqnogrid":null,
 "sortno":0,
 "updated":"2008-06-25T22:51:31",
 "updatedby":0,
 "xposition":2}, "children" : []},{"tablename" : "ad_field", "data" : {"ad_field_id":10310,
 "name":"Calculated Quantity",
 "ad_client_id":0,
 "ad_column_id":11959,
 "ad_fieldgroup_id":null,
 "ad_org_id":0,
 "ad_reference_id":null,
 "ad_reference_value_id":null,
 "ad_tab_id":654,
 "ad_val_rule_id":null,
 "columnspan":2,
 "created":"2004-04-17T12:04:36",
 "createdby":0,
 "defaultvalue":null,
 "description":"Calculated Quantity",
 "displaylength":26,
 "displaylogic":null,
 "entitytype":"Manufacturing Management",
 "help":null,
 "included_tab_id":null,
 "infofactoryclass":null,
 "isactive":"Y",
 "isallowcopy":null,
 "isallownewattributeinstance":"N",
 "iscentrallymaintained":"Y",
 "isdisplayed":"Y",
 "isdisplayedgrid":"Y",
 "isencrypted":"N",
 "isfieldonly":"N",
 "isheading":"N",
 "ismandatory":null,
 "isquickentry":null,
 "isreadonly":"Y",
 "issameline":"Y",
 "numlines":1,
 "obscuretype":null,
 "seqno":50,
 "seqnogrid":null,
 "sortno":0,
 "updated":"2008-06-25T22:51:33",
 "updatedby":0,
 "xposition":4}, "children" : []},{"tablename" : "ad_field", "data" : {"ad_field_id":53638,
 "name":"Warehouse",
 "ad_client_id":0,
 "ad_column_id":53411,
 "ad_fieldgroup_id":null,
 "ad_org_id":0,
 "ad_reference_id":null,
 "ad_reference_value_id":null,
 "ad_tab_id":654,
 "ad_val_rule_id":null,
 "columnspan":2,
 "created":"2007-12-17T04:45:15",
 "createdby":0,
 "defaultvalue":null,
 "description":"Storage Warehouse and Service Point",
 "displaylength":22,
 "displaylogic":null,
 "entitytype":"Manufacturing Management",
 "help":"The Warehouse identifies a unique Warehouse where products are stored or Services are provided.",
 "included_tab_id":null,
 "infofactoryclass":null,
 "isactive":"Y",
 "isallowcopy":null,
 "isallownewattributeinstance":"N",
 "iscentrallymaintained":"Y",
 "isdisplayed":"Y",
 "isdisplayedgrid":"Y",
 "isencrypted":"N",
 "isfieldonly":"N",
 "isheading":"N",
 "ismandatory":null,
 "isquickentry":null,
 "isreadonly":"N",
 "issameline":"N",
 "numlines":1,
 "obscuretype":null,
 "seqno":20,
 "seqnogrid":null,
 "sortno":0,
 "updated":"2008-06-25T22:51:32",
 "updatedby":0,
 "xposition":1}, "children" : []},{"tablename" : "ad_field", "data" : {"ad_field_id":53639,
 "name":"Date Promised",
 "ad_client_id":0,
 "ad_column_id":53412,
 "ad_fieldgroup_id":null,
 "ad_org_id":0,
 "ad_reference_id":null,
 "ad_reference_value_id":null,
 "ad_tab_id":654,
 "ad_val_rule_id":null,
 "columnspan":2,
 "created":"2007-12-17T04:45:16",
 "createdby":0,
 "defaultvalue":null,
 "description":"Date Order was promised",
 "displaylength":7,
 "displaylogic":null,
 "entitytype":"Manufacturing Management",
 "help":"The Date Promised indicates the date, if any, that an Order was promised for.",
 "included_tab_id":null,
 "infofactoryclass":null,
 "isactive":"Y",
 "isallowcopy":null,
 "isallownewattributeinstance":"N",
 "iscentrallymaintained":"Y",
 "isdisplayed":"Y",
 "isdisplayedgrid":"Y",
 "isencrypted":"N",
 "isfieldonly":"N",
 "isheading":"N",
 "ismandatory":null,
 "isquickentry":null,
 "isreadonly":"N",
 "issameline":"Y",
 "numlines":1,
 "obscuretype":null,
 "seqno":70,
 "seqnogrid":null,
 "sortno":0,
 "updated":"2008-06-25T22:51:32",
 "updatedby":0,
 "xposition":4}, "children" : []},{"tablename" : "ad_field", "data" : {"ad_field_id":56277,
 "name":"Sales Representative",
 "ad_client_id":0,
 "ad_column_id":56113,
 "ad_fieldgroup_id":null,
 "ad_org_id":0,
 "ad_reference_id":null,
 "ad_reference_value_id":null,
 "ad_tab_id":654,
 "ad_val_rule_id":null,
 "columnspan":2,
 "created":"2008-06-25T22:59:05",
 "createdby":0,
 "defaultvalue":null,
 "description":"Sales Representative or Company Agent",
 "displaylength":22,
 "displaylogic":null,
 "entitytype":"Manufacturing Management",
 "help":"The Sales Representative indicates the Sales Rep for this Region.  Any Sales Rep must be a valid internal user.",
 "included_tab_id":null,
 "infofactoryclass":null,
 "isactive":"Y",
 "isallowcopy":null,
 "isallownewattributeinstance":"N",
 "iscentrallymaintained":"Y",
 "isdisplayed":"Y",
 "isdisplayedgrid":"Y",
 "isencrypted":"N",
 "isfieldonly":"N",
 "isheading":"N",
 "ismandatory":null,
 "isquickentry":null,
 "isreadonly":"N",
 "issameline":"Y",
 "numlines":1,
 "obscuretype":null,
 "seqno":10,
 "seqnogrid":null,
 "sortno":null,
 "updated":"2008-06-25T23:01:27",
 "updatedby":0,
 "xposition":4}, "children" : []}]}]},
 {"tablename" : "ad_window", "data" : {"ad_window_id":333,
 "name":"Move Confirmation",
 "ad_client_id":0,
 "ad_color_id":null,
 "ad_image_id":null,
 "ad_org_id":0,
 "created":"2004-06-17T11:29:43",
 "createdby":0,
 "description":"Confirm Inventory Moves",
 "entitytype":"Manufacturing Management",
 "help":"The document is automatically created when the document type of the movement indicates In Transit.. If there is a difference quantity, a Physical Inventory is created for the source (from) warehouse. If there is a scrapped quantity, a Physical Inventory is created for the target (to) warehouse.",
 "isactive":"Y",
 "isbetafunctionality":"Y",
 "isdefault":"N",
 "issotrx":"N",
 "processing":"N",
 "updated":"2011-11-02T16:35:05",
 "updatedby":0,
 "windowtype":"T",
 "winheight":0,
 "winwidth":0}, "children" : [{"tablename" : "ad_tab", "data" : {"ad_tab_id":666,
 "name":"Confirmation",
 "ad_window_id":333,
 "ad_client_id":0,
 "ad_column_id":null,
 "ad_columnsortorder_id":null,
 "ad_columnsortyesno_id":null,
 "ad_image_id":null,
 "ad_org_id":0,
 "ad_process_id":null,
 "ad_table_id":738,
 "commitwarning":null,
 "created":"2004-06-17T11:30:43",
 "createdby":0,
 "description":"Confirm Inventory Moves",
 "displaylogic":null,
 "entitytype":"Manufacturing Management",
 "hastree":"N",
 "help":"The document is automatically created when the document type of the movement indicates In Transit.",
 "importfields":"N",
 "included_tab_id":null,
 "isactive":"Y",
 "isadvancedtab":"N",
 "isinfotab":"N",
 "isinheritfiltertoreports":"N",
 "isinsertrecord":"Y",
 "isreadonly":"N",
 "issinglerow":"N",
 "issorttab":"N",
 "istranslationtab":"N",
 "orderbyclause":null,
 "parent_column_id":null,
 "processing":"N",
 "readonlylogic":null,
 "seqno":10,
 "tablevel":0,
 "updated":"2000-01-02T00:00:00",
 "updatedby":0,
 "whereclause":null}, "children" : [{"tablename" : "ad_field", "data" : {"ad_field_id":10532,
 "name":"Client",
 "ad_client_id":0,
 "ad_column_id":12436,
 "ad_fieldgroup_id":null,
 "ad_org_id":0,
 "ad_reference_id":null,
 "ad_reference_value_id":null,
 "ad_tab_id":666,
 "ad_val_rule_id":null,
 "columnspan":2,
 "created":"2004-06-17T12:14:46",
 "createdby":0,
 "defaultvalue":null,
 "description":"Client/Tenant for this installation.",
 "displaylength":14,
 "displaylogic":null,
 "entitytype":"Manufacturing Management",
 "help":"A Client is a company or a legal entity. You cannot share data between Clients. Tenant is a synonym for Client.",
 "included_tab_id":null,
 "infofactoryclass":null,
 "isactive":"Y",
 "isallowcopy":null,
 "isallownewattributeinstance":"N",
 "iscentrallymaintained":"Y",
 "isdisplayed":"Y",
 "isdisplayedgrid":"Y",
 "isencrypted":"N",
 "isfieldonly":"N",
 "isheading":"N",
 "ismandatory":null,
 "isquickentry":null,
 "isreadonly":"Y",
 "issameline":"N",
 "numlines":1,
 "obscuretype":null,
 "seqno":10,
 "seqnogrid":null,
 "sortno":null,
 "updated":"2000-01-02T00:00:00",
 "updatedby":0,
 "xposition":1}, "children" : []},{"tablename" : "ad_field", "data" : {"ad_field_id":10533,
 "name":"Document Status",
 "ad_client_id":0,
 "ad_column_id":12437,
 "ad_fieldgroup_id":null,
 "ad_org_id":0,
 "ad_reference_id":null,
 "ad_reference_value_id":null,
 "ad_tab_id":666,
 "ad_val_rule_id":null,
 "columnspan":2,
 "created":"2004-06-17T12:14:46",
 "createdby":0,
 "defaultvalue":null,
 "description":"The current status of the document",
 "displaylength":14,
 "displaylogic":null,
 "entitytype":"Manufacturing Management",
 "help":"The Document Status indicates the status of a document at this time.  If you want to change the document status, use the Document Action field",
 "included_tab_id":null,
 "infofactoryclass":null,
 "isactive":"Y",
 "isallowcopy":"N",
 "isallownewattributeinstance":"N",
 "iscentrallymaintained":"Y",
 "isdisplayed":"Y",
 "isdisplayedgrid":"Y",
 "isencrypted":"N",
 "isfieldonly":"N",
 "isheading":"N",
 "ismandatory":null,
 "isquickentry":null,
 "isreadonly":"Y",
 "issameline":"N",
 "numlines":1,
 "obscuretype":null,
 "seqno":80,
 "seqnogrid":null,
 "sortno":null,
 "updated":"2000-01-02T00:00:00",
 "updatedby":0,
 "xposition":1}, "children" : []},{"tablename" : "ad_field", "data" : {"ad_field_id":10534,
 "name":"Move Confirm",
 "ad_client_id":0,
 "ad_column_id":12438,
 "ad_fieldgroup_id":null,
 "ad_org_id":0,
 "ad_reference_id":null,
 "ad_reference_value_id":null,
 "ad_tab_id":666,
 "ad_val_rule_id":null,
 "columnspan":2,
 "created":"2004-06-17T12:14:46",
 "createdby":0,
 "defaultvalue":null,
 "description":"Inventory Move Confirmation",
 "displaylength":14,
 "displaylogic":null,
 "entitytype":"Manufacturing Management",
 "help":"The document is automatically created when the document type of the movement indicates In Transit.",
 "included_tab_id":null,
 "infofactoryclass":null,
 "isactive":"Y",
 "isallowcopy":null,
 "isallownewattributeinstance":"N",
 "iscentrallymaintained":"Y",
 "isdisplayed":"N",
 "isdisplayedgrid":"Y",
 "isencrypted":"N",
 "isfieldonly":"N",
 "isheading":"N",
 "ismandatory":null,
 "isquickentry":null,
 "isreadonly":"N",
 "issameline":"N",
 "numlines":1,
 "obscuretype":null,
 "seqno":0,
 "seqnogrid":null,
 "sortno":null,
 "updated":"2000-01-02T00:00:00",
 "updatedby":0,
 "xposition":1}, "children" : []},{"tablename" : "ad_field", "data" : {"ad_field_id":10535,
 "name":"Phys.Inventory",
 "ad_client_id":0,
 "ad_column_id":12439,
 "ad_fieldgroup_id":null,
 "ad_org_id":0,
 "ad_reference_id":null,
 "ad_reference_value_id":null,
 "ad_tab_id":666,
 "ad_val_rule_id":null,
 "columnspan":2,
 "created":"2004-06-17T12:14:46",
 "createdby":0,
 "defaultvalue":null,
 "description":"Parameters for a Physical Inventory",
 "displaylength":26,
 "displaylogic":"@Processed@=Y",
 "entitytype":"Manufacturing Management",
 "help":"The Physical Inventory indicates a unique parameters for a physical inventory.",
 "included_tab_id":null,
 "infofactoryclass":null,
 "isactive":"Y",
 "isallowcopy":null,
 "isallownewattributeinstance":"N",
 "iscentrallymaintained":"Y",
 "isdisplayed":"Y",
 "isdisplayedgrid":"Y",
 "isencrypted":"N",
 "isfieldonly":"N",
 "isheading":"N",
 "ismandatory":null,
 "isquickentry":null,
 "isreadonly":"Y",
 "issameline":"N",
 "numlines":1,
 "obscuretype":null,
 "seqno":100,
 "seqnogrid":null,
 "sortno":null,
 "updated":"2000-01-02T00:00:00",
 "updatedby":0,
 "xposition":1}, "children" : []},{"tablename" : "ad_field", "data" : {"ad_field_id":10536,
 "name":"Inventory Move",
 "ad_client_id":0,
 "ad_column_id":12440,
 "ad_fieldgroup_id":null,
 "ad_org_id":0,
 "ad_reference_id":null,
 "ad_reference_value_id":null,
 "ad_tab_id":666,
 "ad_val_rule_id":null,
 "columnspan":2,
 "created":"2004-06-17T12:14:46",
 "createdby":0,
 "defaultvalue":null,
 "description":"Movement of Inventory",
 "displaylength":26,
 "displaylogic":null,
 "entitytype":"Manufacturing Management",
 "help":"The Inventory Movement uniquely identifies a group of movement lines.",
 "included_tab_id":null,
 "infofactoryclass":null,
 "isactive":"Y",
 "isallowcopy":null,
 "isallownewattributeinstance":"N",
 "iscentrallymaintained":"Y",
 "isdisplayed":"Y",
 "isdisplayedgrid":"Y",
 "isencrypted":"N",
 "isfieldonly":"N",
 "isheading":"N",
 "ismandatory":null,
 "isquickentry":null,
 "isreadonly":"Y",
 "issameline":"N",
 "numlines":1,
 "obscuretype":null,
 "seqno":40,
 "seqnogrid":null,
 "sortno":null,
 "updated":"2000-01-02T00:00:00",
 "updatedby":0,
 "xposition":1}, "children" : []},{"tablename" : "ad_field", "data" : {"ad_field_id":10537,
 "name":"Active",
 "ad_client_id":0,
 "ad_column_id":12441,
 "ad_fieldgroup_id":null,
 "ad_org_id":0,
 "ad_reference_id":null,
 "ad_reference_value_id":null,
 "ad_tab_id":666,
 "ad_val_rule_id":null,
 "columnspan":2,
 "created":"2004-06-17T12:14:46",
 "createdby":0,
 "defaultvalue":null,
 "description":"The record is active in the system",
 "displaylength":1,
 "displaylogic":null,
 "entitytype":"Manufacturing Management",
 "help":"There are two methods of making records unavailable in the system: One is to delete the record, the other is to de-activate the record. A de-activated record is not available for selection, but available for reports.\nThere are two reasons for de-activating and not deleting records:\n(1) The system requires the record for audit purposes.\n(2) The record is referenced by other records. E.g., you cannot delete a Business Partner, if there are invoices for this partner record existing. You de-activate the Business Partner and prevent that this record is used for future entries.",
 "included_tab_id":null,
 "infofactoryclass":null,
 "isactive":"Y",
 "isallowcopy":null,
 "isallownewattributeinstance":"N",
 "iscentrallymaintained":"Y",
 "isdisplayed":"N",
 "isdisplayedgrid":"Y",
 "isencrypted":"N",
 "isfieldonly":"N",
 "isheading":"N",
 "ismandatory":null,
 "isquickentry":null,
 "isreadonly":"N",
 "issameline":"N",
 "numlines":1,
 "obscuretype":null,
 "seqno":0,
 "seqnogrid":null,
 "sortno":null,
 "updated":"2000-01-02T00:00:00",
 "updatedby":0,
 "xposition":2}, "children" : []},{"tablename" : "ad_field", "data" : {"ad_field_id":10538,
 "name":"Process Now",
 "ad_client_id":0,
 "ad_column_id":12442,
 "ad_fieldgroup_id":null,
 "ad_org_id":0,
 "ad_reference_id":null,
 "ad_reference_value_id":null,
 "ad_tab_id":666,
 "ad_val_rule_id":null,
 "columnspan":2,
 "created":"2004-06-17T12:14:46",
 "createdby":0,
 "defaultvalue":null,
 "description":null,
 "displaylength":1,
 "displaylogic":null,
 "entitytype":"Manufacturing Management",
 "help":null,
 "included_tab_id":null,
 "infofactoryclass":null,
 "isactive":"Y",
 "isallowcopy":null,
 "isallownewattributeinstance":"N",
 "iscentrallymaintained":"Y",
 "isdisplayed":"N",
 "isdisplayedgrid":"Y",
 "isencrypted":"N",
 "isfieldonly":"N",
 "isheading":"N",
 "ismandatory":null,
 "isquickentry":null,
 "isreadonly":"N",
 "issameline":"N",
 "numlines":1,
 "obscuretype":null,
 "seqno":0,
 "seqnogrid":null,
 "sortno":null,
 "updated":"2000-01-02T00:00:00",
 "updatedby":0,
 "xposition":2}, "children" : []},{"tablename" : "ad_field", "data" : {"ad_field_id":10539,
 "name":"Approval Amount",
 "ad_client_id":0,
 "ad_column_id":12445,
 "ad_fieldgroup_id":null,
 "ad_org_id":0,
 "ad_reference_id":null,
 "ad_reference_value_id":null,
 "ad_tab_id":666,
 "ad_val_rule_id":null,
 "columnspan":2,
 "created":"2004-06-17T12:14:46",
 "createdby":0,
 "defaultvalue":null,
 "description":"Document Approval Amount",
 "displaylength":26,
 "displaylogic":null,
 "entitytype":"Manufacturing Management",
 "help":"Approval Amount for Workflow",
 "included_tab_id":null,
 "infofactoryclass":null,
 "isactive":"Y",
 "isallowcopy":null,
 "isallownewattributeinstance":"N",
 "iscentrallymaintained":"Y",
 "isdisplayed":"Y",
 "isdisplayedgrid":"Y",
 "isencrypted":"N",
 "isfieldonly":"N",
 "isheading":"N",
 "ismandatory":null,
 "isquickentry":null,
 "isreadonly":"Y",
 "issameline":"Y",
 "numlines":1,
 "obscuretype":null,
 "seqno":70,
 "seqnogrid":null,
 "sortno":null,
 "updated":"2000-01-02T00:00:00",
 "updatedby":0,
 "xposition":4}, "children" : []},{"tablename" : "ad_field", "data" : {"ad_field_id":10540,
 "name":"Description",
 "ad_client_id":0,
 "ad_column_id":12446,
 "ad_fieldgroup_id":null,
 "ad_org_id":0,
 "ad_reference_id":null,
 "ad_reference_value_id":null,
 "ad_tab_id":666,
 "ad_val_rule_id":null,
 "columnspan":5,
 "created":"2004-06-17T12:14:46",
 "createdby":0,
 "defaultvalue":null,
 "description":"Optional short description of the record",
 "displaylength":60,
 "displaylogic":null,
 "entitytype":"Manufacturing Management",
 "help":"A description is limited to 255 characters.",
 "included_tab_id":null,
 "infofactoryclass":null,
 "isactive":"Y",
 "isallowcopy":null,
 "isallownewattributeinstance":"N",
 "iscentrallymaintained":"Y",
 "isdisplayed":"Y",
 "isdisplayedgrid":"Y",
 "isencrypted":"N",
 "isfieldonly":"N",
 "isheading":"N",
 "ismandatory":null,
 "isquickentry":null,
 "isreadonly":"N",
 "issameline":"N",
 "numlines":1,
 "obscuretype":null,
 "seqno":50,
 "seqnogrid":null,
 "sortno":null,
 "updated":"2000-01-02T00:00:00",
 "updatedby":0,
 "xposition":1}, "children" : []},{"tablename" : "ad_field", "data" : {"ad_field_id":10541,
 "name":"Processed",
 "ad_client_id":0,
 "ad_column_id":12448,
 "ad_fieldgroup_id":null,
 "ad_org_id":0,
 "ad_reference_id":null,
 "ad_reference_value_id":null,
 "ad_tab_id":666,
 "ad_val_rule_id":null,
 "columnspan":2,
 "created":"2004-06-17T12:14:46",
 "createdby":0,
 "defaultvalue":null,
 "description":"The document has been processed",
 "displaylength":1,
 "displaylogic":null,
 "entitytype":"Manufacturing Management",
 "help":"The Processed checkbox indicates that a document has been processed.",
 "included_tab_id":null,
 "infofactoryclass":null,
 "isactive":"Y",
 "isallowcopy":"N",
 "isallownewattributeinstance":"N",
 "iscentrallymaintained":"Y",
 "isdisplayed":"N",
 "isdisplayedgrid":"Y",
 "isencrypted":"N",
 "isfieldonly":"N",
 "isheading":"N",
 "ismandatory":null,
 "isquickentry":null,
 "isreadonly":"N",
 "issameline":"N",
 "numlines":1,
 "obscuretype":null,
 "seqno":0,
 "seqnogrid":null,
 "sortno":null,
 "updated":"2000-01-02T00:00:00",
 "updatedby":0,
 "xposition":2}, "children" : []},{"tablename" : "ad_field", "data" : {"ad_field_id":10542,
 "name":"Process Confirmation",
 "ad_client_id":0,
 "ad_column_id":12449,
 "ad_fieldgroup_id":null,
 "ad_org_id":0,
 "ad_reference_id":null,
 "ad_reference_value_id":null,
 "ad_tab_id":666,
 "ad_val_rule_id":null,
 "columnspan":2,
 "created":"2004-06-17T12:14:46",
 "createdby":0,
 "defaultvalue":null,
 "description":"Process Inventory Movement Confirmation",
 "displaylength":23,
 "displaylogic":null,
 "entitytype":"Manufacturing Management",
 "help":null,
 "included_tab_id":null,
 "infofactoryclass":null,
 "isactive":"Y",
 "isallowcopy":"N",
 "isallownewattributeinstance":"N",
 "iscentrallymaintained":"Y",
 "isdisplayed":"Y",
 "isdisplayedgrid":"Y",
 "isencrypted":"N",
 "isfieldonly":"N",
 "isheading":"N",
 "ismandatory":null,
 "isquickentry":null,
 "isreadonly":"N",
 "issameline":"Y",
 "numlines":1,
 "obscuretype":null,
 "seqno":90,
 "seqnogrid":null,
 "sortno":null,
 "updated":"2000-01-02T00:00:00",
 "updatedby":0,
 "xposition":5}, "children" : []},{"tablename" : "ad_field", "data" : {"ad_field_id":10543,
 "name":"Approved",
 "ad_client_id":0,
 "ad_column_id":12450,
 "ad_fieldgroup_id":101,
 "ad_org_id":0,
 "ad_reference_id":null,
 "ad_reference_value_id":null,
 "ad_tab_id":666,
 "ad_val_rule_id":null,
 "columnspan":2,
 "created":"2004-06-17T12:14:46",
 "createdby":0,
 "defaultvalue":null,
 "description":"Indicates if this document requires approval",
 "displaylength":1,
 "displaylogic":null,
 "entitytype":"Manufacturing Management",
 "help":"The Approved checkbox indicates if this document requires approval before it can be processed.",
 "included_tab_id":null,
 "infofactoryclass":null,
 "isactive":"Y",
 "isallowcopy":"N",
 "isallownewattributeinstance":"N",
 "iscentrallymaintained":"Y",
 "isdisplayed":"Y",
 "isdisplayedgrid":"Y",
 "isencrypted":"N",
 "isfieldonly":"N",
 "isheading":"N",
 "ismandatory":null,
 "isquickentry":null,
 "isreadonly":"Y",
 "issameline":"N",
 "numlines":1,
 "obscuretype":null,
 "seqno":60,
 "seqnogrid":null,
 "sortno":null,
 "updated":"2000-01-02T00:00:00",
 "updatedby":0,
 "xposition":2}, "children" : []},{"tablename" : "ad_field", "data" : {"ad_field_id":10544,
 "name":"Organisation",
 "ad_client_id":0,
 "ad_column_id":12451,
 "ad_fieldgroup_id":null,
 "ad_org_id":0,
 "ad_reference_id":null,
 "ad_reference_value_id":null,
 "ad_tab_id":666,
 "ad_val_rule_id":null,
 "columnspan":2,
 "created":"2004-06-17T12:14:46",
 "createdby":0,
 "defaultvalue":null,
 "description":"Organisational entity within client",
 "displaylength":14,
 "displaylogic":null,
 "entitytype":"Manufacturing Management",
 "help":"An organisation is a unit of your client or legal entity - examples are store, department. You can share data between organisations.",
 "included_tab_id":null,
 "infofactoryclass":null,
 "isactive":"Y",
 "isallowcopy":null,
 "isallownewattributeinstance":"N",
 "iscentrallymaintained":"Y",
 "isdisplayed":"Y",
 "isdisplayedgrid":"Y",
 "isencrypted":"N",
 "isfieldonly":"N",
 "isheading":"N",
 "ismandatory":null,
 "isquickentry":null,
 "isreadonly":"Y",
 "issameline":"Y",
 "numlines":1,
 "obscuretype":null,
 "seqno":20,
 "seqnogrid":null,
 "sortno":null,
 "updated":"2000-01-02T00:00:00",
 "updatedby":0,
 "xposition":4}, "children" : []},{"tablename" : "ad_field", "data" : {"ad_field_id":10570,
 "name":"Document No",
 "ad_client_id":0,
 "ad_column_id":12459,
 "ad_fieldgroup_id":null,
 "ad_org_id":0,
 "ad_reference_id":null,
 "ad_reference_value_id":null,
 "ad_tab_id":666,
 "ad_val_rule_id":null,
 "columnspan":2,
 "created":"2004-06-17T14:03:13",
 "createdby":0,
 "defaultvalue":null,
 "description":"Document sequence number of the document",
 "displaylength":20,
 "displaylogic":null,
 "entitytype":"Manufacturing Management",
 "help":"The document number is usually automatically generated by the system and determined by the document type of the document. If the document is not saved, the preliminary number is displayed in \"<>\".\n\nIf the document type of your document has no automatic document sequence defined, the field is empty if you create a new document. This is for documents which usually have an external number (like vendor invoice).  If you leave the field empty, the system will generate a document number for you. The document sequence used for this fallback number is defined in the \"Maintain Sequence\" window with the name \"DocumentNo_<TableName>\", where TableName is the actual name of the table (e.g. C_Order).",
 "included_tab_id":null,
 "infofactoryclass":null,
 "isactive":"Y",
 "isallowcopy":"N",
 "isallownewattributeinstance":"N",
 "iscentrallymaintained":"Y",
 "isdisplayed":"Y",
 "isdisplayedgrid":"Y",
 "isencrypted":"N",
 "isfieldonly":"N",
 "isheading":"N",
 "ismandatory":null,
 "isquickentry":null,
 "isreadonly":"Y",
 "issameline":"N",
 "numlines":1,
 "obscuretype":null,
 "seqno":30,
 "seqnogrid":null,
 "sortno":-1,
 "updated":"2000-01-02T00:00:00",
 "updatedby":0,
 "xposition":1}, "children" : []}]},{"tablename" : "ad_tab", "data" : {"ad_tab_id":667,
 "name":"Line",
 "ad_window_id":333,
 "ad_client_id":0,
 "ad_column_id":null,
 "ad_columnsortorder_id":null,
 "ad_columnsortyesno_id":null,
 "ad_image_id":null,
 "ad_org_id":0,
 "ad_process_id":null,
 "ad_table_id":737,
 "commitwarning":null,
 "created":"2004-06-17T11:31:22",
 "createdby":0,
 "description":"Confirm Inventory Move Lines",
 "displaylogic":null,
 "entitytype":"Manufacturing Management",
 "hastree":"N",
 "help":"The quantities are in the storage Unit of Measure!",
 "importfields":"N",
 "included_tab_id":null,
 "isactive":"Y",
 "isadvancedtab":"N",
 "isinfotab":"N",
 "isinheritfiltertoreports":"N",
 "isinsertrecord":"Y",
 "isreadonly":"N",
 "issinglerow":"Y",
 "issorttab":"N",
 "istranslationtab":"N",
 "orderbyclause":null,
 "parent_column_id":null,
 "processing":"N",
 "readonlylogic":null,
 "seqno":20,
 "tablevel":1,
 "updated":"2005-05-22T00:43:10",
 "updatedby":100,
 "whereclause":null}, "children" : [{"tablename" : "ad_field", "data" : {"ad_field_id":10572,
 "name":"Client",
 "ad_client_id":0,
 "ad_column_id":12420,
 "ad_fieldgroup_id":null,
 "ad_org_id":0,
 "ad_reference_id":null,
 "ad_reference_value_id":null,
 "ad_tab_id":667,
 "ad_val_rule_id":null,
 "columnspan":2,
 "created":"2004-06-17T14:06:39",
 "createdby":0,
 "defaultvalue":null,
 "description":"Client/Tenant for this installation.",
 "displaylength":14,
 "displaylogic":null,
 "entitytype":"Manufacturing Management",
 "help":"A Client is a company or a legal entity. You cannot share data between Clients. Tenant is a synonym for Client.",
 "included_tab_id":null,
 "infofactoryclass":null,
 "isactive":"Y",
 "isallowcopy":null,
 "isallownewattributeinstance":"N",
 "iscentrallymaintained":"Y",
 "isdisplayed":"Y",
 "isdisplayedgrid":"Y",
 "isencrypted":"N",
 "isfieldonly":"N",
 "isheading":"N",
 "ismandatory":null,
 "isquickentry":null,
 "isreadonly":"Y",
 "issameline":"N",
 "numlines":1,
 "obscuretype":null,
 "seqno":10,
 "seqnogrid":null,
 "sortno":null,
 "updated":"2000-01-02T00:00:00",
 "updatedby":0,
 "xposition":1}, "children" : []},{"tablename" : "ad_field", "data" : {"ad_field_id":10573,
 "name":"Difference",
 "ad_client_id":0,
 "ad_column_id":12421,
 "ad_fieldgroup_id":null,
 "ad_org_id":0,
 "ad_reference_id":null,
 "ad_reference_value_id":null,
 "ad_tab_id":667,
 "ad_val_rule_id":null,
 "columnspan":2,
 "created":"2004-06-17T14:06:39",
 "createdby":0,
 "defaultvalue":null,
 "description":"Difference Quantity",
 "displaylength":26,
 "displaylogic":null,
 "entitytype":"Manufacturing Management",
 "help":null,
 "included_tab_id":null,
 "infofactoryclass":null,
 "isactive":"Y",
 "isallowcopy":null,
 "isallownewattributeinstance":"N",
 "iscentrallymaintained":"Y",
 "isdisplayed":"Y",
 "isdisplayedgrid":"Y",
 "isencrypted":"N",
 "isfieldonly":"N",
 "isheading":"N",
 "ismandatory":null,
 "isquickentry":null,
 "isreadonly":"Y",
 "issameline":"N",
 "numlines":1,
 "obscuretype":null,
 "seqno":70,
 "seqnogrid":null,
 "sortno":null,
 "updated":"2000-01-02T00:00:00",
 "updatedby":0,
 "xposition":1}, "children" : []},{"tablename" : "ad_field", "data" : {"ad_field_id":10574,
 "name":"Description",
 "ad_client_id":0,
 "ad_column_id":12422,
 "ad_fieldgroup_id":null,
 "ad_org_id":0,
 "ad_reference_id":null,
 "ad_reference_value_id":null,
 "ad_tab_id":667,
 "ad_val_rule_id":null,
 "columnspan":5,
 "created":"2004-06-17T14:06:39",
 "createdby":0,
 "defaultvalue":null,
 "description":"Optional short description of the record",
 "displaylength":60,
 "displaylogic":null,
 "entitytype":"Manufacturing Management",
 "help":"A description is limited to 255 characters.",
 "included_tab_id":null,
 "infofactoryclass":null,
 "isactive":"Y",
 "isallowcopy":null,
 "isallownewattributeinstance":"N",
 "iscentrallymaintained":"Y",
 "isdisplayed":"Y",
 "isdisplayedgrid":"Y",
 "isencrypted":"N",
 "isfieldonly":"N",
 "isheading":"N",
 "ismandatory":null,
 "isquickentry":null,
 "isreadonly":"N",
 "issameline":"N",
 "numlines":1,
 "obscuretype":null,
 "seqno":90,
 "seqnogrid":null,
 "sortno":null,
 "updated":"2000-01-02T00:00:00",
 "updatedby":0,
 "xposition":1}, "children" : []},{"tablename" : "ad_field", "data" : {"ad_field_id":10575,
 "name":"Phys.Inventory Line",
 "ad_client_id":0,
 "ad_column_id":12424,
 "ad_fieldgroup_id":null,
 "ad_org_id":0,
 "ad_reference_id":null,
 "ad_reference_value_id":null,
 "ad_tab_id":667,
 "ad_val_rule_id":null,
 "columnspan":2,
 "created":"2004-06-17T14:06:39",
 "createdby":0,
 "defaultvalue":null,
 "description":"Unique line in an Inventory document",
 "displaylength":26,
 "displaylogic":"@Processed@=Y",
 "entitytype":"Manufacturing Management",
 "help":"The Physical Inventory Line indicates the inventory document line (if applicable) for this transaction",
 "included_tab_id":null,
 "infofactoryclass":null,
 "isactive":"Y",
 "isallowcopy":null,
 "isallownewattributeinstance":"N",
 "iscentrallymaintained":"Y",
 "isdisplayed":"Y",
 "isdisplayedgrid":"Y",
 "isencrypted":"N",
 "isfieldonly":"N",
 "isheading":"N",
 "ismandatory":null,
 "isquickentry":null,
 "isreadonly":"N",
 "issameline":"N",
 "numlines":1,
 "obscuretype":null,
 "seqno":100,
 "seqnogrid":null,
 "sortno":null,
 "updated":"2000-01-02T00:00:00",
 "updatedby":0,
 "xposition":1}, "children" : []},{"tablename" : "ad_field", "data" : {"ad_field_id":10576,
 "name":"Processed",
 "ad_client_id":0,
 "ad_column_id":12425,
 "ad_fieldgroup_id":null,
 "ad_org_id":0,
 "ad_reference_id":null,
 "ad_reference_value_id":null,
 "ad_tab_id":667,
 "ad_val_rule_id":null,
 "columnspan":2,
 "created":"2004-06-17T14:06:39",
 "createdby":0,
 "defaultvalue":null,
 "description":"The document has been processed",
 "displaylength":1,
 "displaylogic":"1=2",
 "entitytype":"Manufacturing Management",
 "help":"The Processed checkbox indicates that a document has been processed.",
 "included_tab_id":null,
 "infofactoryclass":null,
 "isactive":"Y",
 "isallowcopy":"N",
 "isallownewattributeinstance":"N",
 "iscentrallymaintained":"Y",
 "isdisplayed":"Y",
 "isdisplayedgrid":"Y",
 "isencrypted":"N",
 "isfieldonly":"N",
 "isheading":"N",
 "ismandatory":null,
 "isquickentry":null,
 "isreadonly":"N",
 "issameline":"N",
 "numlines":1,
 "obscuretype":null,
 "seqno":110,
 "seqnogrid":null,
 "sortno":null,
 "updated":"2000-01-02T00:00:00",
 "updatedby":0,
 "xposition":2}, "children" : []},{"tablename" : "ad_field", "data" : {"ad_field_id":10577,
 "name":"Move Confirm",
 "ad_client_id":0,
 "ad_column_id":12426,
 "ad_fieldgroup_id":null,
 "ad_org_id":0,
 "ad_reference_id":null,
 "ad_reference_value_id":null,
 "ad_tab_id":667,
 "ad_val_rule_id":null,
 "columnspan":2,
 "created":"2004-06-17T14:06:39",
 "createdby":0,
 "defaultvalue":null,
 "description":"Inventory Move Confirmation",
 "displaylength":14,
 "displaylogic":null,
 "entitytype":"Manufacturing Management",
 "help":"The document is automatically created when the document type of the movement indicates In Transit.",
 "included_tab_id":null,
 "infofactoryclass":null,
 "isactive":"Y",
 "isallowcopy":null,
 "isallownewattributeinstance":"N",
 "iscentrallymaintained":"Y",
 "isdisplayed":"Y",
 "isdisplayedgrid":"Y",
 "isencrypted":"N",
 "isfieldonly":"N",
 "isheading":"N",
 "ismandatory":null,
 "isquickentry":null,
 "isreadonly":"Y",
 "issameline":"N",
 "numlines":1,
 "obscuretype":null,
 "seqno":30,
 "seqnogrid":null,
 "sortno":null,
 "updated":"2000-01-02T00:00:00",
 "updatedby":0,
 "xposition":1}, "children" : []},{"tablename" : "ad_field", "data" : {"ad_field_id":10578,
 "name":"Scrapped Quantity",
 "ad_client_id":0,
 "ad_column_id":12427,
 "ad_fieldgroup_id":null,
 "ad_org_id":0,
 "ad_reference_id":null,
 "ad_reference_value_id":null,
 "ad_tab_id":667,
 "ad_val_rule_id":null,
 "columnspan":2,
 "created":"2004-06-17T14:06:39",
 "createdby":0,
 "defaultvalue":null,
 "description":"The Quantity scrapped due to QA issues",
 "displaylength":26,
 "displaylogic":null,
 "entitytype":"Manufacturing Management",
 "help":null,
 "included_tab_id":null,
 "infofactoryclass":null,
 "isactive":"Y",
 "isallowcopy":null,
 "isallownewattributeinstance":"N",
 "iscentrallymaintained":"Y",
 "isdisplayed":"Y",
 "isdisplayedgrid":"Y",
 "isencrypted":"N",
 "isfieldonly":"N",
 "isheading":"N",
 "ismandatory":null,
 "isquickentry":null,
 "isreadonly":"N",
 "issameline":"Y",
 "numlines":1,
 "obscuretype":null,
 "seqno":80,
 "seqnogrid":null,
 "sortno":null,
 "updated":"2000-01-02T00:00:00",
 "updatedby":0,
 "xposition":4}, "children" : []},{"tablename" : "ad_field", "data" : {"ad_field_id":10579,
 "name":"Active",
 "ad_client_id":0,
 "ad_column_id":12428,
 "ad_fieldgroup_id":null,
 "ad_org_id":0,
 "ad_reference_id":null,
 "ad_reference_value_id":null,
 "ad_tab_id":667,
 "ad_val_rule_id":null,
 "columnspan":2,
 "created":"2004-06-17T14:06:39",
 "createdby":0,
 "defaultvalue":null,
 "description":"The record is active in the system",
 "displaylength":1,
 "displaylogic":null,
 "entitytype":"Manufacturing Management",
 "help":"There are two methods of making records unavailable in the system: One is to delete the record, the other is to de-activate the record. A de-activated record is not available for selection, but available for reports.\nThere are two reasons for de-activating and not deleting records:\n(1) The system requires the record for audit purposes.\n(2) The record is referenced by other records. E.g., you cannot delete a Business Partner, if there are invoices for this partner record existing. You de-activate the Business Partner and prevent that this record is used for future entries.",
 "included_tab_id":null,
 "infofactoryclass":null,
 "isactive":"Y",
 "isallowcopy":null,
 "isallownewattributeinstance":"N",
 "iscentrallymaintained":"Y",
 "isdisplayed":"N",
 "isdisplayedgrid":"Y",
 "isencrypted":"N",
 "isfieldonly":"N",
 "isheading":"N",
 "ismandatory":null,
 "isquickentry":null,
 "isreadonly":"N",
 "issameline":"N",
 "numlines":1,
 "obscuretype":null,
 "seqno":0,
 "seqnogrid":null,
 "sortno":null,
 "updated":"2000-01-02T00:00:00",
 "updatedby":0,
 "xposition":2}, "children" : []},{"tablename" : "ad_field", "data" : {"ad_field_id":10580,
 "name":"Move Line Confirm",
 "ad_client_id":0,
 "ad_column_id":12430,
 "ad_fieldgroup_id":null,
 "ad_org_id":0,
 "ad_reference_id":null,
 "ad_reference_value_id":null,
 "ad_tab_id":667,
 "ad_val_rule_id":null,
 "columnspan":2,
 "created":"2004-06-17T14:06:39",
 "createdby":0,
 "defaultvalue":null,
 "description":"Inventory Move Line Confirmation",
 "displaylength":14,
 "displaylogic":null,
 "entitytype":"Manufacturing Management",
 "help":null,
 "included_tab_id":null,
 "infofactoryclass":null,
 "isactive":"Y",
 "isallowcopy":null,
 "isallownewattributeinstance":"N",
 "iscentrallymaintained":"Y",
 "isdisplayed":"N",
 "isdisplayedgrid":"Y",
 "isencrypted":"N",
 "isfieldonly":"N",
 "isheading":"N",
 "ismandatory":null,
 "isquickentry":null,
 "isreadonly":"N",
 "issameline":"N",
 "numlines":1,
 "obscuretype":null,
 "seqno":0,
 "seqnogrid":null,
 "sortno":null,
 "updated":"2000-01-02T00:00:00",
 "updatedby":0,
 "xposition":1}, "children" : []},{"tablename" : "ad_field", "data" : {"ad_field_id":10581,
 "name":"Confirmed Quantity",
 "ad_client_id":0,
 "ad_column_id":12431,
 "ad_fieldgroup_id":null,
 "ad_org_id":0,
 "ad_reference_id":null,
 "ad_reference_value_id":null,
 "ad_tab_id":667,
 "ad_val_rule_id":null,
 "columnspan":2,
 "created":"2004-06-17T14:06:39",
 "createdby":0,
 "defaultvalue":null,
 "description":"Confirmation of a received quantity",
 "displaylength":26,
 "displaylogic":null,
 "entitytype":"Manufacturing Management",
 "help":"Confirmation of a received quantity",
 "included_tab_id":null,
 "infofactoryclass":null,
 "isactive":"Y",
 "isallowcopy":null,
 "isallownewattributeinstance":"N",
 "iscentrallymaintained":"Y",
 "isdisplayed":"Y",
 "isdisplayedgrid":"Y",
 "isencrypted":"N",
 "isfieldonly":"N",
 "isheading":"N",
 "ismandatory":null,
 "isquickentry":null,
 "isreadonly":"N",
 "issameline":"Y",
 "numlines":1,
 "obscuretype":null,
 "seqno":60,
 "seqnogrid":null,
 "sortno":null,
 "updated":"2000-01-02T00:00:00",
 "updatedby":0,
 "xposition":4}, "children" : []},{"tablename" : "ad_field", "data" : {"ad_field_id":10582,
 "name":"Organisation",
 "ad_client_id":0,
 "ad_column_id":12432,
 "ad_fieldgroup_id":null,
 "ad_org_id":0,
 "ad_reference_id":null,
 "ad_reference_value_id":null,
 "ad_tab_id":667,
 "ad_val_rule_id":null,
 "columnspan":2,
 "created":"2004-06-17T14:06:39",
 "createdby":0,
 "defaultvalue":null,
 "description":"Organisational entity within client",
 "displaylength":14,
 "displaylogic":null,
 "entitytype":"Manufacturing Management",
 "help":"An organisation is a unit of your client or legal entity - examples are store, department. You can share data between organisations.",
 "included_tab_id":null,
 "infofactoryclass":null,
 "isactive":"Y",
 "isallowcopy":null,
 "isallownewattributeinstance":"N",
 "iscentrallymaintained":"Y",
 "isdisplayed":"Y",
 "isdisplayedgrid":"Y",
 "isencrypted":"N",
 "isfieldonly":"N",
 "isheading":"N",
 "ismandatory":null,
 "isquickentry":null,
 "isreadonly":"Y",
 "issameline":"Y",
 "numlines":1,
 "obscuretype":null,
 "seqno":20,
 "seqnogrid":null,
 "sortno":null,
 "updated":"2000-01-02T00:00:00",
 "updatedby":0,
 "xposition":4}, "children" : []},{"tablename" : "ad_field", "data" : {"ad_field_id":10583,
 "name":"Target Quantity",
 "ad_client_id":0,
 "ad_column_id":12433,
 "ad_fieldgroup_id":null,
 "ad_org_id":0,
 "ad_reference_id":null,
 "ad_reference_value_id":null,
 "ad_tab_id":667,
 "ad_val_rule_id":null,
 "columnspan":2,
 "created":"2004-06-17T14:06:39",
 "createdby":0,
 "defaultvalue":null,
 "description":"Target Movement Quantity",
 "displaylength":26,
 "displaylogic":null,
 "entitytype":"Manufacturing Management",
 "help":"The Quantity which should have been received",
 "included_tab_id":null,
 "infofactoryclass":null,
 "isactive":"Y",
 "isallowcopy":null,
 "isallownewattributeinstance":"N",
 "iscentrallymaintained":"Y",
 "isdisplayed":"Y",
 "isdisplayedgrid":"Y",
 "isencrypted":"N",
 "isfieldonly":"N",
 "isheading":"N",
 "ismandatory":null,
 "isquickentry":null,
 "isreadonly":"Y",
 "issameline":"N",
 "numlines":1,
 "obscuretype":null,
 "seqno":50,
 "seqnogrid":null,
 "sortno":null,
 "updated":"2000-01-02T00:00:00",
 "updatedby":0,
 "xposition":1}, "children" : []},{"tablename" : "ad_field", "data" : {"ad_field_id":10584,
 "name":"Move Line",
 "ad_client_id":0,
 "ad_column_id":12434,
 "ad_fieldgroup_id":null,
 "ad_org_id":0,
 "ad_reference_id":null,
 "ad_reference_value_id":null,
 "ad_tab_id":667,
 "ad_val_rule_id":null,
 "columnspan":2,
 "created":"2004-06-17T14:06:39",
 "createdby":0,
 "defaultvalue":null,
 "description":"Inventory Move document Line",
 "displaylength":26,
 "displaylogic":null,
 "entitytype":"Manufacturing Management",
 "help":"The Movement Line indicates the inventory movement document line (if applicable) for this transaction",
 "included_tab_id":null,
 "infofactoryclass":null,
 "isactive":"Y",
 "isallowcopy":null,
 "isallownewattributeinstance":"N",
 "iscentrallymaintained":"Y",
 "isdisplayed":"Y",
 "isdisplayedgrid":"Y",
 "isencrypted":"N",
 "isfieldonly":"N",
 "isheading":"N",
 "ismandatory":null,
 "isquickentry":null,
 "isreadonly":"Y",
 "issameline":"Y",
 "numlines":1,
 "obscuretype":null,
 "seqno":40,
 "seqnogrid":null,
 "sortno":1,
 "updated":"2000-01-02T00:00:00",
 "updatedby":0,
 "xposition":4}, "children" : []}]}]}]