[{"tablename" : "ad_columnprocesspara", "data" : {"ad_columnprocesspara_id":50000,
 "ad_client_id":0,
 "ad_columnprocess_id":50000,
 "ad_org_id":0,
 "ad_process_para_id":55262,
 "created":"2016-04-29T12:36:59",
 "createdby":100,
 "defaultvalue":"-1",
 "isactive":"Y",
 "updated":"2016-04-29T12:36:59",
 "updatedby":100}, "children" : []},
 {"tablename" : "ad_columnprocesspara", "data" : {"ad_columnprocesspara_id":50001,
 "ad_client_id":0,
 "ad_columnprocess_id":50000,
 "ad_org_id":0,
 "ad_process_para_id":55263,
 "created":"2016-04-29T12:37:26",
 "createdby":100,
 "defaultvalue":"@SQL=SELECT M_Product_ID FROM M_Production WHERE M_Production_ID=@Link_ID@",
 "isactive":"Y",
 "updated":"2016-04-29T12:37:26",
 "updatedby":100}, "children" : []}]