[{"tablename" : "ad_printpaper", "data" : {"ad_printpaper_id":100,
 "name":"Letter Landscape",
 "ad_client_id":0,
 "ad_org_id":0,
 "code":"na-letter",
 "created":"2002-07-11T22:07:58",
 "createdby":0,
 "description":"1/2 inch margin on all sides",
 "dimensionunits":null,
 "isactive":"Y",
 "isdefault":"N",
 "islandscape":"Y",
 "marginbottom":36,
 "marginleft":36,
 "marginright":36,
 "margintop":36,
 "processing":null,
 "sizex":null,
 "sizey":null,
 "updated":"2016-04-11T16:39:45",
 "updatedby":0}, "children" : []},
 {"tablename" : "ad_printpaper", "data" : {"ad_printpaper_id":101,
 "name":"Letter Portrait",
 "ad_client_id":0,
 "ad_org_id":0,
 "code":"na-letter",
 "created":"2002-07-24T16:22:48",
 "createdby":0,
 "description":"1/2 inch margin on all sides",
 "dimensionunits":null,
 "isactive":"Y",
 "isdefault":"N",
 "islandscape":"N",
 "marginbottom":36,
 "marginleft":36,
 "marginright":36,
 "margintop":36,
 "processing":null,
 "sizex":null,
 "sizey":null,
 "updated":"2000-01-02T00:00:00",
 "updatedby":0}, "children" : []},
 {"tablename" : "ad_printpaper", "data" : {"ad_printpaper_id":102,
 "name":"A4 Landscape",
 "ad_client_id":0,
 "ad_org_id":0,
 "code":"iso-a4",
 "created":"2002-09-14T17:48:44",
 "createdby":0,
 "description":"1/2 inch margin on all sides",
 "dimensionunits":null,
 "isactive":"Y",
 "isdefault":"Y",
 "islandscape":"Y",
 "marginbottom":36,
 "marginleft":36,
 "marginright":36,
 "margintop":36,
 "processing":null,
 "sizex":null,
 "sizey":null,
 "updated":"2016-04-11T16:38:53",
 "updatedby":0}, "children" : []},
 {"tablename" : "ad_printpaper", "data" : {"ad_printpaper_id":103,
 "name":"A4 Portrait",
 "ad_client_id":0,
 "ad_org_id":0,
 "code":"iso-a4",
 "created":"2002-09-14T17:49:00",
 "createdby":0,
 "description":"1/2 inch margin on all sides",
 "dimensionunits":null,
 "isactive":"Y",
 "isdefault":"N",
 "islandscape":"N",
 "marginbottom":36,
 "marginleft":36,
 "marginright":36,
 "margintop":36,
 "processing":null,
 "sizex":null,
 "sizey":null,
 "updated":"2000-01-02T00:00:00",
 "updatedby":0}, "children" : []}]