[{"tablename" : "ad_tree_favorite", "data" : {"ad_tree_favorite_id":1000000,
 "ad_client_id":0,
 "ad_org_id":0,
 "ad_role_id":0,
 "ad_user_id":100,
 "created":"2016-04-12T09:58:55",
 "createdby":100,
 "isactive":"Y",
 "updated":"2016-04-12T09:58:55",
 "updatedby":100}, "children" : []}]