[{"tablename" : "ad_window_access", "data" : {"ad_client_id":0,
 "ad_org_id":0,
 "ad_role_id":0,
 "ad_window_id":100,
 "created":"2016-07-01T00:55:39.667494",
 "createdby":0,
 "isactive":"Y",
 "isreadwrite":"Y",
 "updated":"2016-07-01T00:55:39.667494",
 "updatedby":0}, "children" : []},
 {"tablename" : "ad_window_access", "data" : {"ad_client_id":0,
 "ad_org_id":0,
 "ad_role_id":0,
 "ad_window_id":101,
 "created":"2016-07-01T00:55:39.667494",
 "createdby":0,
 "isactive":"Y",
 "isreadwrite":"Y",
 "updated":"2016-07-01T00:55:39.667494",
 "updatedby":0}, "children" : []},
 {"tablename" : "ad_window_access", "data" : {"ad_client_id":0,
 "ad_org_id":0,
 "ad_role_id":0,
 "ad_window_id":102,
 "created":"2016-07-01T00:55:39.667494",
 "createdby":0,
 "isactive":"Y",
 "isreadwrite":"Y",
 "updated":"2016-07-01T00:55:39.667494",
 "updatedby":0}, "children" : []},
 {"tablename" : "ad_window_access", "data" : {"ad_client_id":0,
 "ad_org_id":0,
 "ad_role_id":0,
 "ad_window_id":103,
 "created":"2016-07-01T00:55:39.667494",
 "createdby":0,
 "isactive":"Y",
 "isreadwrite":"Y",
 "updated":"2016-07-01T00:55:39.667494",
 "updatedby":0}, "children" : []},
 {"tablename" : "ad_window_access", "data" : {"ad_client_id":0,
 "ad_org_id":0,
 "ad_role_id":0,
 "ad_window_id":104,
 "created":"2016-07-01T00:55:39.667494",
 "createdby":0,
 "isactive":"Y",
 "isreadwrite":"Y",
 "updated":"2016-07-01T00:55:39.667494",
 "updatedby":0}, "children" : []},
 {"tablename" : "ad_window_access", "data" : {"ad_client_id":0,
 "ad_org_id":0,
 "ad_role_id":0,
 "ad_window_id":105,
 "created":"2016-07-01T00:55:39.667494",
 "createdby":0,
 "isactive":"Y",
 "isreadwrite":"Y",
 "updated":"2016-07-01T00:55:39.667494",
 "updatedby":0}, "children" : []},
 {"tablename" : "ad_window_access", "data" : {"ad_client_id":0,
 "ad_org_id":0,
 "ad_role_id":0,
 "ad_window_id":106,
 "created":"2016-07-01T00:55:39.667494",
 "createdby":0,
 "isactive":"Y",
 "isreadwrite":"Y",
 "updated":"2016-07-01T00:55:39.667494",
 "updatedby":0}, "children" : []},
 {"tablename" : "ad_window_access", "data" : {"ad_client_id":0,
 "ad_org_id":0,
 "ad_role_id":0,
 "ad_window_id":108,
 "created":"2016-07-01T00:55:39.667494",
 "createdby":0,
 "isactive":"Y",
 "isreadwrite":"Y",
 "updated":"2016-07-01T00:55:39.667494",
 "updatedby":0}, "children" : []},
 {"tablename" : "ad_window_access", "data" : {"ad_client_id":0,
 "ad_org_id":0,
 "ad_role_id":0,
 "ad_window_id":109,
 "created":"2016-07-01T00:55:39.667494",
 "createdby":0,
 "isactive":"Y",
 "isreadwrite":"Y",
 "updated":"2016-07-01T00:55:39.667494",
 "updatedby":0}, "children" : []},
 {"tablename" : "ad_window_access", "data" : {"ad_client_id":0,
 "ad_org_id":0,
 "ad_role_id":0,
 "ad_window_id":110,
 "created":"2016-07-01T00:55:39.667494",
 "createdby":0,
 "isactive":"Y",
 "isreadwrite":"Y",
 "updated":"2016-07-01T00:55:39.667494",
 "updatedby":0}, "children" : []},
 {"tablename" : "ad_window_access", "data" : {"ad_client_id":0,
 "ad_org_id":0,
 "ad_role_id":0,
 "ad_window_id":111,
 "created":"2016-07-01T00:55:39.667494",
 "createdby":0,
 "isactive":"Y",
 "isreadwrite":"Y",
 "updated":"2016-07-01T00:55:39.667494",
 "updatedby":0}, "children" : []},
 {"tablename" : "ad_window_access", "data" : {"ad_client_id":0,
 "ad_org_id":0,
 "ad_role_id":0,
 "ad_window_id":112,
 "created":"2016-07-01T00:55:39.667494",
 "createdby":0,
 "isactive":"Y",
 "isreadwrite":"Y",
 "updated":"2016-07-01T00:55:39.667494",
 "updatedby":0}, "children" : []},
 {"tablename" : "ad_window_access", "data" : {"ad_client_id":0,
 "ad_org_id":0,
 "ad_role_id":0,
 "ad_window_id":113,
 "created":"2016-07-01T00:55:39.667494",
 "createdby":0,
 "isactive":"Y",
 "isreadwrite":"Y",
 "updated":"2016-07-01T00:55:39.667494",
 "updatedby":0}, "children" : []},
 {"tablename" : "ad_window_access", "data" : {"ad_client_id":0,
 "ad_org_id":0,
 "ad_role_id":0,
 "ad_window_id":115,
 "created":"2016-07-01T00:55:39.667494",
 "createdby":0,
 "isactive":"Y",
 "isreadwrite":"Y",
 "updated":"2016-07-01T00:55:39.667494",
 "updatedby":0}, "children" : []},
 {"tablename" : "ad_window_access", "data" : {"ad_client_id":0,
 "ad_org_id":0,
 "ad_role_id":0,
 "ad_window_id":116,
 "created":"2016-07-01T00:55:39.667494",
 "createdby":0,
 "isactive":"Y",
 "isreadwrite":"Y",
 "updated":"2016-07-01T00:55:39.667494",
 "updatedby":0}, "children" : []},
 {"tablename" : "ad_window_access", "data" : {"ad_client_id":0,
 "ad_org_id":0,
 "ad_role_id":0,
 "ad_window_id":120,
 "created":"2016-07-01T00:55:39.667494",
 "createdby":0,
 "isactive":"Y",
 "isreadwrite":"Y",
 "updated":"2016-07-01T00:55:39.667494",
 "updatedby":0}, "children" : []},
 {"tablename" : "ad_window_access", "data" : {"ad_client_id":0,
 "ad_org_id":0,
 "ad_role_id":0,
 "ad_window_id":121,
 "created":"2016-07-01T00:55:39.667494",
 "createdby":0,
 "isactive":"Y",
 "isreadwrite":"Y",
 "updated":"2016-07-01T00:55:39.667494",
 "updatedby":0}, "children" : []},
 {"tablename" : "ad_window_access", "data" : {"ad_client_id":0,
 "ad_org_id":0,
 "ad_role_id":0,
 "ad_window_id":122,
 "created":"2016-07-01T00:55:39.667494",
 "createdby":0,
 "isactive":"Y",
 "isreadwrite":"Y",
 "updated":"2016-07-01T00:55:39.667494",
 "updatedby":0}, "children" : []},
 {"tablename" : "ad_window_access", "data" : {"ad_client_id":0,
 "ad_org_id":0,
 "ad_role_id":0,
 "ad_window_id":127,
 "created":"2016-07-01T00:55:39.667494",
 "createdby":0,
 "isactive":"Y",
 "isreadwrite":"Y",
 "updated":"2016-07-01T00:55:39.667494",
 "updatedby":0}, "children" : []},
 {"tablename" : "ad_window_access", "data" : {"ad_client_id":0,
 "ad_org_id":0,
 "ad_role_id":0,
 "ad_window_id":128,
 "created":"2016-07-01T00:55:39.667494",
 "createdby":0,
 "isactive":"Y",
 "isreadwrite":"Y",
 "updated":"2016-07-01T00:55:39.667494",
 "updatedby":0}, "children" : []},
 {"tablename" : "ad_window_access", "data" : {"ad_client_id":0,
 "ad_org_id":0,
 "ad_role_id":0,
 "ad_window_id":129,
 "created":"2016-07-01T00:55:39.667494",
 "createdby":0,
 "isactive":"Y",
 "isreadwrite":"Y",
 "updated":"2016-07-01T00:55:39.667494",
 "updatedby":0}, "children" : []},
 {"tablename" : "ad_window_access", "data" : {"ad_client_id":0,
 "ad_org_id":0,
 "ad_role_id":0,
 "ad_window_id":135,
 "created":"2016-07-01T00:55:39.667494",
 "createdby":0,
 "isactive":"Y",
 "isreadwrite":"Y",
 "updated":"2016-07-01T00:55:39.667494",
 "updatedby":0}, "children" : []},
 {"tablename" : "ad_window_access", "data" : {"ad_client_id":0,
 "ad_org_id":0,
 "ad_role_id":0,
 "ad_window_id":151,
 "created":"2016-07-01T00:55:39.667494",
 "createdby":0,
 "isactive":"Y",
 "isreadwrite":"Y",
 "updated":"2016-07-01T00:55:39.667494",
 "updatedby":0}, "children" : []},
 {"tablename" : "ad_window_access", "data" : {"ad_client_id":0,
 "ad_org_id":0,
 "ad_role_id":0,
 "ad_window_id":163,
 "created":"2016-07-01T00:55:39.667494",
 "createdby":0,
 "isactive":"Y",
 "isreadwrite":"Y",
 "updated":"2016-07-01T00:55:39.667494",
 "updatedby":0}, "children" : []},
 {"tablename" : "ad_window_access", "data" : {"ad_client_id":0,
 "ad_org_id":0,
 "ad_role_id":0,
 "ad_window_id":165,
 "created":"2016-07-01T00:55:39.667494",
 "createdby":0,
 "isactive":"Y",
 "isreadwrite":"Y",
 "updated":"2016-07-01T00:55:39.667494",
 "updatedby":0}, "children" : []},
 {"tablename" : "ad_window_access", "data" : {"ad_client_id":0,
 "ad_org_id":0,
 "ad_role_id":0,
 "ad_window_id":180,
 "created":"2016-07-01T00:55:39.667494",
 "createdby":0,
 "isactive":"Y",
 "isreadwrite":"Y",
 "updated":"2016-07-01T00:55:39.667494",
 "updatedby":0}, "children" : []},
 {"tablename" : "ad_window_access", "data" : {"ad_client_id":0,
 "ad_org_id":0,
 "ad_role_id":0,
 "ad_window_id":187,
 "created":"2016-07-01T00:55:39.667494",
 "createdby":0,
 "isactive":"Y",
 "isreadwrite":"Y",
 "updated":"2016-07-01T00:55:39.667494",
 "updatedby":0}, "children" : []},
 {"tablename" : "ad_window_access", "data" : {"ad_client_id":0,
 "ad_org_id":0,
 "ad_role_id":0,
 "ad_window_id":188,
 "created":"2016-07-01T00:55:39.667494",
 "createdby":0,
 "isactive":"Y",
 "isreadwrite":"Y",
 "updated":"2016-07-01T00:55:39.667494",
 "updatedby":0}, "children" : []},
 {"tablename" : "ad_window_access", "data" : {"ad_client_id":0,
 "ad_org_id":0,
 "ad_role_id":0,
 "ad_window_id":189,
 "created":"2016-07-01T00:55:39.667494",
 "createdby":0,
 "isactive":"Y",
 "isreadwrite":"Y",
 "updated":"2016-07-01T00:55:39.667494",
 "updatedby":0}, "children" : []},
 {"tablename" : "ad_window_access", "data" : {"ad_client_id":0,
 "ad_org_id":0,
 "ad_role_id":0,
 "ad_window_id":193,
 "created":"2016-07-01T00:55:39.667494",
 "createdby":0,
 "isactive":"Y",
 "isreadwrite":"Y",
 "updated":"2016-07-01T00:55:39.667494",
 "updatedby":0}, "children" : []},
 {"tablename" : "ad_window_access", "data" : {"ad_client_id":0,
 "ad_org_id":0,
 "ad_role_id":0,
 "ad_window_id":196,
 "created":"2016-07-01T00:55:39.667494",
 "createdby":0,
 "isactive":"Y",
 "isreadwrite":"Y",
 "updated":"2016-07-01T00:55:39.667494",
 "updatedby":0}, "children" : []},
 {"tablename" : "ad_window_access", "data" : {"ad_client_id":0,
 "ad_org_id":0,
 "ad_role_id":0,
 "ad_window_id":200,
 "created":"2016-07-01T00:55:39.667494",
 "createdby":0,
 "isactive":"Y",
 "isreadwrite":"Y",
 "updated":"2016-07-01T00:55:39.667494",
 "updatedby":0}, "children" : []},
 {"tablename" : "ad_window_access", "data" : {"ad_client_id":0,
 "ad_org_id":0,
 "ad_role_id":0,
 "ad_window_id":201,
 "created":"2016-07-01T00:55:39.667494",
 "createdby":0,
 "isactive":"Y",
 "isreadwrite":"Y",
 "updated":"2016-07-01T00:55:39.667494",
 "updatedby":0}, "children" : []},
 {"tablename" : "ad_window_access", "data" : {"ad_client_id":0,
 "ad_org_id":0,
 "ad_role_id":0,
 "ad_window_id":204,
 "created":"2016-07-01T00:55:39.667494",
 "createdby":0,
 "isactive":"Y",
 "isreadwrite":"Y",
 "updated":"2016-07-01T00:55:39.667494",
 "updatedby":0}, "children" : []},
 {"tablename" : "ad_window_access", "data" : {"ad_client_id":0,
 "ad_org_id":0,
 "ad_role_id":0,
 "ad_window_id":212,
 "created":"2016-07-01T00:55:39.667494",
 "createdby":0,
 "isactive":"Y",
 "isreadwrite":"Y",
 "updated":"2016-07-01T00:55:39.667494",
 "updatedby":0}, "children" : []},
 {"tablename" : "ad_window_access", "data" : {"ad_client_id":0,
 "ad_org_id":0,
 "ad_role_id":0,
 "ad_window_id":213,
 "created":"2016-07-01T00:55:39.667494",
 "createdby":0,
 "isactive":"Y",
 "isreadwrite":"Y",
 "updated":"2016-07-01T00:55:39.667494",
 "updatedby":0}, "children" : []},
 {"tablename" : "ad_window_access", "data" : {"ad_client_id":0,
 "ad_org_id":0,
 "ad_role_id":0,
 "ad_window_id":215,
 "created":"2016-07-01T00:55:39.667494",
 "createdby":0,
 "isactive":"Y",
 "isreadwrite":"Y",
 "updated":"2016-07-01T00:55:39.667494",
 "updatedby":0}, "children" : []},
 {"tablename" : "ad_window_access", "data" : {"ad_client_id":0,
 "ad_org_id":0,
 "ad_role_id":0,
 "ad_window_id":217,
 "created":"2016-07-01T00:55:39.667494",
 "createdby":0,
 "isactive":"Y",
 "isreadwrite":"Y",
 "updated":"2016-07-01T00:55:39.667494",
 "updatedby":0}, "children" : []},
 {"tablename" : "ad_window_access", "data" : {"ad_client_id":0,
 "ad_org_id":0,
 "ad_role_id":0,
 "ad_window_id":221,
 "created":"2016-07-01T00:55:39.667494",
 "createdby":0,
 "isactive":"Y",
 "isreadwrite":"Y",
 "updated":"2016-07-01T00:55:39.667494",
 "updatedby":0}, "children" : []},
 {"tablename" : "ad_window_access", "data" : {"ad_client_id":0,
 "ad_org_id":0,
 "ad_role_id":0,
 "ad_window_id":224,
 "created":"2016-07-01T00:55:39.667494",
 "createdby":0,
 "isactive":"Y",
 "isreadwrite":"Y",
 "updated":"2016-07-01T00:55:39.667494",
 "updatedby":0}, "children" : []},
 {"tablename" : "ad_window_access", "data" : {"ad_client_id":0,
 "ad_org_id":0,
 "ad_role_id":0,
 "ad_window_id":225,
 "created":"2016-07-01T00:55:39.667494",
 "createdby":0,
 "isactive":"Y",
 "isreadwrite":"Y",
 "updated":"2016-07-01T00:55:39.667494",
 "updatedby":0}, "children" : []},
 {"tablename" : "ad_window_access", "data" : {"ad_client_id":0,
 "ad_org_id":0,
 "ad_role_id":0,
 "ad_window_id":226,
 "created":"2016-07-01T00:55:39.667494",
 "createdby":0,
 "isactive":"Y",
 "isreadwrite":"Y",
 "updated":"2016-07-01T00:55:39.667494",
 "updatedby":0}, "children" : []},
 {"tablename" : "ad_window_access", "data" : {"ad_client_id":0,
 "ad_org_id":0,
 "ad_role_id":0,
 "ad_window_id":227,
 "created":"2016-07-01T00:55:39.667494",
 "createdby":0,
 "isactive":"Y",
 "isreadwrite":"Y",
 "updated":"2016-07-01T00:55:39.667494",
 "updatedby":0}, "children" : []},
 {"tablename" : "ad_window_access", "data" : {"ad_client_id":0,
 "ad_org_id":0,
 "ad_role_id":0,
 "ad_window_id":229,
 "created":"2016-07-01T00:55:39.667494",
 "createdby":0,
 "isactive":"Y",
 "isreadwrite":"Y",
 "updated":"2016-07-01T00:55:39.667494",
 "updatedby":0}, "children" : []},
 {"tablename" : "ad_window_access", "data" : {"ad_client_id":0,
 "ad_org_id":0,
 "ad_role_id":0,
 "ad_window_id":231,
 "created":"2016-07-01T00:55:39.667494",
 "createdby":0,
 "isactive":"Y",
 "isreadwrite":"Y",
 "updated":"2016-07-01T00:55:39.667494",
 "updatedby":0}, "children" : []},
 {"tablename" : "ad_window_access", "data" : {"ad_client_id":0,
 "ad_org_id":0,
 "ad_role_id":0,
 "ad_window_id":232,
 "created":"2016-07-01T00:55:39.667494",
 "createdby":0,
 "isactive":"Y",
 "isreadwrite":"Y",
 "updated":"2016-07-01T00:55:39.667494",
 "updatedby":0}, "children" : []},
 {"tablename" : "ad_window_access", "data" : {"ad_client_id":0,
 "ad_org_id":0,
 "ad_role_id":0,
 "ad_window_id":238,
 "created":"2016-07-01T00:55:39.667494",
 "createdby":0,
 "isactive":"Y",
 "isreadwrite":"Y",
 "updated":"2016-07-01T00:55:39.667494",
 "updatedby":0}, "children" : []},
 {"tablename" : "ad_window_access", "data" : {"ad_client_id":0,
 "ad_org_id":0,
 "ad_role_id":0,
 "ad_window_id":239,
 "created":"2016-07-01T00:55:39.667494",
 "createdby":0,
 "isactive":"Y",
 "isreadwrite":"Y",
 "updated":"2016-07-01T00:55:39.667494",
 "updatedby":0}, "children" : []},
 {"tablename" : "ad_window_access", "data" : {"ad_client_id":0,
 "ad_org_id":0,
 "ad_role_id":0,
 "ad_window_id":240,
 "created":"2016-07-01T00:55:39.667494",
 "createdby":0,
 "isactive":"Y",
 "isreadwrite":"Y",
 "updated":"2016-07-01T00:55:39.667494",
 "updatedby":0}, "children" : []},
 {"tablename" : "ad_window_access", "data" : {"ad_client_id":0,
 "ad_org_id":0,
 "ad_role_id":0,
 "ad_window_id":241,
 "created":"2016-07-01T00:55:39.667494",
 "createdby":0,
 "isactive":"Y",
 "isreadwrite":"Y",
 "updated":"2016-07-01T00:55:39.667494",
 "updatedby":0}, "children" : []},
 {"tablename" : "ad_window_access", "data" : {"ad_client_id":0,
 "ad_org_id":0,
 "ad_role_id":0,
 "ad_window_id":243,
 "created":"2016-07-01T00:55:39.667494",
 "createdby":0,
 "isactive":"Y",
 "isreadwrite":"Y",
 "updated":"2016-07-01T00:55:39.667494",
 "updatedby":0}, "children" : []},
 {"tablename" : "ad_window_access", "data" : {"ad_client_id":0,
 "ad_org_id":0,
 "ad_role_id":0,
 "ad_window_id":244,
 "created":"2016-07-01T00:55:39.667494",
 "createdby":0,
 "isactive":"Y",
 "isreadwrite":"Y",
 "updated":"2016-07-01T00:55:39.667494",
 "updatedby":0}, "children" : []},
 {"tablename" : "ad_window_access", "data" : {"ad_client_id":0,
 "ad_org_id":0,
 "ad_role_id":0,
 "ad_window_id":246,
 "created":"2016-07-01T00:55:39.667494",
 "createdby":0,
 "isactive":"Y",
 "isreadwrite":"Y",
 "updated":"2016-07-01T00:55:39.667494",
 "updatedby":0}, "children" : []},
 {"tablename" : "ad_window_access", "data" : {"ad_client_id":0,
 "ad_org_id":0,
 "ad_role_id":0,
 "ad_window_id":248,
 "created":"2016-07-01T00:55:39.667494",
 "createdby":0,
 "isactive":"Y",
 "isreadwrite":"Y",
 "updated":"2016-07-01T00:55:39.667494",
 "updatedby":0}, "children" : []},
 {"tablename" : "ad_window_access", "data" : {"ad_client_id":0,
 "ad_org_id":0,
 "ad_role_id":0,
 "ad_window_id":249,
 "created":"2016-07-01T00:55:39.667494",
 "createdby":0,
 "isactive":"Y",
 "isreadwrite":"Y",
 "updated":"2016-07-01T00:55:39.667494",
 "updatedby":0}, "children" : []},
 {"tablename" : "ad_window_access", "data" : {"ad_client_id":0,
 "ad_org_id":0,
 "ad_role_id":0,
 "ad_window_id":250,
 "created":"2016-07-01T00:55:39.667494",
 "createdby":0,
 "isactive":"Y",
 "isreadwrite":"Y",
 "updated":"2016-07-01T00:55:39.667494",
 "updatedby":0}, "children" : []},
 {"tablename" : "ad_window_access", "data" : {"ad_client_id":0,
 "ad_org_id":0,
 "ad_role_id":0,
 "ad_window_id":263,
 "created":"2016-07-01T00:55:39.667494",
 "createdby":0,
 "isactive":"Y",
 "isreadwrite":"Y",
 "updated":"2016-07-01T00:55:39.667494",
 "updatedby":0}, "children" : []},
 {"tablename" : "ad_window_access", "data" : {"ad_client_id":0,
 "ad_org_id":0,
 "ad_role_id":0,
 "ad_window_id":264,
 "created":"2016-07-01T00:55:39.667494",
 "createdby":0,
 "isactive":"Y",
 "isreadwrite":"Y",
 "updated":"2016-07-01T00:55:39.667494",
 "updatedby":0}, "children" : []},
 {"tablename" : "ad_window_access", "data" : {"ad_client_id":0,
 "ad_org_id":0,
 "ad_role_id":0,
 "ad_window_id":268,
 "created":"2016-07-01T00:55:39.667494",
 "createdby":0,
 "isactive":"Y",
 "isreadwrite":"Y",
 "updated":"2016-07-01T00:55:39.667494",
 "updatedby":0}, "children" : []},
 {"tablename" : "ad_window_access", "data" : {"ad_client_id":0,
 "ad_org_id":0,
 "ad_role_id":0,
 "ad_window_id":270,
 "created":"2016-07-01T00:55:39.667494",
 "createdby":0,
 "isactive":"Y",
 "isreadwrite":"Y",
 "updated":"2016-07-01T00:55:39.667494",
 "updatedby":0}, "children" : []},
 {"tablename" : "ad_window_access", "data" : {"ad_client_id":0,
 "ad_org_id":0,
 "ad_role_id":0,
 "ad_window_id":276,
 "created":"2016-07-01T00:55:39.667494",
 "createdby":0,
 "isactive":"Y",
 "isreadwrite":"Y",
 "updated":"2016-07-01T00:55:39.667494",
 "updatedby":0}, "children" : []},
 {"tablename" : "ad_window_access", "data" : {"ad_client_id":0,
 "ad_org_id":0,
 "ad_role_id":0,
 "ad_window_id":283,
 "created":"2016-07-01T00:55:39.667494",
 "createdby":0,
 "isactive":"Y",
 "isreadwrite":"Y",
 "updated":"2016-07-01T00:55:39.667494",
 "updatedby":0}, "children" : []},
 {"tablename" : "ad_window_access", "data" : {"ad_client_id":0,
 "ad_org_id":0,
 "ad_role_id":0,
 "ad_window_id":284,
 "created":"2016-07-01T00:55:39.667494",
 "createdby":0,
 "isactive":"Y",
 "isreadwrite":"Y",
 "updated":"2016-07-01T00:55:39.667494",
 "updatedby":0}, "children" : []},
 {"tablename" : "ad_window_access", "data" : {"ad_client_id":0,
 "ad_org_id":0,
 "ad_role_id":0,
 "ad_window_id":285,
 "created":"2016-07-01T00:55:39.667494",
 "createdby":0,
 "isactive":"Y",
 "isreadwrite":"Y",
 "updated":"2016-07-01T00:55:39.667494",
 "updatedby":0}, "children" : []},
 {"tablename" : "ad_window_access", "data" : {"ad_client_id":0,
 "ad_org_id":0,
 "ad_role_id":0,
 "ad_window_id":292,
 "created":"2016-07-01T00:55:39.667494",
 "createdby":0,
 "isactive":"Y",
 "isreadwrite":"Y",
 "updated":"2016-07-01T00:55:39.667494",
 "updatedby":0}, "children" : []},
 {"tablename" : "ad_window_access", "data" : {"ad_client_id":0,
 "ad_org_id":0,
 "ad_role_id":0,
 "ad_window_id":293,
 "created":"2016-07-01T00:55:39.667494",
 "createdby":0,
 "isactive":"Y",
 "isreadwrite":"Y",
 "updated":"2016-07-01T00:55:39.667494",
 "updatedby":0}, "children" : []},
 {"tablename" : "ad_window_access", "data" : {"ad_client_id":0,
 "ad_org_id":0,
 "ad_role_id":0,
 "ad_window_id":295,
 "created":"2016-07-01T00:55:39.667494",
 "createdby":0,
 "isactive":"Y",
 "isreadwrite":"Y",
 "updated":"2016-07-01T00:55:39.667494",
 "updatedby":0}, "children" : []},
 {"tablename" : "ad_window_access", "data" : {"ad_client_id":0,
 "ad_org_id":0,
 "ad_role_id":0,
 "ad_window_id":296,
 "created":"2016-07-01T00:55:39.667494",
 "createdby":0,
 "isactive":"Y",
 "isreadwrite":"Y",
 "updated":"2016-07-01T00:55:39.667494",
 "updatedby":0}, "children" : []},
 {"tablename" : "ad_window_access", "data" : {"ad_client_id":0,
 "ad_org_id":0,
 "ad_role_id":0,
 "ad_window_id":297,
 "created":"2016-07-01T00:55:39.667494",
 "createdby":0,
 "isactive":"Y",
 "isreadwrite":"Y",
 "updated":"2016-07-01T00:55:39.667494",
 "updatedby":0}, "children" : []},
 {"tablename" : "ad_window_access", "data" : {"ad_client_id":0,
 "ad_org_id":0,
 "ad_role_id":0,
 "ad_window_id":298,
 "created":"2016-07-01T00:55:39.667494",
 "createdby":0,
 "isactive":"Y",
 "isreadwrite":"Y",
 "updated":"2016-07-01T00:55:39.667494",
 "updatedby":0}, "children" : []},
 {"tablename" : "ad_window_access", "data" : {"ad_client_id":0,
 "ad_org_id":0,
 "ad_role_id":0,
 "ad_window_id":299,
 "created":"2016-07-01T00:55:39.667494",
 "createdby":0,
 "isactive":"Y",
 "isreadwrite":"Y",
 "updated":"2016-07-01T00:55:39.667494",
 "updatedby":0}, "children" : []},
 {"tablename" : "ad_window_access", "data" : {"ad_client_id":0,
 "ad_org_id":0,
 "ad_role_id":0,
 "ad_window_id":304,
 "created":"2016-07-01T00:55:39.667494",
 "createdby":0,
 "isactive":"Y",
 "isreadwrite":"Y",
 "updated":"2016-07-01T00:55:39.667494",
 "updatedby":0}, "children" : []},
 {"tablename" : "ad_window_access", "data" : {"ad_client_id":0,
 "ad_org_id":0,
 "ad_role_id":0,
 "ad_window_id":305,
 "created":"2016-07-01T00:55:39.667494",
 "createdby":0,
 "isactive":"Y",
 "isreadwrite":"Y",
 "updated":"2016-07-01T00:55:39.667494",
 "updatedby":0}, "children" : []},
 {"tablename" : "ad_window_access", "data" : {"ad_client_id":0,
 "ad_org_id":0,
 "ad_role_id":0,
 "ad_window_id":306,
 "created":"2016-07-01T00:55:39.667494",
 "createdby":0,
 "isactive":"Y",
 "isreadwrite":"Y",
 "updated":"2016-07-01T00:55:39.667494",
 "updatedby":0}, "children" : []},
 {"tablename" : "ad_window_access", "data" : {"ad_client_id":0,
 "ad_org_id":0,
 "ad_role_id":0,
 "ad_window_id":312,
 "created":"2016-07-01T00:55:39.667494",
 "createdby":0,
 "isactive":"Y",
 "isreadwrite":"Y",
 "updated":"2016-07-01T00:55:39.667494",
 "updatedby":0}, "children" : []},
 {"tablename" : "ad_window_access", "data" : {"ad_client_id":0,
 "ad_org_id":0,
 "ad_role_id":0,
 "ad_window_id":326,
 "created":"2016-07-01T00:55:39.667494",
 "createdby":0,
 "isactive":"Y",
 "isreadwrite":"Y",
 "updated":"2016-07-01T00:55:39.667494",
 "updatedby":0}, "children" : []},
 {"tablename" : "ad_window_access", "data" : {"ad_client_id":0,
 "ad_org_id":0,
 "ad_role_id":0,
 "ad_window_id":332,
 "created":"2016-07-01T00:55:39.667494",
 "createdby":0,
 "isactive":"Y",
 "isreadwrite":"Y",
 "updated":"2016-07-01T00:55:39.667494",
 "updatedby":0}, "children" : []},
 {"tablename" : "ad_window_access", "data" : {"ad_client_id":0,
 "ad_org_id":0,
 "ad_role_id":0,
 "ad_window_id":335,
 "created":"2016-07-01T00:55:39.667494",
 "createdby":0,
 "isactive":"Y",
 "isreadwrite":"Y",
 "updated":"2016-07-01T00:55:39.667494",
 "updatedby":0}, "children" : []},
 {"tablename" : "ad_window_access", "data" : {"ad_client_id":0,
 "ad_org_id":0,
 "ad_role_id":0,
 "ad_window_id":340,
 "created":"2016-07-01T00:55:39.667494",
 "createdby":0,
 "isactive":"Y",
 "isreadwrite":"Y",
 "updated":"2016-07-01T00:55:39.667494",
 "updatedby":0}, "children" : []},
 {"tablename" : "ad_window_access", "data" : {"ad_client_id":0,
 "ad_org_id":0,
 "ad_role_id":0,
 "ad_window_id":345,
 "created":"2016-07-01T00:55:39.667494",
 "createdby":0,
 "isactive":"Y",
 "isreadwrite":"Y",
 "updated":"2016-07-01T00:55:39.667494",
 "updatedby":0}, "children" : []},
 {"tablename" : "ad_window_access", "data" : {"ad_client_id":0,
 "ad_org_id":0,
 "ad_role_id":0,
 "ad_window_id":346,
 "created":"2016-07-01T00:55:39.667494",
 "createdby":0,
 "isactive":"Y",
 "isreadwrite":"Y",
 "updated":"2016-07-01T00:55:39.667494",
 "updatedby":0}, "children" : []},
 {"tablename" : "ad_window_access", "data" : {"ad_client_id":0,
 "ad_org_id":0,
 "ad_role_id":0,
 "ad_window_id":347,
 "created":"2016-07-01T00:55:39.667494",
 "createdby":0,
 "isactive":"Y",
 "isreadwrite":"Y",
 "updated":"2016-07-01T00:55:39.667494",
 "updatedby":0}, "children" : []},
 {"tablename" : "ad_window_access", "data" : {"ad_client_id":0,
 "ad_org_id":0,
 "ad_role_id":0,
 "ad_window_id":348,
 "created":"2016-07-01T00:55:39.667494",
 "createdby":0,
 "isactive":"Y",
 "isreadwrite":"Y",
 "updated":"2016-07-01T00:55:39.667494",
 "updatedby":0}, "children" : []},
 {"tablename" : "ad_window_access", "data" : {"ad_client_id":0,
 "ad_org_id":0,
 "ad_role_id":0,
 "ad_window_id":349,
 "created":"2016-07-01T00:55:39.667494",
 "createdby":0,
 "isactive":"Y",
 "isreadwrite":"Y",
 "updated":"2016-07-01T00:55:39.667494",
 "updatedby":0}, "children" : []},
 {"tablename" : "ad_window_access", "data" : {"ad_client_id":0,
 "ad_org_id":0,
 "ad_role_id":0,
 "ad_window_id":363,
 "created":"2016-07-01T00:55:39.667494",
 "createdby":0,
 "isactive":"Y",
 "isreadwrite":"Y",
 "updated":"2016-07-01T00:55:39.667494",
 "updatedby":0}, "children" : []},
 {"tablename" : "ad_window_access", "data" : {"ad_client_id":0,
 "ad_org_id":0,
 "ad_role_id":0,
 "ad_window_id":364,
 "created":"2016-07-01T00:55:39.667494",
 "createdby":0,
 "isactive":"Y",
 "isreadwrite":"Y",
 "updated":"2016-07-01T00:55:39.667494",
 "updatedby":0}, "children" : []},
 {"tablename" : "ad_window_access", "data" : {"ad_client_id":0,
 "ad_org_id":0,
 "ad_role_id":0,
 "ad_window_id":365,
 "created":"2016-07-01T00:55:39.667494",
 "createdby":0,
 "isactive":"Y",
 "isreadwrite":"Y",
 "updated":"2016-07-01T00:55:39.667494",
 "updatedby":0}, "children" : []},
 {"tablename" : "ad_window_access", "data" : {"ad_client_id":0,
 "ad_org_id":0,
 "ad_role_id":0,
 "ad_window_id":367,
 "created":"2016-07-01T00:55:39.667494",
 "createdby":0,
 "isactive":"Y",
 "isreadwrite":"Y",
 "updated":"2016-07-01T00:55:39.667494",
 "updatedby":0}, "children" : []},
 {"tablename" : "ad_window_access", "data" : {"ad_client_id":0,
 "ad_org_id":0,
 "ad_role_id":0,
 "ad_window_id":368,
 "created":"2016-07-01T00:55:39.667494",
 "createdby":0,
 "isactive":"Y",
 "isreadwrite":"Y",
 "updated":"2016-07-01T00:55:39.667494",
 "updatedby":0}, "children" : []},
 {"tablename" : "ad_window_access", "data" : {"ad_client_id":0,
 "ad_org_id":0,
 "ad_role_id":0,
 "ad_window_id":369,
 "created":"2016-07-01T00:55:39.667494",
 "createdby":0,
 "isactive":"Y",
 "isreadwrite":"Y",
 "updated":"2016-07-01T00:55:39.667494",
 "updatedby":0}, "children" : []},
 {"tablename" : "ad_window_access", "data" : {"ad_client_id":0,
 "ad_org_id":0,
 "ad_role_id":0,
 "ad_window_id":370,
 "created":"2016-07-01T00:55:39.667494",
 "createdby":0,
 "isactive":"Y",
 "isreadwrite":"Y",
 "updated":"2016-07-01T00:55:39.667494",
 "updatedby":0}, "children" : []},
 {"tablename" : "ad_window_access", "data" : {"ad_client_id":0,
 "ad_org_id":0,
 "ad_role_id":0,
 "ad_window_id":371,
 "created":"2016-07-01T00:55:39.667494",
 "createdby":0,
 "isactive":"Y",
 "isreadwrite":"Y",
 "updated":"2016-07-01T00:55:39.667494",
 "updatedby":0}, "children" : []},
 {"tablename" : "ad_window_access", "data" : {"ad_client_id":0,
 "ad_org_id":0,
 "ad_role_id":0,
 "ad_window_id":372,
 "created":"2016-07-01T00:55:39.667494",
 "createdby":0,
 "isactive":"Y",
 "isreadwrite":"Y",
 "updated":"2016-07-01T00:55:39.667494",
 "updatedby":0}, "children" : []},
 {"tablename" : "ad_window_access", "data" : {"ad_client_id":0,
 "ad_org_id":0,
 "ad_role_id":0,
 "ad_window_id":381,
 "created":"2016-07-01T00:55:39.667494",
 "createdby":0,
 "isactive":"Y",
 "isreadwrite":"Y",
 "updated":"2016-07-01T00:55:39.667494",
 "updatedby":0}, "children" : []},
 {"tablename" : "ad_window_access", "data" : {"ad_client_id":0,
 "ad_org_id":0,
 "ad_role_id":0,
 "ad_window_id":385,
 "created":"2016-07-01T00:55:39.667494",
 "createdby":0,
 "isactive":"Y",
 "isreadwrite":"Y",
 "updated":"2016-07-01T00:55:39.667494",
 "updatedby":0}, "children" : []},
 {"tablename" : "ad_window_access", "data" : {"ad_client_id":0,
 "ad_org_id":0,
 "ad_role_id":0,
 "ad_window_id":389,
 "created":"2016-07-01T00:55:39.667494",
 "createdby":0,
 "isactive":"Y",
 "isreadwrite":"Y",
 "updated":"2016-07-01T00:55:39.667494",
 "updatedby":0}, "children" : []},
 {"tablename" : "ad_window_access", "data" : {"ad_client_id":0,
 "ad_org_id":0,
 "ad_role_id":0,
 "ad_window_id":50001,
 "created":"2016-07-01T00:55:39.667494",
 "createdby":0,
 "isactive":"Y",
 "isreadwrite":"Y",
 "updated":"2016-07-01T00:55:39.667494",
 "updatedby":0}, "children" : []},
 {"tablename" : "ad_window_access", "data" : {"ad_client_id":0,
 "ad_org_id":0,
 "ad_role_id":0,
 "ad_window_id":50002,
 "created":"2016-07-01T00:55:39.667494",
 "createdby":0,
 "isactive":"Y",
 "isreadwrite":"Y",
 "updated":"2016-07-01T00:55:39.667494",
 "updatedby":0}, "children" : []},
 {"tablename" : "ad_window_access", "data" : {"ad_client_id":0,
 "ad_org_id":0,
 "ad_role_id":0,
 "ad_window_id":50003,
 "created":"2016-07-01T00:55:39.667494",
 "createdby":0,
 "isactive":"Y",
 "isreadwrite":"Y",
 "updated":"2016-07-01T00:55:39.667494",
 "updatedby":0}, "children" : []},
 {"tablename" : "ad_window_access", "data" : {"ad_client_id":0,
 "ad_org_id":0,
 "ad_role_id":0,
 "ad_window_id":50004,
 "created":"2016-07-01T00:55:39.667494",
 "createdby":0,
 "isactive":"Y",
 "isreadwrite":"Y",
 "updated":"2016-07-01T00:55:39.667494",
 "updatedby":0}, "children" : []},
 {"tablename" : "ad_window_access", "data" : {"ad_client_id":0,
 "ad_org_id":0,
 "ad_role_id":0,
 "ad_window_id":50005,
 "created":"2016-07-01T00:55:39.667494",
 "createdby":0,
 "isactive":"Y",
 "isreadwrite":"Y",
 "updated":"2016-07-01T00:55:39.667494",
 "updatedby":0}, "children" : []},
 {"tablename" : "ad_window_access", "data" : {"ad_client_id":0,
 "ad_org_id":0,
 "ad_role_id":0,
 "ad_window_id":50006,
 "created":"2016-07-01T00:55:39.667494",
 "createdby":0,
 "isactive":"Y",
 "isreadwrite":"Y",
 "updated":"2016-07-01T00:55:39.667494",
 "updatedby":0}, "children" : []},
 {"tablename" : "ad_window_access", "data" : {"ad_client_id":0,
 "ad_org_id":0,
 "ad_role_id":0,
 "ad_window_id":50007,
 "created":"2016-07-01T00:55:39.667494",
 "createdby":0,
 "isactive":"Y",
 "isreadwrite":"Y",
 "updated":"2016-07-01T00:55:39.667494",
 "updatedby":0}, "children" : []},
 {"tablename" : "ad_window_access", "data" : {"ad_client_id":0,
 "ad_org_id":0,
 "ad_role_id":0,
 "ad_window_id":52000,
 "created":"2016-07-01T00:55:39.667494",
 "createdby":0,
 "isactive":"Y",
 "isreadwrite":"Y",
 "updated":"2016-07-01T00:55:39.667494",
 "updatedby":0}, "children" : []},
 {"tablename" : "ad_window_access", "data" : {"ad_client_id":0,
 "ad_org_id":0,
 "ad_role_id":0,
 "ad_window_id":52002,
 "created":"2016-07-01T00:55:39.667494",
 "createdby":0,
 "isactive":"Y",
 "isreadwrite":"Y",
 "updated":"2016-07-01T00:55:39.667494",
 "updatedby":0}, "children" : []},
 {"tablename" : "ad_window_access", "data" : {"ad_client_id":0,
 "ad_org_id":0,
 "ad_role_id":0,
 "ad_window_id":53003,
 "created":"2016-07-01T00:55:39.667494",
 "createdby":0,
 "isactive":"Y",
 "isreadwrite":"Y",
 "updated":"2016-07-01T00:55:39.667494",
 "updatedby":0}, "children" : []},
 {"tablename" : "ad_window_access", "data" : {"ad_client_id":0,
 "ad_org_id":0,
 "ad_role_id":0,
 "ad_window_id":53005,
 "created":"2016-07-01T00:55:39.667494",
 "createdby":0,
 "isactive":"Y",
 "isreadwrite":"Y",
 "updated":"2016-07-01T00:55:39.667494",
 "updatedby":0}, "children" : []},
 {"tablename" : "ad_window_access", "data" : {"ad_client_id":0,
 "ad_org_id":0,
 "ad_role_id":0,
 "ad_window_id":53008,
 "created":"2016-07-01T00:55:39.667494",
 "createdby":0,
 "isactive":"Y",
 "isreadwrite":"Y",
 "updated":"2016-07-01T00:55:39.667494",
 "updatedby":0}, "children" : []},
 {"tablename" : "ad_window_access", "data" : {"ad_client_id":0,
 "ad_org_id":0,
 "ad_role_id":0,
 "ad_window_id":53015,
 "created":"2016-07-01T00:55:39.667494",
 "createdby":0,
 "isactive":"Y",
 "isreadwrite":"Y",
 "updated":"2016-07-01T00:55:39.667494",
 "updatedby":0}, "children" : []},
 {"tablename" : "ad_window_access", "data" : {"ad_client_id":0,
 "ad_org_id":0,
 "ad_role_id":0,
 "ad_window_id":53017,
 "created":"2016-07-01T00:55:39.667494",
 "createdby":0,
 "isactive":"Y",
 "isreadwrite":"Y",
 "updated":"2016-07-01T00:55:39.667494",
 "updatedby":0}, "children" : []},
 {"tablename" : "ad_window_access", "data" : {"ad_client_id":0,
 "ad_org_id":0,
 "ad_role_id":0,
 "ad_window_id":53019,
 "created":"2016-07-01T00:55:39.667494",
 "createdby":0,
 "isactive":"Y",
 "isreadwrite":"Y",
 "updated":"2016-07-01T00:55:39.667494",
 "updatedby":0}, "children" : []},
 {"tablename" : "ad_window_access", "data" : {"ad_client_id":0,
 "ad_org_id":0,
 "ad_role_id":0,
 "ad_window_id":53036,
 "created":"2016-07-01T00:55:39.667494",
 "createdby":0,
 "isactive":"Y",
 "isreadwrite":"Y",
 "updated":"2016-07-01T00:55:39.667494",
 "updatedby":0}, "children" : []},
 {"tablename" : "ad_window_access", "data" : {"ad_client_id":0,
 "ad_org_id":0,
 "ad_role_id":0,
 "ad_window_id":53044,
 "created":"2016-07-01T00:55:39.667494",
 "createdby":0,
 "isactive":"Y",
 "isreadwrite":"Y",
 "updated":"2016-07-01T00:55:39.667494",
 "updatedby":0}, "children" : []},
 {"tablename" : "ad_window_access", "data" : {"ad_client_id":0,
 "ad_org_id":0,
 "ad_role_id":0,
 "ad_window_id":53045,
 "created":"2016-07-01T00:55:39.667494",
 "createdby":0,
 "isactive":"Y",
 "isreadwrite":"Y",
 "updated":"2016-07-01T00:55:39.667494",
 "updatedby":0}, "children" : []},
 {"tablename" : "ad_window_access", "data" : {"ad_client_id":0,
 "ad_org_id":0,
 "ad_role_id":0,
 "ad_window_id":53046,
 "created":"2016-07-01T00:55:39.667494",
 "createdby":0,
 "isactive":"Y",
 "isreadwrite":"Y",
 "updated":"2016-07-01T00:55:39.667494",
 "updatedby":0}, "children" : []},
 {"tablename" : "ad_window_access", "data" : {"ad_client_id":0,
 "ad_org_id":0,
 "ad_role_id":0,
 "ad_window_id":53047,
 "created":"2016-07-01T00:55:39.667494",
 "createdby":0,
 "isactive":"Y",
 "isreadwrite":"Y",
 "updated":"2016-07-01T00:55:39.667494",
 "updatedby":0}, "children" : []},
 {"tablename" : "ad_window_access", "data" : {"ad_client_id":0,
 "ad_org_id":0,
 "ad_role_id":0,
 "ad_window_id":53051,
 "created":"2016-07-01T00:55:39.667494",
 "createdby":0,
 "isactive":"Y",
 "isreadwrite":"Y",
 "updated":"2016-07-01T00:55:39.667494",
 "updatedby":0}, "children" : []},
 {"tablename" : "ad_window_access", "data" : {"ad_client_id":0,
 "ad_org_id":0,
 "ad_role_id":0,
 "ad_window_id":53052,
 "created":"2016-07-01T00:55:39.667494",
 "createdby":0,
 "isactive":"Y",
 "isreadwrite":"Y",
 "updated":"2016-07-01T00:55:39.667494",
 "updatedby":0}, "children" : []},
 {"tablename" : "ad_window_access", "data" : {"ad_client_id":0,
 "ad_org_id":0,
 "ad_role_id":0,
 "ad_window_id":53053,
 "created":"2016-07-01T00:55:39.667494",
 "createdby":0,
 "isactive":"Y",
 "isreadwrite":"Y",
 "updated":"2016-07-01T00:55:39.667494",
 "updatedby":0}, "children" : []},
 {"tablename" : "ad_window_access", "data" : {"ad_client_id":0,
 "ad_org_id":0,
 "ad_role_id":0,
 "ad_window_id":53054,
 "created":"2016-07-01T00:55:39.667494",
 "createdby":0,
 "isactive":"Y",
 "isreadwrite":"Y",
 "updated":"2016-07-01T00:55:39.667494",
 "updatedby":0}, "children" : []},
 {"tablename" : "ad_window_access", "data" : {"ad_client_id":0,
 "ad_org_id":0,
 "ad_role_id":0,
 "ad_window_id":53055,
 "created":"2016-07-01T00:55:39.667494",
 "createdby":0,
 "isactive":"Y",
 "isreadwrite":"Y",
 "updated":"2016-07-01T00:55:39.667494",
 "updatedby":0}, "children" : []},
 {"tablename" : "ad_window_access", "data" : {"ad_client_id":0,
 "ad_org_id":0,
 "ad_role_id":0,
 "ad_window_id":53056,
 "created":"2016-07-01T00:55:39.667494",
 "createdby":0,
 "isactive":"Y",
 "isreadwrite":"Y",
 "updated":"2016-07-01T00:55:39.667494",
 "updatedby":0}, "children" : []},
 {"tablename" : "ad_window_access", "data" : {"ad_client_id":0,
 "ad_org_id":0,
 "ad_role_id":0,
 "ad_window_id":53057,
 "created":"2016-07-01T00:55:39.667494",
 "createdby":0,
 "isactive":"Y",
 "isreadwrite":"Y",
 "updated":"2016-07-01T00:55:39.667494",
 "updatedby":0}, "children" : []},
 {"tablename" : "ad_window_access", "data" : {"ad_client_id":0,
 "ad_org_id":0,
 "ad_role_id":0,
 "ad_window_id":53058,
 "created":"2016-07-01T00:55:39.667494",
 "createdby":0,
 "isactive":"Y",
 "isreadwrite":"Y",
 "updated":"2016-07-01T00:55:39.667494",
 "updatedby":0}, "children" : []},
 {"tablename" : "ad_window_access", "data" : {"ad_client_id":0,
 "ad_org_id":0,
 "ad_role_id":0,
 "ad_window_id":53059,
 "created":"2016-07-01T00:55:39.667494",
 "createdby":0,
 "isactive":"Y",
 "isreadwrite":"Y",
 "updated":"2016-07-01T00:55:39.667494",
 "updatedby":0}, "children" : []},
 {"tablename" : "ad_window_access", "data" : {"ad_client_id":0,
 "ad_org_id":0,
 "ad_role_id":0,
 "ad_window_id":53060,
 "created":"2016-07-01T00:55:39.667494",
 "createdby":0,
 "isactive":"Y",
 "isreadwrite":"Y",
 "updated":"2016-07-01T00:55:39.667494",
 "updatedby":0}, "children" : []},
 {"tablename" : "ad_window_access", "data" : {"ad_client_id":0,
 "ad_org_id":0,
 "ad_role_id":0,
 "ad_window_id":53061,
 "created":"2016-07-01T00:55:39.667494",
 "createdby":0,
 "isactive":"Y",
 "isreadwrite":"Y",
 "updated":"2016-07-01T00:55:39.667494",
 "updatedby":0}, "children" : []},
 {"tablename" : "ad_window_access", "data" : {"ad_client_id":0,
 "ad_org_id":0,
 "ad_role_id":0,
 "ad_window_id":53063,
 "created":"2016-07-01T00:55:39.667494",
 "createdby":0,
 "isactive":"Y",
 "isreadwrite":"Y",
 "updated":"2016-07-01T00:55:39.667494",
 "updatedby":0}, "children" : []},
 {"tablename" : "ad_window_access", "data" : {"ad_client_id":0,
 "ad_org_id":0,
 "ad_role_id":0,
 "ad_window_id":53069,
 "created":"2016-07-01T00:55:39.667494",
 "createdby":0,
 "isactive":"Y",
 "isreadwrite":"Y",
 "updated":"2016-07-01T00:55:39.667494",
 "updatedby":0}, "children" : []},
 {"tablename" : "ad_window_access", "data" : {"ad_client_id":0,
 "ad_org_id":0,
 "ad_role_id":0,
 "ad_window_id":53084,
 "created":"2016-07-01T00:55:39.667494",
 "createdby":0,
 "isactive":"Y",
 "isreadwrite":"Y",
 "updated":"2016-07-01T00:55:39.667494",
 "updatedby":0}, "children" : []},
 {"tablename" : "ad_window_access", "data" : {"ad_client_id":0,
 "ad_org_id":0,
 "ad_role_id":0,
 "ad_window_id":53085,
 "created":"2016-07-01T00:55:39.667494",
 "createdby":0,
 "isactive":"Y",
 "isreadwrite":"Y",
 "updated":"2016-07-01T00:55:39.667494",
 "updatedby":0}, "children" : []},
 {"tablename" : "ad_window_access", "data" : {"ad_client_id":0,
 "ad_org_id":0,
 "ad_role_id":0,
 "ad_window_id":53088,
 "created":"2016-07-01T00:55:39.667494",
 "createdby":0,
 "isactive":"Y",
 "isreadwrite":"Y",
 "updated":"2016-07-01T00:55:39.667494",
 "updatedby":0}, "children" : []},
 {"tablename" : "ad_window_access", "data" : {"ad_client_id":0,
 "ad_org_id":0,
 "ad_role_id":0,
 "ad_window_id":53089,
 "created":"2016-07-01T00:55:39.667494",
 "createdby":0,
 "isactive":"Y",
 "isreadwrite":"Y",
 "updated":"2016-07-01T00:55:39.667494",
 "updatedby":0}, "children" : []},
 {"tablename" : "ad_window_access", "data" : {"ad_client_id":0,
 "ad_org_id":0,
 "ad_role_id":0,
 "ad_window_id":53100,
 "created":"2016-07-01T00:55:39.667494",
 "createdby":0,
 "isactive":"Y",
 "isreadwrite":"Y",
 "updated":"2016-07-01T00:55:39.667494",
 "updatedby":0}, "children" : []},
 {"tablename" : "ad_window_access", "data" : {"ad_client_id":0,
 "ad_org_id":0,
 "ad_role_id":0,
 "ad_window_id":53102,
 "created":"2016-07-01T00:55:39.667494",
 "createdby":0,
 "isactive":"Y",
 "isreadwrite":"Y",
 "updated":"2016-07-01T00:55:39.667494",
 "updatedby":0}, "children" : []},
 {"tablename" : "ad_window_access", "data" : {"ad_client_id":0,
 "ad_org_id":0,
 "ad_role_id":0,
 "ad_window_id":53124,
 "created":"2016-07-01T00:55:39.667494",
 "createdby":0,
 "isactive":"Y",
 "isreadwrite":"Y",
 "updated":"2016-07-01T00:55:39.667494",
 "updatedby":0}, "children" : []},
 {"tablename" : "ad_window_access", "data" : {"ad_client_id":0,
 "ad_org_id":0,
 "ad_role_id":0,
 "ad_window_id":53151,
 "created":"2016-07-01T00:55:39.667494",
 "createdby":0,
 "isactive":"Y",
 "isreadwrite":"Y",
 "updated":"2016-07-01T00:55:39.667494",
 "updatedby":0}, "children" : []},
 {"tablename" : "ad_window_access", "data" : {"ad_client_id":0,
 "ad_org_id":0,
 "ad_role_id":0,
 "ad_window_id":53152,
 "created":"2016-07-01T00:55:39.667494",
 "createdby":0,
 "isactive":"Y",
 "isreadwrite":"Y",
 "updated":"2016-07-01T00:55:39.667494",
 "updatedby":0}, "children" : []},
 {"tablename" : "ad_window_access", "data" : {"ad_client_id":0,
 "ad_org_id":0,
 "ad_role_id":0,
 "ad_window_id":53153,
 "created":"2016-07-01T00:55:39.667494",
 "createdby":0,
 "isactive":"Y",
 "isreadwrite":"Y",
 "updated":"2016-07-01T00:55:39.667494",
 "updatedby":0}, "children" : []},
 {"tablename" : "ad_window_access", "data" : {"ad_client_id":0,
 "ad_org_id":0,
 "ad_role_id":0,
 "ad_window_id":53172,
 "created":"2016-07-01T00:55:39.667494",
 "createdby":0,
 "isactive":"Y",
 "isreadwrite":"Y",
 "updated":"2016-07-01T00:55:39.667494",
 "updatedby":0}, "children" : []},
 {"tablename" : "ad_window_access", "data" : {"ad_client_id":0,
 "ad_org_id":0,
 "ad_role_id":0,
 "ad_window_id":53186,
 "created":"2016-07-01T00:55:39.667494",
 "createdby":0,
 "isactive":"Y",
 "isreadwrite":"Y",
 "updated":"2016-07-01T00:55:39.667494",
 "updatedby":0}, "children" : []},
 {"tablename" : "ad_window_access", "data" : {"ad_client_id":0,
 "ad_org_id":0,
 "ad_role_id":0,
 "ad_window_id":53192,
 "created":"2016-07-01T00:55:39.667494",
 "createdby":0,
 "isactive":"Y",
 "isreadwrite":"Y",
 "updated":"2016-07-01T00:55:39.667494",
 "updatedby":0}, "children" : []},
 {"tablename" : "ad_window_access", "data" : {"ad_client_id":0,
 "ad_org_id":0,
 "ad_role_id":0,
 "ad_window_id":53193,
 "created":"2016-07-01T00:55:39.667494",
 "createdby":0,
 "isactive":"Y",
 "isreadwrite":"Y",
 "updated":"2016-07-01T00:55:39.667494",
 "updatedby":0}, "children" : []},
 {"tablename" : "ad_window_access", "data" : {"ad_client_id":0,
 "ad_org_id":0,
 "ad_role_id":0,
 "ad_window_id":53194,
 "created":"2016-07-01T00:55:39.667494",
 "createdby":0,
 "isactive":"Y",
 "isreadwrite":"Y",
 "updated":"2016-07-01T00:55:39.667494",
 "updatedby":0}, "children" : []},
 {"tablename" : "ad_window_access", "data" : {"ad_client_id":0,
 "ad_org_id":0,
 "ad_role_id":0,
 "ad_window_id":53196,
 "created":"2016-07-01T00:55:39.667494",
 "createdby":0,
 "isactive":"Y",
 "isreadwrite":"Y",
 "updated":"2016-07-01T00:55:39.667494",
 "updatedby":0}, "children" : []},
 {"tablename" : "ad_window_access", "data" : {"ad_client_id":0,
 "ad_org_id":0,
 "ad_role_id":0,
 "ad_window_id":53197,
 "created":"2016-07-01T00:55:39.667494",
 "createdby":0,
 "isactive":"Y",
 "isreadwrite":"Y",
 "updated":"2016-07-01T00:55:39.667494",
 "updatedby":0}, "children" : []},
 {"tablename" : "ad_window_access", "data" : {"ad_client_id":0,
 "ad_org_id":0,
 "ad_role_id":0,
 "ad_window_id":53198,
 "created":"2016-07-01T00:55:39.667494",
 "createdby":0,
 "isactive":"Y",
 "isreadwrite":"Y",
 "updated":"2016-07-01T00:55:39.667494",
 "updatedby":0}, "children" : []},
 {"tablename" : "ad_window_access", "data" : {"ad_client_id":0,
 "ad_org_id":0,
 "ad_role_id":0,
 "ad_window_id":53386,
 "created":"2016-07-01T00:55:39.667494",
 "createdby":0,
 "isactive":"Y",
 "isreadwrite":"Y",
 "updated":"2016-07-01T00:55:39.667494",
 "updatedby":0}, "children" : []}]