[{"tablename" : "m_attributeset", "data" : {"m_attributeset_id":0,
 "name":"** Do not Change/Use **",
 "a_asset_group_id":null,
 "ad_client_id":0,
 "ad_org_id":0,
 "created":"2003-05-26T00:14:07",
 "createdby":0,
 "description":"** System Entity **",
 "guaranteedays":0,
 "isactive":"N",
 "isguaranteedate":"N",
 "isguaranteedatemandatory":"N",
 "isinstanceattribute":"N",
 "islot":"N",
 "islotmandatory":"N",
 "isserno":"N",
 "issernomandatory":"N",
 "linktoasset":"N",
 "lotchareoverwrite":null,
 "lotcharsoverwrite":null,
 "mandatorytype":"N",
 "m_lotctl_id":null,
 "m_sernoctl_id":null,
 "sernochareoverwrite":null,
 "sernocharsoverwrite":null,
 "updated":"2000-01-02T00:00:00",
 "updatedby":0}, "children" : []}]