[{"tablename" : "ad_element", "data" : {"ad_element_id":1601,
 "columnname":"PA_ReportColumn_ID",
 "ad_client_id":0,
 "ad_org_id":0,
 "ad_reference_id":13,
 "ad_reference_value_id":null,
 "created":"2001-05-09T21:20:17",
 "createdby":0,
 "description":"Column in Report",
 "entitytype":"Financial Reporting",
 "fieldlength":22,
 "help":null,
 "isactive":"Y",
 "name":"Report Column",
 "po_description":null,
 "po_help":null,
 "po_name":null,
 "po_printname":null,
 "printname":"Report Column",
 "updated":"2000-01-02T00:00:00",
 "updatedby":0}, "children" : []},
 {"tablename" : "ad_element", "data" : {"ad_element_id":1602,
 "columnname":"AmountType",
 "ad_client_id":0,
 "ad_org_id":0,
 "ad_reference_id":17,
 "ad_reference_value_id":235,
 "created":"2001-05-09T21:20:17",
 "createdby":0,
 "description":"Type of amount to report",
 "entitytype":"Financial Reporting",
 "fieldlength":2,
 "help":"You can choose between the total and period amounts as well as the balance or just the debit/credit amounts.",
 "isactive":"Y",
 "name":"Amount Type",
 "po_description":null,
 "po_help":null,
 "po_name":null,
 "po_printname":null,
 "printname":"Amt Type",
 "updated":"2000-01-02T00:00:00",
 "updatedby":0}, "children" : []},
 {"tablename" : "ad_element", "data" : {"ad_element_id":1605,
 "columnname":"CalculationType",
 "ad_client_id":0,
 "ad_org_id":0,
 "ad_reference_id":17,
 "ad_reference_value_id":236,
 "created":"2001-05-09T21:20:17",
 "createdby":0,
 "description":null,
 "entitytype":"Financial Reporting",
 "fieldlength":1,
 "help":null,
 "isactive":"Y",
 "name":"Calculation",
 "po_description":null,
 "po_help":null,
 "po_name":null,
 "po_printname":null,
 "printname":"Calculation",
 "updated":"2000-01-02T00:00:00",
 "updatedby":0}, "children" : []},
 {"tablename" : "ad_element", "data" : {"ad_element_id":1606,
 "columnname":"ColumnType",
 "ad_client_id":0,
 "ad_org_id":0,
 "ad_reference_id":17,
 "ad_reference_value_id":237,
 "created":"2001-05-09T21:20:17",
 "createdby":0,
 "description":null,
 "entitytype":"Financial Reporting",
 "fieldlength":1,
 "help":null,
 "isactive":"Y",
 "name":"Column Type",
 "po_description":null,
 "po_help":null,
 "po_name":null,
 "po_printname":null,
 "printname":"Column Type",
 "updated":"2008-03-23T20:46:19",
 "updatedby":100}, "children" : []},
 {"tablename" : "ad_element", "data" : {"ad_element_id":1607,
 "columnname":"CurrencyType",
 "ad_client_id":0,
 "ad_org_id":0,
 "ad_reference_id":17,
 "ad_reference_value_id":238,
 "created":"2001-05-09T21:20:17",
 "createdby":0,
 "description":null,
 "entitytype":"Financial Reporting",
 "fieldlength":1,
 "help":null,
 "isactive":"Y",
 "name":"Currency Type",
 "po_description":null,
 "po_help":null,
 "po_name":null,
 "po_printname":null,
 "printname":"Currency Type",
 "updated":"2000-01-02T00:00:00",
 "updatedby":0}, "children" : []},
 {"tablename" : "ad_element", "data" : {"ad_element_id":1608,
 "columnname":"IsAdhocConversion",
 "ad_client_id":0,
 "ad_org_id":0,
 "ad_reference_id":20,
 "ad_reference_value_id":null,
 "created":"2001-05-09T21:20:17",
 "createdby":0,
 "description":"Perform conversion for all amounts to currency",
 "entitytype":"Financial Reporting",
 "fieldlength":1,
 "help":"If a currency is selected, only this currency will be reported. If adhoc conversion is selected, all currencies are converted to the defined currency",
 "isactive":"Y",
 "name":"Adhoc Conversion",
 "po_description":null,
 "po_help":null,
 "po_name":null,
 "po_printname":null,
 "printname":"Adhoc Conversion",
 "updated":"2000-01-02T00:00:00",
 "updatedby":0}, "children" : []},
 {"tablename" : "ad_element", "data" : {"ad_element_id":1609,
 "columnname":"LineType",
 "ad_client_id":0,
 "ad_org_id":0,
 "ad_reference_id":17,
 "ad_reference_value_id":241,
 "created":"2001-05-09T21:20:17",
 "createdby":0,
 "description":null,
 "entitytype":"Financial Reporting",
 "fieldlength":1,
 "help":null,
 "isactive":"Y",
 "name":"Line Type",
 "po_description":null,
 "po_help":null,
 "po_name":null,
 "po_printname":null,
 "printname":"Line Type",
 "updated":"2000-01-02T00:00:00",
 "updatedby":0}, "children" : []},
 {"tablename" : "ad_element", "data" : {"ad_element_id":1610,
 "columnname":"Oper_1_ID",
 "ad_client_id":0,
 "ad_org_id":0,
 "ad_reference_id":18,
 "ad_reference_value_id":239,
 "created":"2001-05-09T21:20:17",
 "createdby":0,
 "description":"First operand for calculation",
 "entitytype":"Financial Reporting",
 "fieldlength":22,
 "help":null,
 "isactive":"Y",
 "name":"Operand 1",
 "po_description":null,
 "po_help":null,
 "po_name":null,
 "po_printname":null,
 "printname":"Operand 1",
 "updated":"2000-01-02T00:00:00",
 "updatedby":0}, "children" : []},
 {"tablename" : "ad_element", "data" : {"ad_element_id":1611,
 "columnname":"Oper_2_ID",
 "ad_client_id":0,
 "ad_org_id":0,
 "ad_reference_id":18,
 "ad_reference_value_id":239,
 "created":"2001-05-09T21:20:17",
 "createdby":0,
 "description":"Second operand for calculation",
 "entitytype":"Financial Reporting",
 "fieldlength":22,
 "help":null,
 "isactive":"Y",
 "name":"Operand 2",
 "po_description":null,
 "po_help":null,
 "po_name":null,
 "po_printname":null,
 "printname":"Operand 2",
 "updated":"2000-01-02T00:00:00",
 "updatedby":0}, "children" : []},
 {"tablename" : "ad_element", "data" : {"ad_element_id":1612,
 "columnname":"PA_Report_ID",
 "ad_client_id":0,
 "ad_org_id":0,
 "ad_reference_id":13,
 "ad_reference_value_id":null,
 "created":"2001-05-09T21:20:17",
 "createdby":0,
 "description":"Financial Report",
 "entitytype":"Financial Reporting",
 "fieldlength":22,
 "help":null,
 "isactive":"Y",
 "name":"Financial Report",
 "po_description":null,
 "po_help":null,
 "po_name":null,
 "po_printname":null,
 "printname":"Financial Report",
 "updated":"2000-01-02T00:00:00",
 "updatedby":0}, "children" : []},
 {"tablename" : "ad_element", "data" : {"ad_element_id":1613,
 "columnname":"PA_ReportColumnSet_ID",
 "ad_client_id":0,
 "ad_org_id":0,
 "ad_reference_id":19,
 "ad_reference_value_id":null,
 "created":"2001-05-09T21:20:17",
 "createdby":0,
 "description":"Collection of Columns for Report",
 "entitytype":"Financial Reporting",
 "fieldlength":22,
 "help":"The Report Column Set identifies the columns used in a Report.",
 "isactive":"Y",
 "name":"Report Column Set",
 "po_description":null,
 "po_help":null,
 "po_name":null,
 "po_printname":null,
 "printname":"Report Column Set",
 "updated":"2000-01-02T00:00:00",
 "updatedby":0}, "children" : []},
 {"tablename" : "ad_element", "data" : {"ad_element_id":1614,
 "columnname":"PA_ReportLine_ID",
 "ad_client_id":0,
 "ad_org_id":0,
 "ad_reference_id":13,
 "ad_reference_value_id":null,
 "created":"2001-05-09T21:20:17",
 "createdby":0,
 "description":null,
 "entitytype":"Financial Reporting",
 "fieldlength":22,
 "help":null,
 "isactive":"Y",
 "name":"Report Line",
 "po_description":null,
 "po_help":null,
 "po_name":null,
 "po_printname":null,
 "printname":"Report Line",
 "updated":"2000-01-02T00:00:00",
 "updatedby":0}, "children" : []},
 {"tablename" : "ad_element", "data" : {"ad_element_id":1615,
 "columnname":"PA_ReportLineSet_ID",
 "ad_client_id":0,
 "ad_org_id":0,
 "ad_reference_id":19,
 "ad_reference_value_id":null,
 "created":"2001-05-09T21:20:17",
 "createdby":0,
 "description":null,
 "entitytype":"Financial Reporting",
 "fieldlength":22,
 "help":null,
 "isactive":"Y",
 "name":"Report Line Set",
 "po_description":null,
 "po_help":null,
 "po_name":null,
 "po_printname":null,
 "printname":"Report Line Set",
 "updated":"2000-01-02T00:00:00",
 "updatedby":0}, "children" : []},
 {"tablename" : "ad_element", "data" : {"ad_element_id":1616,
 "columnname":"PA_ReportSource_ID",
 "ad_client_id":0,
 "ad_org_id":0,
 "ad_reference_id":13,
 "ad_reference_value_id":null,
 "created":"2001-05-09T21:20:17",
 "createdby":0,
 "description":"Restriction of what will be shown in Report Line",
 "entitytype":"Financial Reporting",
 "fieldlength":22,
 "help":null,
 "isactive":"Y",
 "name":"Report Source",
 "po_description":null,
 "po_help":null,
 "po_name":null,
 "po_printname":null,
 "printname":"Report Source",
 "updated":"2000-01-02T00:00:00",
 "updatedby":0}, "children" : []},
 {"tablename" : "ad_element", "data" : {"ad_element_id":1619,
 "columnname":"RelativePeriod",
 "ad_client_id":0,
 "ad_org_id":0,
 "ad_reference_id":22,
 "ad_reference_value_id":null,
 "created":"2001-05-09T21:20:17",
 "createdby":0,
 "description":"Period offset (0 is current)",
 "entitytype":"Financial Reporting",
 "fieldlength":22,
 "help":null,
 "isactive":"Y",
 "name":"Relative Period",
 "po_description":null,
 "po_help":null,
 "po_name":null,
 "po_printname":null,
 "printname":"Relative Period",
 "updated":"2000-01-02T00:00:00",
 "updatedby":0}, "children" : []},
 {"tablename" : "ad_element", "data" : {"ad_element_id":1954,
 "columnname":"Col_1",
 "ad_client_id":0,
 "ad_org_id":0,
 "ad_reference_id":12,
 "ad_reference_value_id":null,
 "created":"2003-02-05T14:40:34",
 "createdby":0,
 "description":null,
 "entitytype":"Financial Reporting",
 "fieldlength":22,
 "help":null,
 "isactive":"Y",
 "name":"Col_1",
 "po_description":null,
 "po_help":null,
 "po_name":null,
 "po_printname":null,
 "printname":"Col_1",
 "updated":"2008-03-23T21:03:47",
 "updatedby":100}, "children" : []},
 {"tablename" : "ad_element", "data" : {"ad_element_id":1955,
 "columnname":"Col_2",
 "ad_client_id":0,
 "ad_org_id":0,
 "ad_reference_id":12,
 "ad_reference_value_id":null,
 "created":"2003-02-05T14:40:34",
 "createdby":0,
 "description":null,
 "entitytype":"Financial Reporting",
 "fieldlength":22,
 "help":null,
 "isactive":"Y",
 "name":"Col_2",
 "po_description":null,
 "po_help":null,
 "po_name":null,
 "po_printname":null,
 "printname":"Col_2",
 "updated":"2008-03-23T21:03:49",
 "updatedby":100}, "children" : []},
 {"tablename" : "ad_element", "data" : {"ad_element_id":1956,
 "columnname":"Col_3",
 "ad_client_id":0,
 "ad_org_id":0,
 "ad_reference_id":12,
 "ad_reference_value_id":null,
 "created":"2003-02-05T14:40:34",
 "createdby":0,
 "description":null,
 "entitytype":"Financial Reporting",
 "fieldlength":22,
 "help":null,
 "isactive":"Y",
 "name":"Col_3",
 "po_description":null,
 "po_help":null,
 "po_name":null,
 "po_printname":null,
 "printname":"Col_3",
 "updated":"2008-03-23T21:03:50",
 "updatedby":100}, "children" : []},
 {"tablename" : "ad_element", "data" : {"ad_element_id":1957,
 "columnname":"Col_4",
 "ad_client_id":0,
 "ad_org_id":0,
 "ad_reference_id":12,
 "ad_reference_value_id":null,
 "created":"2003-02-05T14:40:34",
 "createdby":0,
 "description":null,
 "entitytype":"Financial Reporting",
 "fieldlength":22,
 "help":null,
 "isactive":"Y",
 "name":"Col_4",
 "po_description":null,
 "po_help":null,
 "po_name":null,
 "po_printname":null,
 "printname":"Col_4",
 "updated":"2008-03-23T21:03:51",
 "updatedby":100}, "children" : []},
 {"tablename" : "ad_element", "data" : {"ad_element_id":1958,
 "columnname":"Col_5",
 "ad_client_id":0,
 "ad_org_id":0,
 "ad_reference_id":12,
 "ad_reference_value_id":null,
 "created":"2003-02-05T14:40:34",
 "createdby":0,
 "description":null,
 "entitytype":"Financial Reporting",
 "fieldlength":22,
 "help":null,
 "isactive":"Y",
 "name":"Col_5",
 "po_description":null,
 "po_help":null,
 "po_name":null,
 "po_printname":null,
 "printname":"Col_5",
 "updated":"2008-03-23T21:03:52",
 "updatedby":100}, "children" : []},
 {"tablename" : "ad_element", "data" : {"ad_element_id":1959,
 "columnname":"Col_6",
 "ad_client_id":0,
 "ad_org_id":0,
 "ad_reference_id":12,
 "ad_reference_value_id":null,
 "created":"2003-02-05T14:40:34",
 "createdby":0,
 "description":null,
 "entitytype":"Financial Reporting",
 "fieldlength":22,
 "help":null,
 "isactive":"Y",
 "name":"Col_6",
 "po_description":null,
 "po_help":null,
 "po_name":null,
 "po_printname":null,
 "printname":"Col_6",
 "updated":"2008-03-23T21:03:54",
 "updatedby":100}, "children" : []},
 {"tablename" : "ad_element", "data" : {"ad_element_id":1960,
 "columnname":"Col_7",
 "ad_client_id":0,
 "ad_org_id":0,
 "ad_reference_id":12,
 "ad_reference_value_id":null,
 "created":"2003-02-05T14:40:34",
 "createdby":0,
 "description":null,
 "entitytype":"Financial Reporting",
 "fieldlength":22,
 "help":null,
 "isactive":"Y",
 "name":"Col_7",
 "po_description":null,
 "po_help":null,
 "po_name":null,
 "po_printname":null,
 "printname":"Col_7",
 "updated":"2008-03-23T21:03:55",
 "updatedby":100}, "children" : []},
 {"tablename" : "ad_element", "data" : {"ad_element_id":1961,
 "columnname":"Col_8",
 "ad_client_id":0,
 "ad_org_id":0,
 "ad_reference_id":12,
 "ad_reference_value_id":null,
 "created":"2003-02-05T14:40:34",
 "createdby":0,
 "description":null,
 "entitytype":"Financial Reporting",
 "fieldlength":22,
 "help":null,
 "isactive":"Y",
 "name":"Col_8",
 "po_description":null,
 "po_help":null,
 "po_name":null,
 "po_printname":null,
 "printname":"Col_8",
 "updated":"2008-03-23T21:03:57",
 "updatedby":100}, "children" : []},
 {"tablename" : "ad_element", "data" : {"ad_element_id":1962,
 "columnname":"Col_9",
 "ad_client_id":0,
 "ad_org_id":0,
 "ad_reference_id":12,
 "ad_reference_value_id":null,
 "created":"2003-02-05T14:40:34",
 "createdby":0,
 "description":null,
 "entitytype":"Financial Reporting",
 "fieldlength":22,
 "help":null,
 "isactive":"Y",
 "name":"Col_9",
 "po_description":null,
 "po_help":null,
 "po_name":null,
 "po_printname":null,
 "printname":"Col_9",
 "updated":"2000-01-02T00:00:00",
 "updatedby":0}, "children" : []},
 {"tablename" : "ad_element", "data" : {"ad_element_id":1963,
 "columnname":"Col_10",
 "ad_client_id":0,
 "ad_org_id":0,
 "ad_reference_id":12,
 "ad_reference_value_id":null,
 "created":"2003-02-05T14:40:34",
 "createdby":0,
 "description":null,
 "entitytype":"Financial Reporting",
 "fieldlength":22,
 "help":null,
 "isactive":"Y",
 "name":"Col_10",
 "po_description":null,
 "po_help":null,
 "po_name":null,
 "po_printname":null,
 "printname":"Col_10",
 "updated":"2000-01-02T00:00:00",
 "updatedby":0}, "children" : []},
 {"tablename" : "ad_element", "data" : {"ad_element_id":1964,
 "columnname":"Col_11",
 "ad_client_id":0,
 "ad_org_id":0,
 "ad_reference_id":12,
 "ad_reference_value_id":null,
 "created":"2003-02-05T14:40:34",
 "createdby":0,
 "description":null,
 "entitytype":"Financial Reporting",
 "fieldlength":22,
 "help":null,
 "isactive":"Y",
 "name":"Col_11",
 "po_description":null,
 "po_help":null,
 "po_name":null,
 "po_printname":null,
 "printname":"Col_11",
 "updated":"2000-01-02T00:00:00",
 "updatedby":0}, "children" : []},
 {"tablename" : "ad_element", "data" : {"ad_element_id":1965,
 "columnname":"Col_12",
 "ad_client_id":0,
 "ad_org_id":0,
 "ad_reference_id":12,
 "ad_reference_value_id":null,
 "created":"2003-02-05T14:40:34",
 "createdby":0,
 "description":null,
 "entitytype":"Financial Reporting",
 "fieldlength":22,
 "help":null,
 "isactive":"Y",
 "name":"Col_12",
 "po_description":null,
 "po_help":null,
 "po_name":null,
 "po_printname":null,
 "printname":"Col_12",
 "updated":"2000-01-02T00:00:00",
 "updatedby":0}, "children" : []},
 {"tablename" : "ad_element", "data" : {"ad_element_id":1966,
 "columnname":"Col_13",
 "ad_client_id":0,
 "ad_org_id":0,
 "ad_reference_id":12,
 "ad_reference_value_id":null,
 "created":"2003-02-05T14:40:34",
 "createdby":0,
 "description":null,
 "entitytype":"Financial Reporting",
 "fieldlength":22,
 "help":null,
 "isactive":"Y",
 "name":"Col_13",
 "po_description":null,
 "po_help":null,
 "po_name":null,
 "po_printname":null,
 "printname":"Col_13",
 "updated":"2000-01-02T00:00:00",
 "updatedby":0}, "children" : []},
 {"tablename" : "ad_element", "data" : {"ad_element_id":1967,
 "columnname":"Col_14",
 "ad_client_id":0,
 "ad_org_id":0,
 "ad_reference_id":12,
 "ad_reference_value_id":null,
 "created":"2003-02-05T14:40:34",
 "createdby":0,
 "description":null,
 "entitytype":"Financial Reporting",
 "fieldlength":22,
 "help":null,
 "isactive":"Y",
 "name":"Col_14",
 "po_description":null,
 "po_help":null,
 "po_name":null,
 "po_printname":null,
 "printname":"Col_14",
 "updated":"2000-01-02T00:00:00",
 "updatedby":0}, "children" : []},
 {"tablename" : "ad_element", "data" : {"ad_element_id":1968,
 "columnname":"Col_15",
 "ad_client_id":0,
 "ad_org_id":0,
 "ad_reference_id":12,
 "ad_reference_value_id":null,
 "created":"2003-02-05T14:40:34",
 "createdby":0,
 "description":null,
 "entitytype":"Financial Reporting",
 "fieldlength":22,
 "help":null,
 "isactive":"Y",
 "name":"Col_15",
 "po_description":null,
 "po_help":null,
 "po_name":null,
 "po_printname":null,
 "printname":"Col_15",
 "updated":"2000-01-02T00:00:00",
 "updatedby":0}, "children" : []},
 {"tablename" : "ad_element", "data" : {"ad_element_id":1969,
 "columnname":"Col_16",
 "ad_client_id":0,
 "ad_org_id":0,
 "ad_reference_id":12,
 "ad_reference_value_id":null,
 "created":"2003-02-05T14:40:34",
 "createdby":0,
 "description":null,
 "entitytype":"Financial Reporting",
 "fieldlength":22,
 "help":null,
 "isactive":"Y",
 "name":"Col_16",
 "po_description":null,
 "po_help":null,
 "po_name":null,
 "po_printname":null,
 "printname":"Col_16",
 "updated":"2000-01-02T00:00:00",
 "updatedby":0}, "children" : []},
 {"tablename" : "ad_element", "data" : {"ad_element_id":1970,
 "columnname":"Col_17",
 "ad_client_id":0,
 "ad_org_id":0,
 "ad_reference_id":12,
 "ad_reference_value_id":null,
 "created":"2003-02-05T14:40:34",
 "createdby":0,
 "description":null,
 "entitytype":"Financial Reporting",
 "fieldlength":22,
 "help":null,
 "isactive":"Y",
 "name":"Col_17",
 "po_description":null,
 "po_help":null,
 "po_name":null,
 "po_printname":null,
 "printname":"Col_17",
 "updated":"2000-01-02T00:00:00",
 "updatedby":0}, "children" : []},
 {"tablename" : "ad_element", "data" : {"ad_element_id":1971,
 "columnname":"Col_18",
 "ad_client_id":0,
 "ad_org_id":0,
 "ad_reference_id":12,
 "ad_reference_value_id":null,
 "created":"2003-02-05T14:40:34",
 "createdby":0,
 "description":null,
 "entitytype":"Financial Reporting",
 "fieldlength":22,
 "help":null,
 "isactive":"Y",
 "name":"Col_18",
 "po_description":null,
 "po_help":null,
 "po_name":null,
 "po_printname":null,
 "printname":"Col_18",
 "updated":"2000-01-02T00:00:00",
 "updatedby":0}, "children" : []},
 {"tablename" : "ad_element", "data" : {"ad_element_id":1972,
 "columnname":"Col_19",
 "ad_client_id":0,
 "ad_org_id":0,
 "ad_reference_id":12,
 "ad_reference_value_id":null,
 "created":"2003-02-05T14:40:34",
 "createdby":0,
 "description":null,
 "entitytype":"Financial Reporting",
 "fieldlength":22,
 "help":null,
 "isactive":"Y",
 "name":"Col_19",
 "po_description":null,
 "po_help":null,
 "po_name":null,
 "po_printname":null,
 "printname":"Col_19",
 "updated":"2000-01-02T00:00:00",
 "updatedby":0}, "children" : []},
 {"tablename" : "ad_element", "data" : {"ad_element_id":1973,
 "columnname":"Col_20",
 "ad_client_id":0,
 "ad_org_id":0,
 "ad_reference_id":12,
 "ad_reference_value_id":null,
 "created":"2003-02-05T14:40:34",
 "createdby":0,
 "description":null,
 "entitytype":"Financial Reporting",
 "fieldlength":22,
 "help":null,
 "isactive":"Y",
 "name":"Col_20",
 "po_description":null,
 "po_help":null,
 "po_name":null,
 "po_printname":null,
 "printname":"Col_20",
 "updated":"2000-01-02T00:00:00",
 "updatedby":0}, "children" : []},
 {"tablename" : "ad_element", "data" : {"ad_element_id":1982,
 "columnname":"LevelNo",
 "ad_client_id":0,
 "ad_org_id":0,
 "ad_reference_id":11,
 "ad_reference_value_id":null,
 "created":"2003-02-12T00:40:19",
 "createdby":0,
 "description":null,
 "entitytype":"Financial Reporting",
 "fieldlength":22,
 "help":null,
 "isactive":"Y",
 "name":"Level no",
 "po_description":null,
 "po_help":null,
 "po_name":null,
 "po_printname":null,
 "printname":"Level no",
 "updated":"2000-01-02T00:00:00",
 "updatedby":0}, "children" : []},
 {"tablename" : "ad_element", "data" : {"ad_element_id":1983,
 "columnname":"ListSources",
 "ad_client_id":0,
 "ad_org_id":0,
 "ad_reference_id":20,
 "ad_reference_value_id":null,
 "created":"2003-02-12T00:40:19",
 "createdby":0,
 "description":"List Report Line Sources",
 "entitytype":"Financial Reporting",
 "fieldlength":1,
 "help":"List the Source Accounts for Summary Accounts selected",
 "isactive":"Y",
 "name":"List Sources",
 "po_description":null,
 "po_help":null,
 "po_name":null,
 "po_printname":null,
 "printname":"List Sources",
 "updated":"2000-01-02T00:00:00",
 "updatedby":0}, "children" : []},
 {"tablename" : "ad_element", "data" : {"ad_element_id":1984,
 "columnname":"ListTrx",
 "ad_client_id":0,
 "ad_org_id":0,
 "ad_reference_id":20,
 "ad_reference_value_id":null,
 "created":"2003-02-12T00:40:19",
 "createdby":0,
 "description":"List the report transactions",
 "entitytype":"Financial Reporting",
 "fieldlength":1,
 "help":"List the transactions of the report source lines",
 "isactive":"Y",
 "name":"List Transactions",
 "po_description":null,
 "po_help":null,
 "po_name":null,
 "po_printname":null,
 "printname":"List Trx",
 "updated":"2000-01-02T00:00:00",
 "updatedby":0}, "children" : []},
 {"tablename" : "ad_element", "data" : {"ad_element_id":1985,
 "columnname":"Col_0",
 "ad_client_id":0,
 "ad_org_id":0,
 "ad_reference_id":12,
 "ad_reference_value_id":null,
 "created":"2003-02-14T14:30:39",
 "createdby":0,
 "description":null,
 "entitytype":"Financial Reporting",
 "fieldlength":22,
 "help":null,
 "isactive":"Y",
 "name":"Col_0",
 "po_description":null,
 "po_help":null,
 "po_name":null,
 "po_printname":null,
 "printname":"Col_0",
 "updated":"2000-01-02T00:00:00",
 "updatedby":0}, "children" : []},
 {"tablename" : "ad_element", "data" : {"ad_element_id":1986,
 "columnname":"Balance",
 "ad_client_id":0,
 "ad_org_id":0,
 "ad_reference_id":12,
 "ad_reference_value_id":null,
 "created":"2003-02-15T00:42:39",
 "createdby":0,
 "description":null,
 "entitytype":"Financial Reporting",
 "fieldlength":22,
 "help":null,
 "isactive":"Y",
 "name":"Balance",
 "po_description":null,
 "po_help":null,
 "po_name":null,
 "po_printname":null,
 "printname":"Balance",
 "updated":"2000-01-02T00:00:00",
 "updatedby":0}, "children" : []},
 {"tablename" : "ad_element", "data" : {"ad_element_id":2344,
 "columnname":"UpdateBalances",
 "ad_client_id":0,
 "ad_org_id":0,
 "ad_reference_id":null,
 "ad_reference_value_id":null,
 "created":"2004-01-16T22:05:22",
 "createdby":0,
 "description":"Update Accounting Balances first (not required for subsequent runs)",
 "entitytype":"Financial Reporting",
 "fieldlength":null,
 "help":null,
 "isactive":"Y",
 "name":"Update Balances",
 "po_description":null,
 "po_help":null,
 "po_name":null,
 "po_printname":null,
 "printname":"UpdateBalances",
 "updated":"2005-05-08T16:31:41",
 "updatedby":100}, "children" : []},
 {"tablename" : "ad_element", "data" : {"ad_element_id":2869,
 "columnname":"AD_Tree_Account_ID",
 "ad_client_id":0,
 "ad_org_id":0,
 "ad_reference_id":18,
 "ad_reference_value_id":184,
 "created":"2005-10-23T18:37:29",
 "createdby":100,
 "description":"Tree for Natural Account Tree",
 "entitytype":"Financial Reporting",
 "fieldlength":10,
 "help":null,
 "isactive":"Y",
 "name":"Account Tree",
 "po_description":null,
 "po_help":null,
 "po_name":null,
 "po_printname":null,
 "printname":"Account Tree",
 "updated":"2005-10-23T18:44:32",
 "updatedby":100}, "children" : []},
 {"tablename" : "ad_element", "data" : {"ad_element_id":53323,
 "columnname":"JasperProcessing",
 "ad_client_id":0,
 "ad_org_id":0,
 "ad_reference_id":28,
 "ad_reference_value_id":null,
 "created":"2008-01-07T21:40:17",
 "createdby":100,
 "description":null,
 "entitytype":"Financial Reporting",
 "fieldlength":1,
 "help":null,
 "isactive":"Y",
 "name":"Jasper Process Now",
 "po_description":null,
 "po_help":null,
 "po_name":null,
 "po_printname":null,
 "printname":"Jasper Process Now",
 "updated":"2008-01-07T21:40:17",
 "updatedby":100}, "children" : []},
 {"tablename" : "ad_element", "data" : {"ad_element_id":53657,
 "columnname":"IsIncludeNullsOrg",
 "ad_client_id":0,
 "ad_org_id":0,
 "ad_reference_id":20,
 "ad_reference_value_id":null,
 "created":"2008-07-10T16:40:08",
 "createdby":100,
 "description":"Include nulls in the selection of the organization",
 "entitytype":"Financial Reporting",
 "fieldlength":1,
 "help":null,
 "isactive":"Y",
 "name":"Include Nulls in Org",
 "po_description":null,
 "po_help":null,
 "po_name":null,
 "po_printname":null,
 "printname":"Include Nulls in Org",
 "updated":"2008-07-10T16:41:35",
 "updatedby":100}, "children" : []},
 {"tablename" : "ad_element", "data" : {"ad_element_id":53658,
 "columnname":"IsIncludeNullsElementValue",
 "ad_client_id":0,
 "ad_org_id":0,
 "ad_reference_id":20,
 "ad_reference_value_id":null,
 "created":"2008-07-10T16:41:22",
 "createdby":100,
 "description":"Include nulls in the selection of the account",
 "entitytype":"Financial Reporting",
 "fieldlength":1,
 "help":null,
 "isactive":"Y",
 "name":"Include Nulls in Account",
 "po_description":null,
 "po_help":null,
 "po_name":null,
 "po_printname":null,
 "printname":"Include Nulls in Account",
 "updated":"2008-07-10T16:41:22",
 "updatedby":100}, "children" : []},
 {"tablename" : "ad_element", "data" : {"ad_element_id":53659,
 "columnname":"IsIncludeNullsBPartner",
 "ad_client_id":0,
 "ad_org_id":0,
 "ad_reference_id":20,
 "ad_reference_value_id":null,
 "created":"2008-07-10T16:41:54",
 "createdby":100,
 "description":"Include nulls in the selection of the business partner",
 "entitytype":"Financial Reporting",
 "fieldlength":1,
 "help":null,
 "isactive":"Y",
 "name":"Include Nulls in BPartner",
 "po_description":null,
 "po_help":null,
 "po_name":null,
 "po_printname":null,
 "printname":"Include Nulls in BPartner",
 "updated":"2008-07-10T16:42:06",
 "updatedby":100}, "children" : []},
 {"tablename" : "ad_element", "data" : {"ad_element_id":53660,
 "columnname":"IsIncludeNullsProduct",
 "ad_client_id":0,
 "ad_org_id":0,
 "ad_reference_id":20,
 "ad_reference_value_id":null,
 "created":"2008-07-10T16:42:37",
 "createdby":100,
 "description":"Include nulls in the selection of the product",
 "entitytype":"Financial Reporting",
 "fieldlength":1,
 "help":null,
 "isactive":"Y",
 "name":"Include Nulls in Product",
 "po_description":null,
 "po_help":null,
 "po_name":null,
 "po_printname":null,
 "printname":"Include Nulls in Product",
 "updated":"2008-07-10T16:42:37",
 "updatedby":100}, "children" : []},
 {"tablename" : "ad_element", "data" : {"ad_element_id":53661,
 "columnname":"IsIncludeNullsLocation",
 "ad_client_id":0,
 "ad_org_id":0,
 "ad_reference_id":20,
 "ad_reference_value_id":null,
 "created":"2008-07-10T16:42:53",
 "createdby":100,
 "description":"Include nulls in the selection of the location",
 "entitytype":"Financial Reporting",
 "fieldlength":1,
 "help":null,
 "isactive":"Y",
 "name":"Include Nulls in Location",
 "po_description":null,
 "po_help":null,
 "po_name":null,
 "po_printname":null,
 "printname":"Include Nulls in Location",
 "updated":"2008-07-10T16:42:53",
 "updatedby":100}, "children" : []},
 {"tablename" : "ad_element", "data" : {"ad_element_id":53662,
 "columnname":"IsIncludeNullsProject",
 "ad_client_id":0,
 "ad_org_id":0,
 "ad_reference_id":20,
 "ad_reference_value_id":null,
 "created":"2008-07-10T16:43:13",
 "createdby":100,
 "description":"Include nulls in the selection of the project",
 "entitytype":"Financial Reporting",
 "fieldlength":1,
 "help":null,
 "isactive":"Y",
 "name":"Include Nulls in Project",
 "po_description":null,
 "po_help":null,
 "po_name":null,
 "po_printname":null,
 "printname":"Include Nulls in Project",
 "updated":"2008-07-10T16:43:13",
 "updatedby":100}, "children" : []},
 {"tablename" : "ad_element", "data" : {"ad_element_id":53663,
 "columnname":"IsIncludeNullsSalesRegion",
 "ad_client_id":0,
 "ad_org_id":0,
 "ad_reference_id":20,
 "ad_reference_value_id":null,
 "created":"2008-07-10T16:43:33",
 "createdby":100,
 "description":"Include nulls in the selection of the sales region",
 "entitytype":"Financial Reporting",
 "fieldlength":1,
 "help":null,
 "isactive":"Y",
 "name":"Include Nulls in Sales Region",
 "po_description":null,
 "po_help":null,
 "po_name":null,
 "po_printname":null,
 "printname":"Include Nulls in Sales Region",
 "updated":"2008-07-10T16:43:33",
 "updatedby":100}, "children" : []},
 {"tablename" : "ad_element", "data" : {"ad_element_id":53664,
 "columnname":"IsIncludeNullsActivity",
 "ad_client_id":0,
 "ad_org_id":0,
 "ad_reference_id":20,
 "ad_reference_value_id":null,
 "created":"2008-07-10T16:43:50",
 "createdby":100,
 "description":"Include nulls in the selection of the activity",
 "entitytype":"Financial Reporting",
 "fieldlength":1,
 "help":null,
 "isactive":"Y",
 "name":"Include Nulls in Activity",
 "po_description":null,
 "po_help":null,
 "po_name":null,
 "po_printname":null,
 "printname":"Include Nulls in Activity",
 "updated":"2008-07-10T16:43:50",
 "updatedby":100}, "children" : []},
 {"tablename" : "ad_element", "data" : {"ad_element_id":53665,
 "columnname":"IsIncludeNullsCampaign",
 "ad_client_id":0,
 "ad_org_id":0,
 "ad_reference_id":20,
 "ad_reference_value_id":null,
 "created":"2008-07-10T16:44:04",
 "createdby":100,
 "description":"Include nulls in the selection of the campaign",
 "entitytype":"Financial Reporting",
 "fieldlength":1,
 "help":null,
 "isactive":"Y",
 "name":"Include Nulls in Campaign",
 "po_description":null,
 "po_help":null,
 "po_name":null,
 "po_printname":null,
 "printname":"Include Nulls in Campaign",
 "updated":"2008-07-10T16:44:04",
 "updatedby":100}, "children" : []},
 {"tablename" : "ad_element", "data" : {"ad_element_id":53666,
 "columnname":"IsIncludeNullsUserElement1",
 "ad_client_id":0,
 "ad_org_id":0,
 "ad_reference_id":20,
 "ad_reference_value_id":null,
 "created":"2008-07-10T16:44:22",
 "createdby":100,
 "description":"Include nulls in the selection of the user element 1",
 "entitytype":"Financial Reporting",
 "fieldlength":1,
 "help":null,
 "isactive":"Y",
 "name":"Include Nulls in User Element 1",
 "po_description":null,
 "po_help":null,
 "po_name":null,
 "po_printname":null,
 "printname":"Include Nulls in User Element 1",
 "updated":"2008-07-10T16:44:22",
 "updatedby":100}, "children" : []},
 {"tablename" : "ad_element", "data" : {"ad_element_id":53667,
 "columnname":"IsIncludeNullsUserElement2",
 "ad_client_id":0,
 "ad_org_id":0,
 "ad_reference_id":20,
 "ad_reference_value_id":null,
 "created":"2008-07-10T16:44:30",
 "createdby":100,
 "description":"Include nulls in the selection of the user element 2",
 "entitytype":"Financial Reporting",
 "fieldlength":1,
 "help":null,
 "isactive":"Y",
 "name":"Include Nulls in User Element 2",
 "po_description":null,
 "po_help":null,
 "po_name":null,
 "po_printname":null,
 "printname":"Include Nulls in User Element 2",
 "updated":"2008-07-10T16:44:30",
 "updatedby":100}, "children" : []},
 {"tablename" : "ad_element", "data" : {"ad_element_id":53688,
 "columnname":"Factor",
 "ad_client_id":0,
 "ad_org_id":0,
 "ad_reference_id":17,
 "ad_reference_value_id":53285,
 "created":"2008-09-26T17:09:14",
 "createdby":100,
 "description":"Scaling factor.",
 "entitytype":"Financial Reporting",
 "fieldlength":1,
 "help":"Numbers are divided by the scaling factor for presentation.  E.g. 123,000 with a scaling factor of 1,000 will display as 123.",
 "isactive":"Y",
 "name":"Factor",
 "po_description":null,
 "po_help":null,
 "po_name":null,
 "po_printname":null,
 "printname":"Factor",
 "updated":"2008-09-26T17:09:14",
 "updatedby":100}, "children" : []},
 {"tablename" : "ad_element", "data" : {"ad_element_id":53716,
 "columnname":"IsIncludeNullsOrgTrx",
 "ad_client_id":0,
 "ad_org_id":0,
 "ad_reference_id":20,
 "ad_reference_value_id":null,
 "created":"2008-12-16T17:51:45",
 "createdby":0,
 "description":"Include nulls in the selection of the organization transaction",
 "entitytype":"Financial Reporting",
 "fieldlength":1,
 "help":null,
 "isactive":"Y",
 "name":"Include Nulls in Org Trx",
 "po_description":null,
 "po_help":null,
 "po_name":null,
 "po_printname":null,
 "printname":"Include Nulls in Org Trx",
 "updated":"2008-12-16T17:51:45",
 "updatedby":0}, "children" : []},
 {"tablename" : "ad_element", "data" : {"ad_element_id":53821,
 "columnname":"PA_ReportCube_ID",
 "ad_client_id":0,
 "ad_org_id":0,
 "ad_reference_id":13,
 "ad_reference_value_id":null,
 "created":"2009-05-14T11:48:36",
 "createdby":100,
 "description":"Define reporting cube for pre-calculation of summary accounting data.",
 "entitytype":"Financial Reporting",
 "fieldlength":22,
 "help":"Summary data will be generated for each period of the selected calendar, grouped by the selected dimensions..",
 "isactive":"Y",
 "name":"Report Cube",
 "po_description":null,
 "po_help":null,
 "po_name":null,
 "po_printname":null,
 "printname":"Report Cube",
 "updated":"2009-05-14T11:48:36",
 "updatedby":100}, "children" : []},
 {"tablename" : "ad_element", "data" : {"ad_element_id":53822,
 "columnname":"IsActivityDim",
 "ad_client_id":0,
 "ad_org_id":0,
 "ad_reference_id":20,
 "ad_reference_value_id":null,
 "created":"2009-05-14T11:52:58",
 "createdby":100,
 "description":"Include Activity as a cube dimension",
 "entitytype":"Financial Reporting",
 "fieldlength":1,
 "help":null,
 "isactive":"Y",
 "name":"Activity Dimension",
 "po_description":null,
 "po_help":null,
 "po_name":null,
 "po_printname":null,
 "printname":"Activity Dimension",
 "updated":"2009-05-14T11:52:58",
 "updatedby":100}, "children" : []},
 {"tablename" : "ad_element", "data" : {"ad_element_id":53823,
 "columnname":"IsOrgTrxDim",
 "ad_client_id":0,
 "ad_org_id":0,
 "ad_reference_id":20,
 "ad_reference_value_id":null,
 "created":"2009-05-14T11:53:34",
 "createdby":100,
 "description":"Include OrgTrx as a cube dimension",
 "entitytype":"Financial Reporting",
 "fieldlength":1,
 "help":null,
 "isactive":"Y",
 "name":"OrgTrx Dimension",
 "po_description":null,
 "po_help":null,
 "po_name":null,
 "po_printname":null,
 "printname":"OrgTrx Dimension",
 "updated":"2009-05-14T11:53:34",
 "updatedby":100}, "children" : []},
 {"tablename" : "ad_element", "data" : {"ad_element_id":53824,
 "columnname":"IsBPartnerDim",
 "ad_client_id":0,
 "ad_org_id":0,
 "ad_reference_id":20,
 "ad_reference_value_id":null,
 "created":"2009-05-14T11:54:24",
 "createdby":100,
 "description":"Include Business Partner as a cube dimension",
 "entitytype":"Financial Reporting",
 "fieldlength":1,
 "help":null,
 "isactive":"Y",
 "name":"Business Partner Dimension",
 "po_description":null,
 "po_help":null,
 "po_name":null,
 "po_printname":null,
 "printname":"Business Partner Dimension",
 "updated":"2009-05-14T11:54:24",
 "updatedby":100}, "children" : []},
 {"tablename" : "ad_element", "data" : {"ad_element_id":53825,
 "columnname":"IsCampaignDim",
 "ad_client_id":0,
 "ad_org_id":0,
 "ad_reference_id":20,
 "ad_reference_value_id":null,
 "created":"2009-05-14T11:55:01",
 "createdby":100,
 "description":"Include Campaign as a cube dimension",
 "entitytype":"Financial Reporting",
 "fieldlength":1,
 "help":null,
 "isactive":"Y",
 "name":"Campaign Dimension",
 "po_description":null,
 "po_help":null,
 "po_name":null,
 "po_printname":null,
 "printname":"Campaign Dimension",
 "updated":"2009-05-14T11:55:01",
 "updatedby":100}, "children" : []},
 {"tablename" : "ad_element", "data" : {"ad_element_id":53826,
 "columnname":"IsLocFromDim",
 "ad_client_id":0,
 "ad_org_id":0,
 "ad_reference_id":20,
 "ad_reference_value_id":null,
 "created":"2009-05-14T11:55:32",
 "createdby":100,
 "description":"Include Location From as a cube dimension",
 "entitytype":"Financial Reporting",
 "fieldlength":1,
 "help":null,
 "isactive":"Y",
 "name":"Location From Dimension",
 "po_description":null,
 "po_help":null,
 "po_name":null,
 "po_printname":null,
 "printname":"Location From Dimension",
 "updated":"2009-05-14T11:55:32",
 "updatedby":100}, "children" : []},
 {"tablename" : "ad_element", "data" : {"ad_element_id":53827,
 "columnname":"IsLocToDim",
 "ad_client_id":0,
 "ad_org_id":0,
 "ad_reference_id":20,
 "ad_reference_value_id":null,
 "created":"2009-05-14T11:55:53",
 "createdby":100,
 "description":"Include Location To as a cube dimension",
 "entitytype":"Financial Reporting",
 "fieldlength":1,
 "help":null,
 "isactive":"Y",
 "name":"Location To  Dimension",
 "po_description":null,
 "po_help":null,
 "po_name":null,
 "po_printname":null,
 "printname":"Location To Dimension",
 "updated":"2009-05-14T11:55:53",
 "updatedby":100}, "children" : []},
 {"tablename" : "ad_element", "data" : {"ad_element_id":53828,
 "columnname":"IsProjectPhaseDim",
 "ad_client_id":0,
 "ad_org_id":0,
 "ad_reference_id":20,
 "ad_reference_value_id":null,
 "created":"2009-05-14T11:56:31",
 "createdby":100,
 "description":"Include Project Phase as a cube dimension",
 "entitytype":"Financial Reporting",
 "fieldlength":1,
 "help":null,
 "isactive":"Y",
 "name":"Project Phase  Dimension",
 "po_description":null,
 "po_help":null,
 "po_name":null,
 "po_printname":null,
 "printname":"Project Phase Dimension",
 "updated":"2009-05-14T11:56:31",
 "updatedby":100}, "children" : []},
 {"tablename" : "ad_element", "data" : {"ad_element_id":53829,
 "columnname":"IsProjectTaskDim",
 "ad_client_id":0,
 "ad_org_id":0,
 "ad_reference_id":20,
 "ad_reference_value_id":null,
 "created":"2009-05-14T11:56:59",
 "createdby":100,
 "description":"Include Project Task as a cube dimension",
 "entitytype":"Financial Reporting",
 "fieldlength":1,
 "help":null,
 "isactive":"Y",
 "name":"Project Task  Dimension",
 "po_description":null,
 "po_help":null,
 "po_name":null,
 "po_printname":null,
 "printname":"Project Task Dimension",
 "updated":"2009-05-14T11:56:59",
 "updatedby":100}, "children" : []},
 {"tablename" : "ad_element", "data" : {"ad_element_id":53830,
 "columnname":"IsProjectDim",
 "ad_client_id":0,
 "ad_org_id":0,
 "ad_reference_id":20,
 "ad_reference_value_id":null,
 "created":"2009-05-14T11:57:24",
 "createdby":100,
 "description":"Include Project as a cube dimension",
 "entitytype":"Financial Reporting",
 "fieldlength":1,
 "help":null,
 "isactive":"Y",
 "name":"Project Dimension",
 "po_description":null,
 "po_help":null,
 "po_name":null,
 "po_printname":null,
 "printname":"Project Dimension",
 "updated":"2009-05-14T11:57:24",
 "updatedby":100}, "children" : []},
 {"tablename" : "ad_element", "data" : {"ad_element_id":53831,
 "columnname":"IsSalesRegionDim",
 "ad_client_id":0,
 "ad_org_id":0,
 "ad_reference_id":20,
 "ad_reference_value_id":null,
 "created":"2009-05-14T11:58:00",
 "createdby":100,
 "description":"Include Sales Region as a cube dimension",
 "entitytype":"Financial Reporting",
 "fieldlength":1,
 "help":null,
 "isactive":"Y",
 "name":"Sales Region Dimension",
 "po_description":null,
 "po_help":null,
 "po_name":null,
 "po_printname":null,
 "printname":"Sales Region Dimension",
 "updated":"2009-05-14T11:58:00",
 "updatedby":100}, "children" : []},
 {"tablename" : "ad_element", "data" : {"ad_element_id":53832,
 "columnname":"IsSubAcctDim",
 "ad_client_id":0,
 "ad_org_id":0,
 "ad_reference_id":20,
 "ad_reference_value_id":null,
 "created":"2009-05-14T11:58:42",
 "createdby":100,
 "description":"Include Sub Acct as a cube dimension",
 "entitytype":"Financial Reporting",
 "fieldlength":1,
 "help":null,
 "isactive":"Y",
 "name":"Sub Acct Dimension",
 "po_description":null,
 "po_help":null,
 "po_name":null,
 "po_printname":null,
 "printname":"Sub Acct Dimension",
 "updated":"2009-05-14T11:58:42",
 "updatedby":100}, "children" : []},
 {"tablename" : "ad_element", "data" : {"ad_element_id":53833,
 "columnname":"IsGLBudgetDim",
 "ad_client_id":0,
 "ad_org_id":0,
 "ad_reference_id":20,
 "ad_reference_value_id":null,
 "created":"2009-05-14T11:59:24",
 "createdby":100,
 "description":"Include GL Budget as a cube dimension",
 "entitytype":"Financial Reporting",
 "fieldlength":1,
 "help":null,
 "isactive":"Y",
 "name":"GL Budget Dimension",
 "po_description":null,
 "po_help":null,
 "po_name":null,
 "po_printname":null,
 "printname":"GL Budget Dimension",
 "updated":"2009-05-14T11:59:24",
 "updatedby":100}, "children" : []},
 {"tablename" : "ad_element", "data" : {"ad_element_id":53834,
 "columnname":"IsProductDim",
 "ad_client_id":0,
 "ad_org_id":0,
 "ad_reference_id":20,
 "ad_reference_value_id":null,
 "created":"2009-05-14T11:59:55",
 "createdby":100,
 "description":"Include Product as a cube dimension",
 "entitytype":"Financial Reporting",
 "fieldlength":1,
 "help":null,
 "isactive":"Y",
 "name":"Product Dimension",
 "po_description":null,
 "po_help":null,
 "po_name":null,
 "po_printname":null,
 "printname":"Product Dimension",
 "updated":"2009-05-14T11:59:55",
 "updatedby":100}, "children" : []},
 {"tablename" : "ad_element", "data" : {"ad_element_id":53835,
 "columnname":"IsUser1Dim",
 "ad_client_id":0,
 "ad_org_id":0,
 "ad_reference_id":20,
 "ad_reference_value_id":null,
 "created":"2009-05-14T12:00:27",
 "createdby":100,
 "description":"Include User 1 as a cube dimension",
 "entitytype":"Financial Reporting",
 "fieldlength":1,
 "help":null,
 "isactive":"Y",
 "name":"User 1 Dimension",
 "po_description":null,
 "po_help":null,
 "po_name":null,
 "po_printname":null,
 "printname":"User 1 Dimension",
 "updated":"2009-05-14T12:00:27",
 "updatedby":100}, "children" : []},
 {"tablename" : "ad_element", "data" : {"ad_element_id":53836,
 "columnname":"IsUser2Dim",
 "ad_client_id":0,
 "ad_org_id":0,
 "ad_reference_id":20,
 "ad_reference_value_id":null,
 "created":"2009-05-14T12:02:03",
 "createdby":100,
 "description":"Include User 2 as a cube dimension",
 "entitytype":"Financial Reporting",
 "fieldlength":1,
 "help":null,
 "isactive":"Y",
 "name":"User 2 Dimension",
 "po_description":null,
 "po_help":null,
 "po_name":null,
 "po_printname":null,
 "printname":"User 2 Dimension",
 "updated":"2009-05-14T12:02:03",
 "updatedby":100}, "children" : []},
 {"tablename" : "ad_element", "data" : {"ad_element_id":53837,
 "columnname":"LastRecalculated",
 "ad_client_id":0,
 "ad_org_id":0,
 "ad_reference_id":16,
 "ad_reference_value_id":null,
 "created":"2009-05-19T23:25:04",
 "createdby":100,
 "description":"The time last recalculated.",
 "entitytype":"Financial Reporting",
 "fieldlength":7,
 "help":null,
 "isactive":"Y",
 "name":"Last Recalculated",
 "po_description":null,
 "po_help":null,
 "po_name":null,
 "po_printname":null,
 "printname":"Last Recalculated",
 "updated":"2009-05-19T23:25:04",
 "updatedby":100}, "children" : []},
 {"tablename" : "ad_element", "data" : {"ad_element_id":53897,
 "columnname":"IsUserElement2Dim",
 "ad_client_id":0,
 "ad_org_id":0,
 "ad_reference_id":20,
 "ad_reference_value_id":null,
 "created":"2009-08-02T22:41:33",
 "createdby":100,
 "description":"Include User Element 2 as a cube dimension",
 "entitytype":"Financial Reporting",
 "fieldlength":1,
 "help":null,
 "isactive":"Y",
 "name":"User Element 2 Dimension",
 "po_description":null,
 "po_help":null,
 "po_name":null,
 "po_printname":null,
 "printname":"User Element 2 Dimension",
 "updated":"2009-08-02T22:44:15",
 "updatedby":100}, "children" : []},
 {"tablename" : "ad_element", "data" : {"ad_element_id":53898,
 "columnname":"IsUserElement1Dim",
 "ad_client_id":0,
 "ad_org_id":0,
 "ad_reference_id":20,
 "ad_reference_value_id":null,
 "created":"2009-08-02T22:44:08",
 "createdby":100,
 "description":"Include User Element 1 as a cube dimension",
 "entitytype":"Financial Reporting",
 "fieldlength":1,
 "help":null,
 "isactive":"Y",
 "name":"User Element 1 Dimension",
 "po_description":null,
 "po_help":null,
 "po_name":null,
 "po_printname":null,
 "printname":"User Element 1 Dimension",
 "updated":"2009-08-02T22:44:08",
 "updatedby":100}, "children" : []},
 {"tablename" : "ad_element", "data" : {"ad_element_id":54061,
 "columnname":"PAPeriodType",
 "ad_client_id":0,
 "ad_org_id":0,
 "ad_reference_id":17,
 "ad_reference_value_id":53327,
 "created":"2009-10-02T11:52:35",
 "createdby":100,
 "description":"PA Period Type",
 "entitytype":"Financial Reporting",
 "fieldlength":1,
 "help":"The Period Type to report on: Period, Year, Total or Natural. Natural = Year for P & L accounts, Total for Balance Sheet accounts.",
 "isactive":"Y",
 "name":"Period Type",
 "po_description":null,
 "po_help":null,
 "po_name":null,
 "po_printname":null,
 "printname":"Period Type",
 "updated":"2009-10-02T11:56:58",
 "updatedby":100}, "children" : []},
 {"tablename" : "ad_element", "data" : {"ad_element_id":54062,
 "columnname":"PAAmountType",
 "ad_client_id":0,
 "ad_org_id":0,
 "ad_reference_id":17,
 "ad_reference_value_id":53328,
 "created":"2009-10-02T11:56:46",
 "createdby":100,
 "description":"PA Amount Type for reporting",
 "entitytype":"Financial Reporting",
 "fieldlength":1,
 "help":"The amount type to report on: Quantity, Credit Only, Debit Only, Balance (expected sign) or Balance (accounted sign). \"Expected sign\" adjusts the sign of the result based on the Account Type and Expected Sign of each Account Element, whereas \"accounted sign\" always returns DR-CR.",
 "isactive":"Y",
 "name":"Amount Type",
 "po_description":null,
 "po_help":null,
 "po_name":null,
 "po_printname":null,
 "printname":"Amount Type",
 "updated":"2009-10-02T12:01:36",
 "updatedby":100}, "children" : []},
 {"tablename" : "ad_element", "data" : {"ad_element_id":57154,
 "columnname":"AD_PrintFormatHeader_ID",
 "ad_client_id":0,
 "ad_org_id":0,
 "ad_reference_id":null,
 "ad_reference_value_id":null,
 "created":"2014-05-16T15:46:18",
 "createdby":100,
 "description":null,
 "entitytype":"Financial Reporting",
 "fieldlength":null,
 "help":null,
 "isactive":"Y",
 "name":"Header Print Format",
 "po_description":null,
 "po_help":null,
 "po_name":null,
 "po_printname":null,
 "printname":"Header Print Format",
 "updated":"2014-05-16T15:46:18",
 "updatedby":100}, "children" : []},
 {"tablename" : "ad_element", "data" : {"ad_element_id":57235,
 "columnname":"IsIncludeNullsUserList1",
 "ad_client_id":0,
 "ad_org_id":0,
 "ad_reference_id":null,
 "ad_reference_value_id":null,
 "created":"2015-04-27T17:09:06",
 "createdby":100,
 "description":"Include nulls in the selection of the User List 1",
 "entitytype":"Financial Reporting",
 "fieldlength":null,
 "help":null,
 "isactive":"Y",
 "name":"Include Nulls in User List 1",
 "po_description":null,
 "po_help":null,
 "po_name":null,
 "po_printname":null,
 "printname":"Include Nulls in User List 1",
 "updated":"2015-04-27T17:09:06",
 "updatedby":100}, "children" : []},
 {"tablename" : "ad_element", "data" : {"ad_element_id":57236,
 "columnname":"IsIncludeNullsUserList2",
 "ad_client_id":0,
 "ad_org_id":0,
 "ad_reference_id":null,
 "ad_reference_value_id":null,
 "created":"2015-04-27T17:09:34",
 "createdby":100,
 "description":"Include nulls in the selection of the User List 2",
 "entitytype":"Financial Reporting",
 "fieldlength":null,
 "help":null,
 "isactive":"Y",
 "name":"Include Nulls in User List 2",
 "po_description":null,
 "po_help":null,
 "po_name":null,
 "po_printname":null,
 "printname":"Include Nulls in User List 2",
 "updated":"2015-04-27T17:09:34",
 "updatedby":100}, "children" : []},
 {"tablename" : "ad_element", "data" : {"ad_element_id":57912,
 "columnname":"RelativePeriodTo",
 "ad_client_id":0,
 "ad_org_id":0,
 "ad_reference_id":null,
 "ad_reference_value_id":null,
 "created":"2015-03-21T10:07:35",
 "createdby":100,
 "description":"Period offset (0 is current)",
 "entitytype":"Financial Reporting",
 "fieldlength":null,
 "help":null,
 "isactive":"Y",
 "name":"Relative Period To",
 "po_description":null,
 "po_help":null,
 "po_name":null,
 "po_printname":null,
 "printname":"Relative Period To",
 "updated":"2015-03-21T10:07:35",
 "updatedby":100}, "children" : []},
 {"tablename" : "ad_element", "data" : {"ad_element_id":58112,
 "columnname":"sellqty",
 "ad_client_id":0,
 "ad_org_id":0,
 "ad_reference_id":null,
 "ad_reference_value_id":null,
 "created":"2015-08-03T12:37:11",
 "createdby":100,
 "description":null,
 "entitytype":"Financial Reporting",
 "fieldlength":null,
 "help":null,
 "isactive":"Y",
 "name":"sellqty",
 "po_description":null,
 "po_help":null,
 "po_name":null,
 "po_printname":null,
 "printname":"sellqty",
 "updated":"2015-08-03T12:37:11",
 "updatedby":100}, "children" : []},
 {"tablename" : "ad_element", "data" : {"ad_element_id":58113,
 "columnname":"unitsellprice",
 "ad_client_id":0,
 "ad_org_id":0,
 "ad_reference_id":null,
 "ad_reference_value_id":null,
 "created":"2015-08-03T12:37:13",
 "createdby":100,
 "description":null,
 "entitytype":"Financial Reporting",
 "fieldlength":null,
 "help":null,
 "isactive":"Y",
 "name":"unitsellprice",
 "po_description":null,
 "po_help":null,
 "po_name":null,
 "po_printname":null,
 "printname":"unitsellprice",
 "updated":"2015-08-03T12:37:13",
 "updatedby":100}, "children" : []},
 {"tablename" : "ad_element", "data" : {"ad_element_id":58114,
 "columnname":"extended_sell_price",
 "ad_client_id":0,
 "ad_org_id":0,
 "ad_reference_id":null,
 "ad_reference_value_id":null,
 "created":"2015-08-03T12:37:15",
 "createdby":100,
 "description":null,
 "entitytype":"Financial Reporting",
 "fieldlength":null,
 "help":null,
 "isactive":"Y",
 "name":"extended_sell_price",
 "po_description":null,
 "po_help":null,
 "po_name":null,
 "po_printname":null,
 "printname":"extended_sell_price",
 "updated":"2015-08-03T12:37:15",
 "updatedby":100}, "children" : []},
 {"tablename" : "ad_element", "data" : {"ad_element_id":58115,
 "columnname":"invoicing_desc",
 "ad_client_id":0,
 "ad_org_id":0,
 "ad_reference_id":null,
 "ad_reference_value_id":null,
 "created":"2015-08-03T12:37:17",
 "createdby":100,
 "description":null,
 "entitytype":"Financial Reporting",
 "fieldlength":null,
 "help":null,
 "isactive":"Y",
 "name":"invoicing_desc",
 "po_description":null,
 "po_help":null,
 "po_name":null,
 "po_printname":null,
 "printname":"invoicing_desc",
 "updated":"2015-08-03T12:37:17",
 "updatedby":100}, "children" : []},
 {"tablename" : "ad_element", "data" : {"ad_element_id":58305,
 "columnname":"borp",
 "ad_client_id":0,
 "ad_org_id":0,
 "ad_reference_id":null,
 "ad_reference_value_id":null,
 "created":"2015-08-30T19:54:41",
 "createdby":0,
 "description":null,
 "entitytype":"Financial Reporting",
 "fieldlength":null,
 "help":null,
 "isactive":"Y",
 "name":"borp",
 "po_description":null,
 "po_help":null,
 "po_name":null,
 "po_printname":null,
 "printname":"borp",
 "updated":"2015-08-30T19:54:41",
 "updatedby":0}, "children" : []},
 {"tablename" : "ad_element", "data" : {"ad_element_id":58309,
 "columnname":"UnderlineStrokeType",
 "ad_client_id":0,
 "ad_org_id":0,
 "ad_reference_id":null,
 "ad_reference_value_id":null,
 "created":"2015-09-09T16:25:04",
 "createdby":100,
 "description":null,
 "entitytype":"Financial Reporting",
 "fieldlength":null,
 "help":null,
 "isactive":"Y",
 "name":"Underline Stroke Type",
 "po_description":null,
 "po_help":null,
 "po_name":null,
 "po_printname":null,
 "printname":"Underline Stroke Type",
 "updated":"2015-09-09T16:25:04",
 "updatedby":100}, "children" : []},
 {"tablename" : "ad_element", "data" : {"ad_element_id":58310,
 "columnname":"OverlineStrokeType",
 "ad_client_id":0,
 "ad_org_id":0,
 "ad_reference_id":null,
 "ad_reference_value_id":null,
 "created":"2015-09-09T16:25:37",
 "createdby":100,
 "description":null,
 "entitytype":"Financial Reporting",
 "fieldlength":null,
 "help":null,
 "isactive":"Y",
 "name":"Overline Stroke Type",
 "po_description":null,
 "po_help":null,
 "po_name":null,
 "po_printname":null,
 "printname":"Overline Stroke Type",
 "updated":"2015-09-09T16:25:37",
 "updatedby":100}, "children" : []}]