[{"tablename" : "ad_element", "data" : {"ad_element_id":233,
 "columnname":"ControlAmt",
 "ad_client_id":0,
 "ad_org_id":0,
 "ad_reference_id":12,
 "ad_reference_value_id":null,
 "created":"1999-11-19T10:07:43",
 "createdby":0,
 "description":"If not zero, the Debit amount of the document must be equal this amount",
 "entitytype":"Performance Analysis",
 "fieldlength":22,
 "help":"If the control amount is zero, no check is performed.\nOtherwise the total Debit amount must be equal to the control amount, before the document is processed.",
 "isactive":"Y",
 "name":"Control Amount",
 "po_description":null,
 "po_help":null,
 "po_name":null,
 "po_printname":null,
 "printname":"Control Amt",
 "updated":"2000-01-02T00:00:00",
 "updatedby":0}, "children" : []},
 {"tablename" : "ad_element", "data" : {"ad_element_id":253,
 "columnname":"CurrencyRate",
 "ad_client_id":0,
 "ad_org_id":0,
 "ad_reference_id":22,
 "ad_reference_value_id":null,
 "created":"1999-11-19T10:07:43",
 "createdby":0,
 "description":"Currency Conversion Rate",
 "entitytype":"Performance Analysis",
 "fieldlength":22,
 "help":"The Currency Conversion Rate indicates the rate to use when converting the source currency to the accounting currency",
 "isactive":"Y",
 "name":"Rate",
 "po_description":null,
 "po_help":null,
 "po_name":null,
 "po_printname":null,
 "printname":"Rate",
 "updated":"2000-01-02T00:00:00",
 "updatedby":0}, "children" : []},
 {"tablename" : "ad_element", "data" : {"ad_element_id":314,
 "columnname":"GL_JournalLine_ID",
 "ad_client_id":0,
 "ad_org_id":0,
 "ad_reference_id":13,
 "ad_reference_value_id":null,
 "created":"1999-11-19T10:07:43",
 "createdby":0,
 "description":"General Ledger Journal Line",
 "entitytype":"Performance Analysis",
 "fieldlength":22,
 "help":"The General Ledger Journal Line identifies a single transaction in a journal.",
 "isactive":"Y",
 "name":"Journal Line",
 "po_description":null,
 "po_help":null,
 "po_name":null,
 "po_printname":null,
 "printname":"Journal Line",
 "updated":"2000-01-02T00:00:00",
 "updatedby":0}, "children" : []},
 {"tablename" : "ad_element", "data" : {"ad_element_id":380,
 "columnname":"IsGenerated",
 "ad_client_id":0,
 "ad_org_id":0,
 "ad_reference_id":20,
 "ad_reference_value_id":null,
 "created":"1999-11-19T10:07:43",
 "createdby":0,
 "description":"This Line is generated",
 "entitytype":"Performance Analysis",
 "fieldlength":1,
 "help":"The Generated checkbox identifies a journal line that was generated from a source document.  Lines could also be entered manually or imported.",
 "isactive":"Y",
 "name":"Generated",
 "po_description":null,
 "po_help":null,
 "po_name":null,
 "po_printname":null,
 "printname":"Generated",
 "updated":"2000-01-02T00:00:00",
 "updatedby":0}, "children" : []},
 {"tablename" : "ad_element", "data" : {"ad_element_id":596,
 "columnname":"TotalCr",
 "ad_client_id":0,
 "ad_org_id":0,
 "ad_reference_id":12,
 "ad_reference_value_id":null,
 "created":"1999-11-19T10:07:43",
 "createdby":0,
 "description":"Total Credit in document currency",
 "entitytype":"Performance Analysis",
 "fieldlength":22,
 "help":"The Total Credit indicates the total credit amount for a journal or journal batch in the source currency",
 "isactive":"Y",
 "name":"Total Credit",
 "po_description":null,
 "po_help":null,
 "po_name":null,
 "po_printname":null,
 "printname":"Total Credit",
 "updated":"2000-01-02T00:00:00",
 "updatedby":0}, "children" : []},
 {"tablename" : "ad_element", "data" : {"ad_element_id":597,
 "columnname":"TotalDr",
 "ad_client_id":0,
 "ad_org_id":0,
 "ad_reference_id":12,
 "ad_reference_value_id":null,
 "created":"1999-11-19T10:07:43",
 "createdby":0,
 "description":"Total debit in document currency",
 "entitytype":"Performance Analysis",
 "fieldlength":22,
 "help":"The Total Debit indicates the total debit amount for a journal or journal batch in the source currency",
 "isactive":"Y",
 "name":"Total Debit",
 "po_description":null,
 "po_help":null,
 "po_name":null,
 "po_printname":null,
 "printname":"Total Debit",
 "updated":"2000-01-02T00:00:00",
 "updatedby":0}, "children" : []},
 {"tablename" : "ad_element", "data" : {"ad_element_id":53376,
 "columnname":"Account",
 "ad_client_id":0,
 "ad_org_id":0,
 "ad_reference_id":10,
 "ad_reference_value_id":null,
 "created":"2008-03-05T00:53:25",
 "createdby":0,
 "description":null,
 "entitytype":"Performance Analysis",
 "fieldlength":255,
 "help":null,
 "isactive":"Y",
 "name":"Account",
 "po_description":null,
 "po_help":null,
 "po_name":null,
 "po_printname":null,
 "printname":"Account",
 "updated":"2008-03-05T00:53:25",
 "updatedby":0}, "children" : []},
 {"tablename" : "ad_element", "data" : {"ad_element_id":53646,
 "columnname":"A_CreateAsset",
 "ad_client_id":0,
 "ad_org_id":0,
 "ad_reference_id":20,
 "ad_reference_value_id":null,
 "created":"2008-05-30T17:04:48",
 "createdby":100,
 "description":null,
 "entitytype":"Performance Analysis",
 "fieldlength":1,
 "help":null,
 "isactive":"Y",
 "name":"Asset Related?",
 "po_description":null,
 "po_help":null,
 "po_name":null,
 "po_printname":null,
 "printname":"Asset Related?",
 "updated":"2008-11-12T16:44:49",
 "updatedby":100}, "children" : []},
 {"tablename" : "ad_element", "data" : {"ad_element_id":53647,
 "columnname":"A_Processed",
 "ad_client_id":0,
 "ad_org_id":0,
 "ad_reference_id":20,
 "ad_reference_value_id":null,
 "created":"2008-05-30T17:04:50",
 "createdby":100,
 "description":null,
 "entitytype":"Performance Analysis",
 "fieldlength":1,
 "help":null,
 "isactive":"Y",
 "name":"Processed",
 "po_description":null,
 "po_help":null,
 "po_name":null,
 "po_printname":null,
 "printname":"Processed",
 "updated":"2010-03-29T16:29:37",
 "updatedby":100}, "children" : []},
 {"tablename" : "ad_element", "data" : {"ad_element_id":54274,
 "columnname":"MatchCode",
 "ad_client_id":0,
 "ad_org_id":0,
 "ad_reference_id":10,
 "ad_reference_value_id":null,
 "created":"2010-09-02T17:54:40",
 "createdby":100,
 "description":"String identifying related accounting facts",
 "entitytype":"Performance Analysis",
 "fieldlength":60,
 "help":null,
 "isactive":"Y",
 "name":"Match Code",
 "po_description":null,
 "po_help":null,
 "po_name":null,
 "po_printname":null,
 "printname":"Match Code",
 "updated":"2010-09-02T17:54:40",
 "updatedby":100}, "children" : []},
 {"tablename" : "ad_element", "data" : {"ad_element_id":56616,
 "columnname":"Alias_ValidCombination_ID",
 "ad_client_id":0,
 "ad_org_id":0,
 "ad_reference_id":null,
 "ad_reference_value_id":null,
 "created":"2013-11-23T16:46:54",
 "createdby":100,
 "description":null,
 "entitytype":"Performance Analysis",
 "fieldlength":null,
 "help":null,
 "isactive":"Y",
 "name":"Alias",
 "po_description":null,
 "po_help":null,
 "po_name":null,
 "po_printname":null,
 "printname":"Alias",
 "updated":"2013-11-23T16:46:54",
 "updatedby":100}, "children" : []},
 {"tablename" : "ad_element", "data" : {"ad_element_id":57520,
 "columnname":"ElimEntry",
 "ad_client_id":0,
 "ad_org_id":0,
 "ad_reference_id":null,
 "ad_reference_value_id":null,
 "created":"2014-10-20T15:04:58",
 "createdby":100,
 "description":null,
 "entitytype":"Performance Analysis",
 "fieldlength":null,
 "help":null,
 "isactive":"Y",
 "name":"ElimEntry",
 "po_description":null,
 "po_help":null,
 "po_name":null,
 "po_printname":null,
 "printname":"ElimEntry",
 "updated":"2014-10-20T15:04:58",
 "updatedby":100}, "children" : []},
 {"tablename" : "ad_element", "data" : {"ad_element_id":400011,
 "columnname":"FactType",
 "ad_client_id":0,
 "ad_org_id":0,
 "ad_reference_id":17,
 "ad_reference_value_id":null,
 "created":"2023-02-28T23:19:54",
 "createdby":100,
 "description":"Accounting Fact Type",
 "entitytype":"Performance Analysis",
 "fieldlength":200,
 "help":"Each accounting document produces a set range of Fact types.",
 "isactive":"Y",
 "name":"Fact Type",
 "po_description":null,
 "po_help":null,
 "po_name":null,
 "po_printname":null,
 "printname":"Fact Type",
 "updated":"2023-02-28T23:19:54",
 "updatedby":100}, "children" : []}]