[{"tablename" : "ad_process", "data" : {"ad_process_id":101,
 "value":"M_DiscountSchema_ReSeq",
 "name":"Renumber",
 "accesslevel":"3",
 "ad_client_id":0,
 "ad_form_id":null,
 "ad_org_id":0,
 "ad_printformat_id":null,
 "ad_reportview_id":null,
 "ad_tableselection_id":null,
 "ad_workflow_id":null,
 "classname":"org.compiere.process.DiscountSchemaReSeq",
 "copyfromprocess":null,
 "created":"1999-12-15T15:14:46",
 "createdby":0,
 "description":"Renumber Discount entries",
 "entitytype":"Material Management Rules",
 "help":null,
 "isactive":"Y",
 "isbetafunctionality":"N",
 "isdirectprint":"N",
 "isreport":"N",
 "isserverprocess":"N",
 "jasperreport":null,
 "procedurename":null,
 "showhelp":"Y",
 "statistic_count":0,
 "statistic_seconds":0,
 "updated":"2005-02-13T19:22:32",
 "updatedby":100,
 "workflowvalue":null}, "children" : []},
 {"tablename" : "ad_process", "data" : {"ad_process_id":103,
 "value":"M_PriceList Create",
 "name":"Create Price List ",
 "accesslevel":"3",
 "ad_client_id":0,
 "ad_form_id":null,
 "ad_org_id":0,
 "ad_printformat_id":null,
 "ad_reportview_id":null,
 "ad_tableselection_id":null,
 "ad_workflow_id":null,
 "classname":"org.compiere.process.M_PriceList_Create",
 "copyfromprocess":null,
 "created":"2000-01-26T11:08:39",
 "createdby":0,
 "description":"Create Prices based on parameters of this version",
 "entitytype":"Material Management Rules",
 "help":"Create Prices for this pricelist version in the sequence of the Discount Schema Price List.\nLines with a higher sequence overwrite existing prices.  The sequence should be from generic to specific.",
 "isactive":"Y",
 "isbetafunctionality":"N",
 "isdirectprint":"N",
 "isreport":"N",
 "isserverprocess":"N",
 "jasperreport":null,
 "procedurename":null,
 "showhelp":"Y",
 "statistic_count":0,
 "statistic_seconds":0,
 "updated":"2000-01-02T00:00:00",
 "updatedby":0,
 "workflowvalue":null}, "children" : [{"tablename" : "ad_process_para", "data" : {"ad_process_para_id":155,
 "name":"Delete old/existing records",
 "ad_client_id":0,
 "ad_element_id":null,
 "ad_org_id":0,
 "ad_process_id":103,
 "ad_reference_id":20,
 "ad_reference_value_id":null,
 "ad_val_rule_id":null,
 "columnname":"DeleteOld",
 "created":"2000-09-29T17:44:46",
 "createdby":0,
 "defaultvalue":"N",
 "defaultvalue2":null,
 "description":"Otherwise records will be added",
 "displaylogic":null,
 "entitytype":"Material Management Rules",
 "fieldlength":1,
 "help":null,
 "isactive":"Y",
 "iscentrallymaintained":"Y",
 "ismandatory":"Y",
 "isrange":"N",
 "readonlylogic":null,
 "seqno":10,
 "updated":"2000-01-02T00:00:00",
 "updatedby":0,
 "valuemax":null,
 "valuemin":null,
 "vformat":null}, "children" : []}]},
 {"tablename" : "ad_process", "data" : {"ad_process_id":115,
 "value":"M_Product_PO",
 "name":"Vendor Selection",
 "accesslevel":"3",
 "ad_client_id":0,
 "ad_form_id":null,
 "ad_org_id":0,
 "ad_printformat_id":null,
 "ad_reportview_id":102,
 "ad_tableselection_id":null,
 "ad_workflow_id":null,
 "classname":null,
 "copyfromprocess":null,
 "created":"2000-03-22T18:50:06",
 "createdby":0,
 "description":"Products with more than one vendor",
 "entitytype":"Material Management Rules",
 "help":"Vendor Selection is initiated when there is a product that is supplied by more than one vendor.  It allows the selection of a specific vendor for a Purchase Order.",
 "isactive":"Y",
 "isbetafunctionality":"N",
 "isdirectprint":"N",
 "isreport":"Y",
 "isserverprocess":"N",
 "jasperreport":null,
 "procedurename":null,
 "showhelp":"Y",
 "statistic_count":0,
 "statistic_seconds":0,
 "updated":"2000-01-02T00:00:00",
 "updatedby":0,
 "workflowvalue":null}, "children" : []},
 {"tablename" : "ad_process", "data" : {"ad_process_id":140,
 "value":"M_Product_Category_Acct_Copy",
 "name":"Copy Accounts",
 "accesslevel":"2",
 "ad_client_id":0,
 "ad_form_id":null,
 "ad_org_id":0,
 "ad_printformat_id":null,
 "ad_reportview_id":null,
 "ad_tableselection_id":null,
 "ad_workflow_id":null,
 "classname":"org.compiere.process.ProductCategoryAcctCopy",
 "copyfromprocess":null,
 "created":"2000-12-19T18:52:29",
 "createdby":0,
 "description":"Copy and overwrite Accounts to Products of this category",
 "entitytype":"Material Management Rules",
 "help":"If you copy and overwrite the current default values, you may have to repeat previous updates (e.g. set the revenue account, ...). If no Accounting Schema is selected all Accounting Schemas will be updated / inserted for products of this category.",
 "isactive":"Y",
 "isbetafunctionality":"N",
 "isdirectprint":"N",
 "isreport":"N",
 "isserverprocess":"N",
 "jasperreport":null,
 "procedurename":null,
 "showhelp":"Y",
 "statistic_count":0,
 "statistic_seconds":0,
 "updated":"2005-08-22T14:27:15",
 "updatedby":100,
 "workflowvalue":null}, "children" : [{"tablename" : "ad_process_para", "data" : {"ad_process_para_id":665,
 "name":"Product Category",
 "ad_client_id":0,
 "ad_element_id":453,
 "ad_org_id":0,
 "ad_process_id":140,
 "ad_reference_id":19,
 "ad_reference_value_id":null,
 "ad_val_rule_id":null,
 "columnname":"M_Product_Category_ID",
 "created":"2005-08-22T14:37:51",
 "createdby":100,
 "defaultvalue":"@M_Product_Category_ID@",
 "defaultvalue2":null,
 "description":"Category of a Product",
 "displaylogic":null,
 "entitytype":"Material Management Rules",
 "fieldlength":0,
 "help":"Identifies the category which this product belongs to.  Product categories are used for pricing and selection.",
 "isactive":"Y",
 "iscentrallymaintained":"Y",
 "ismandatory":"Y",
 "isrange":"N",
 "readonlylogic":null,
 "seqno":10,
 "updated":"2005-08-22T19:25:01",
 "updatedby":100,
 "valuemax":null,
 "valuemin":null,
 "vformat":null}, "children" : []},{"tablename" : "ad_process_para", "data" : {"ad_process_para_id":668,
 "name":"Accounting Schema",
 "ad_client_id":0,
 "ad_element_id":181,
 "ad_org_id":0,
 "ad_process_id":140,
 "ad_reference_id":19,
 "ad_reference_value_id":null,
 "ad_val_rule_id":null,
 "columnname":"C_AcctSchema_ID",
 "created":"2005-08-22T14:40:17",
 "createdby":100,
 "defaultvalue":"@C_AcctSchema_ID@",
 "defaultvalue2":null,
 "description":"Rules for accounting",
 "displaylogic":null,
 "entitytype":"Material Management Rules",
 "fieldlength":0,
 "help":"An Accounting Schema defines the rules used in accounting such as costing method, currency and calendar",
 "isactive":"Y",
 "iscentrallymaintained":"Y",
 "ismandatory":"Y",
 "isrange":"N",
 "readonlylogic":null,
 "seqno":20,
 "updated":"2005-08-22T19:25:11",
 "updatedby":100,
 "valuemax":null,
 "valuemin":null,
 "vformat":null}, "children" : []}]},
 {"tablename" : "ad_process", "data" : {"ad_process_id":164,
 "value":"C_Project_Generate",
 "name":"Generate Order",
 "accesslevel":"1",
 "ad_client_id":0,
 "ad_form_id":null,
 "ad_org_id":0,
 "ad_printformat_id":null,
 "ad_reportview_id":null,
 "ad_tableselection_id":null,
 "ad_workflow_id":null,
 "classname":"org.compiere.process.ProjectGenOrder",
 "copyfromprocess":null,
 "created":"2001-03-28T21:41:43",
 "createdby":0,
 "description":"Generate Order from Project",
 "entitytype":"Material Management Rules",
 "help":"The Generate Order process will generate a new Order document based on the project phase. A price list and warehouse/service point must be defined on the project.",
 "isactive":"Y",
 "isbetafunctionality":"N",
 "isdirectprint":"N",
 "isreport":"N",
 "isserverprocess":"N",
 "jasperreport":null,
 "procedurename":null,
 "showhelp":"Y",
 "statistic_count":0,
 "statistic_seconds":0,
 "updated":"2000-01-02T00:00:00",
 "updatedby":0,
 "workflowvalue":null}, "children" : []},
 {"tablename" : "ad_process", "data" : {"ad_process_id":212,
 "value":"C_Project CopyFrom",
 "name":"Copy Details",
 "accesslevel":"1",
 "ad_client_id":0,
 "ad_form_id":null,
 "ad_org_id":0,
 "ad_printformat_id":null,
 "ad_reportview_id":null,
 "ad_tableselection_id":null,
 "ad_workflow_id":null,
 "classname":"org.compiere.process.CopyFromProject",
 "copyfromprocess":null,
 "created":"2003-08-09T21:59:50",
 "createdby":0,
 "description":"Copy Lines/Phases/Tasks from other Project",
 "entitytype":"Material Management Rules",
 "help":null,
 "isactive":"Y",
 "isbetafunctionality":"N",
 "isdirectprint":"N",
 "isreport":"N",
 "isserverprocess":"N",
 "jasperreport":null,
 "procedurename":null,
 "showhelp":"Y",
 "statistic_count":0,
 "statistic_seconds":0,
 "updated":"2000-01-02T00:00:00",
 "updatedby":0,
 "workflowvalue":null}, "children" : [{"tablename" : "ad_process_para", "data" : {"ad_process_para_id":319,
 "name":"Project",
 "ad_client_id":0,
 "ad_element_id":208,
 "ad_org_id":0,
 "ad_process_id":212,
 "ad_reference_id":30,
 "ad_reference_value_id":null,
 "ad_val_rule_id":null,
 "columnname":"C_Project_ID",
 "created":"2003-08-10T00:19:55",
 "createdby":0,
 "defaultvalue":null,
 "defaultvalue2":null,
 "description":"Financial Project",
 "displaylogic":null,
 "entitytype":"Material Management Rules",
 "fieldlength":0,
 "help":"A Project allows you to track and control internal or external activities.",
 "isactive":"Y",
 "iscentrallymaintained":"Y",
 "ismandatory":"Y",
 "isrange":"N",
 "readonlylogic":null,
 "seqno":10,
 "updated":"2000-01-02T00:00:00",
 "updatedby":0,
 "valuemax":null,
 "valuemin":null,
 "vformat":null}, "children" : []}]},
 {"tablename" : "ad_process", "data" : {"ad_process_id":215,
 "value":"C_Project_SetType",
 "name":"Set Project Type",
 "accesslevel":"1",
 "ad_client_id":0,
 "ad_form_id":null,
 "ad_org_id":0,
 "ad_printformat_id":null,
 "ad_reportview_id":null,
 "ad_tableselection_id":null,
 "ad_workflow_id":null,
 "classname":"org.compiere.process.ProjectSetType",
 "copyfromprocess":null,
 "created":"2003-08-10T18:41:06",
 "createdby":0,
 "description":"Set Project Type and for Service Projects copy Phases and Tasks of Project Type into Project",
 "entitytype":"Material Management Rules",
 "help":"\n",
 "isactive":"Y",
 "isbetafunctionality":"N",
 "isdirectprint":"N",
 "isreport":"N",
 "isserverprocess":"N",
 "jasperreport":null,
 "procedurename":null,
 "showhelp":"Y",
 "statistic_count":0,
 "statistic_seconds":0,
 "updated":"2000-01-02T00:00:00",
 "updatedby":0,
 "workflowvalue":null}, "children" : [{"tablename" : "ad_process_para", "data" : {"ad_process_para_id":321,
 "name":"Project Type",
 "ad_client_id":0,
 "ad_element_id":2033,
 "ad_org_id":0,
 "ad_process_id":215,
 "ad_reference_id":19,
 "ad_reference_value_id":null,
 "ad_val_rule_id":null,
 "columnname":"C_ProjectType_ID",
 "created":"2003-08-10T18:45:20",
 "createdby":0,
 "defaultvalue":null,
 "defaultvalue2":null,
 "description":"Type of the project",
 "displaylogic":null,
 "entitytype":"Material Management Rules",
 "fieldlength":0,
 "help":"Type of the project with optional phases of the project with standard performance information",
 "isactive":"Y",
 "iscentrallymaintained":"Y",
 "ismandatory":"Y",
 "isrange":"N",
 "readonlylogic":null,
 "seqno":10,
 "updated":"2000-01-02T00:00:00",
 "updatedby":0,
 "valuemax":null,
 "valuemin":null,
 "vformat":null}, "children" : []}]},
 {"tablename" : "ad_process", "data" : {"ad_process_id":216,
 "value":"C_ProjectPhase_Generate",
 "name":"Generate Order",
 "accesslevel":"1",
 "ad_client_id":0,
 "ad_form_id":null,
 "ad_org_id":0,
 "ad_printformat_id":null,
 "ad_reportview_id":null,
 "ad_tableselection_id":null,
 "ad_workflow_id":null,
 "classname":"org.compiere.process.ProjectPhaseGenOrder",
 "copyfromprocess":null,
 "created":"2003-08-10T22:38:57",
 "createdby":0,
 "description":"Generate Order from Project Phase",
 "entitytype":"Material Management Rules",
 "help":"The Generate Order process will generate a new Order document based on the project phase or tasks. A price list and warehouse/service point must be defined on the project.  If a product is defined on phase level, the Phase information is used as the basis for the Order (milestone invoicing) - otherwise the individual tasks.",
 "isactive":"Y",
 "isbetafunctionality":"N",
 "isdirectprint":"N",
 "isreport":"N",
 "isserverprocess":"N",
 "jasperreport":null,
 "procedurename":null,
 "showhelp":"Y",
 "statistic_count":0,
 "statistic_seconds":0,
 "updated":"2000-01-02T00:00:00",
 "updatedby":0,
 "workflowvalue":null}, "children" : []},
 {"tablename" : "ad_process", "data" : {"ad_process_id":217,
 "value":"Rpt C_Project",
 "name":"Project Print",
 "accesslevel":"3",
 "ad_client_id":0,
 "ad_form_id":null,
 "ad_org_id":0,
 "ad_printformat_id":null,
 "ad_reportview_id":null,
 "ad_tableselection_id":null,
 "ad_workflow_id":null,
 "classname":null,
 "copyfromprocess":null,
 "created":"2003-08-16T13:45:28",
 "createdby":0,
 "description":"** Special ** Do not change **",
 "entitytype":"Material Management Rules",
 "help":null,
 "isactive":"Y",
 "isbetafunctionality":"N",
 "isdirectprint":"Y",
 "isreport":"Y",
 "isserverprocess":"N",
 "jasperreport":null,
 "procedurename":null,
 "showhelp":"Y",
 "statistic_count":0,
 "statistic_seconds":0,
 "updated":"2000-01-02T00:00:00",
 "updatedby":0,
 "workflowvalue":null}, "children" : []},
 {"tablename" : "ad_process", "data" : {"ad_process_id":227,
 "value":"C_Project Close",
 "name":"Close Project",
 "accesslevel":"3",
 "ad_client_id":0,
 "ad_form_id":null,
 "ad_org_id":0,
 "ad_printformat_id":null,
 "ad_reportview_id":null,
 "ad_tableselection_id":null,
 "ad_workflow_id":null,
 "classname":"org.compiere.process.ProjectClose",
 "copyfromprocess":null,
 "created":"2003-09-03T12:19:00",
 "createdby":0,
 "description":null,
 "entitytype":"Material Management Rules",
 "help":null,
 "isactive":"Y",
 "isbetafunctionality":"N",
 "isdirectprint":"N",
 "isreport":"N",
 "isserverprocess":"N",
 "jasperreport":null,
 "procedurename":null,
 "showhelp":"Y",
 "statistic_count":0,
 "statistic_seconds":0,
 "updated":"2000-01-02T00:00:00",
 "updatedby":0,
 "workflowvalue":null}, "children" : []},
 {"tablename" : "ad_process", "data" : {"ad_process_id":230,
 "value":"C_ProjectLine Pricing",
 "name":"Get Price",
 "accesslevel":"3",
 "ad_client_id":0,
 "ad_form_id":null,
 "ad_org_id":0,
 "ad_printformat_id":null,
 "ad_reportview_id":null,
 "ad_tableselection_id":null,
 "ad_workflow_id":null,
 "classname":"org.compiere.process.ProjectLinePricing",
 "copyfromprocess":null,
 "created":"2003-09-06T10:00:41",
 "createdby":0,
 "description":"Get Price for Project Line based on Project Price List",
 "entitytype":"Material Management Rules",
 "help":null,
 "isactive":"Y",
 "isbetafunctionality":"N",
 "isdirectprint":"N",
 "isreport":"N",
 "isserverprocess":"N",
 "jasperreport":null,
 "procedurename":null,
 "showhelp":"Y",
 "statistic_count":0,
 "statistic_seconds":0,
 "updated":"2000-01-02T00:00:00",
 "updatedby":0,
 "workflowvalue":null}, "children" : []},
 {"tablename" : "ad_process", "data" : {"ad_process_id":244,
 "value":"OrgOwnership Warehouse",
 "name":"Warehouse Organisation",
 "accesslevel":"2",
 "ad_client_id":0,
 "ad_form_id":null,
 "ad_org_id":0,
 "ad_printformat_id":null,
 "ad_reportview_id":null,
 "ad_tableselection_id":null,
 "ad_workflow_id":null,
 "classname":"org.compiere.process.OrgOwnership",
 "copyfromprocess":null,
 "created":"2003-12-23T23:10:42",
 "createdby":0,
 "description":"Set and verify Organisation ownership of Warehouse",
 "entitytype":"Material Management Rules",
 "help":"The process allows you to change or verify the organisation ownership of a warehouse and its dependent entities (Location, Storage).",
 "isactive":"Y",
 "isbetafunctionality":"N",
 "isdirectprint":"N",
 "isreport":"N",
 "isserverprocess":"N",
 "jasperreport":null,
 "procedurename":null,
 "showhelp":"Y",
 "statistic_count":0,
 "statistic_seconds":0,
 "updated":"2016-04-11T16:07:05",
 "updatedby":0,
 "workflowvalue":null}, "children" : [{"tablename" : "ad_process_para", "data" : {"ad_process_para_id":407,
 "name":"Organisation",
 "ad_client_id":0,
 "ad_element_id":113,
 "ad_org_id":0,
 "ad_process_id":244,
 "ad_reference_id":19,
 "ad_reference_value_id":null,
 "ad_val_rule_id":null,
 "columnname":"AD_Org_ID",
 "created":"2003-12-23T23:13:43",
 "createdby":0,
 "defaultvalue":null,
 "defaultvalue2":null,
 "description":"Organisational entity within client",
 "displaylogic":null,
 "entitytype":"Material Management Rules",
 "fieldlength":0,
 "help":"An organisation is a unit of your client or legal entity - examples are store, department. You can share data between organisations.",
 "isactive":"Y",
 "iscentrallymaintained":"Y",
 "ismandatory":"Y",
 "isrange":"N",
 "readonlylogic":null,
 "seqno":10,
 "updated":"2000-01-02T00:00:00",
 "updatedby":0,
 "valuemax":null,
 "valuemin":null,
 "vformat":null}, "children" : []},{"tablename" : "ad_process_para", "data" : {"ad_process_para_id":408,
 "name":"Warehouse",
 "ad_client_id":0,
 "ad_element_id":459,
 "ad_org_id":0,
 "ad_process_id":244,
 "ad_reference_id":19,
 "ad_reference_value_id":null,
 "ad_val_rule_id":null,
 "columnname":"M_Warehouse_ID",
 "created":"2003-12-23T23:14:29",
 "createdby":0,
 "defaultvalue":null,
 "defaultvalue2":null,
 "description":"Storage Warehouse and Service Point",
 "displaylogic":null,
 "entitytype":"Material Management Rules",
 "fieldlength":0,
 "help":"The Warehouse identifies a unique Warehouse where products are stored or Services are provided.",
 "isactive":"Y",
 "iscentrallymaintained":"Y",
 "ismandatory":"Y",
 "isrange":"N",
 "readonlylogic":null,
 "seqno":20,
 "updated":"2000-01-02T00:00:00",
 "updatedby":0,
 "valuemax":null,
 "valuemin":null,
 "vformat":null}, "children" : []}]},
 {"tablename" : "ad_process", "data" : {"ad_process_id":245,
 "value":"OrgOwnership Product",
 "name":"Product Organisation",
 "accesslevel":"2",
 "ad_client_id":0,
 "ad_form_id":null,
 "ad_org_id":0,
 "ad_printformat_id":null,
 "ad_reportview_id":null,
 "ad_tableselection_id":null,
 "ad_workflow_id":null,
 "classname":"org.compiere.process.OrgOwnership",
 "copyfromprocess":null,
 "created":"2003-12-23T23:19:34",
 "createdby":0,
 "description":"Set and verify Organisation ownership of Products",
 "entitytype":"Material Management Rules",
 "help":"The process allows you to change or verify the organisation ownership of Products and its dependent entities (BOM, Substitute, Replenish, Purchasing, Business Partner Info, Costing). <br>\nSelect either a Product Category ar a specific Product.",
 "isactive":"Y",
 "isbetafunctionality":"N",
 "isdirectprint":"N",
 "isreport":"N",
 "isserverprocess":"N",
 "jasperreport":null,
 "procedurename":null,
 "showhelp":"Y",
 "statistic_count":0,
 "statistic_seconds":0,
 "updated":"2016-04-11T16:07:05",
 "updatedby":0,
 "workflowvalue":null}, "children" : [{"tablename" : "ad_process_para", "data" : {"ad_process_para_id":409,
 "name":"Organisation",
 "ad_client_id":0,
 "ad_element_id":113,
 "ad_org_id":0,
 "ad_process_id":245,
 "ad_reference_id":19,
 "ad_reference_value_id":null,
 "ad_val_rule_id":null,
 "columnname":"AD_Org_ID",
 "created":"2003-12-23T23:23:20",
 "createdby":0,
 "defaultvalue":null,
 "defaultvalue2":null,
 "description":"Organisational entity within client",
 "displaylogic":null,
 "entitytype":"Material Management Rules",
 "fieldlength":0,
 "help":"An organisation is a unit of your client or legal entity - examples are store, department. You can share data between organisations.",
 "isactive":"Y",
 "iscentrallymaintained":"Y",
 "ismandatory":"Y",
 "isrange":"N",
 "readonlylogic":null,
 "seqno":10,
 "updated":"2000-01-02T00:00:00",
 "updatedby":0,
 "valuemax":null,
 "valuemin":null,
 "vformat":null}, "children" : []},{"tablename" : "ad_process_para", "data" : {"ad_process_para_id":410,
 "name":"Product Category",
 "ad_client_id":0,
 "ad_element_id":453,
 "ad_org_id":0,
 "ad_process_id":245,
 "ad_reference_id":19,
 "ad_reference_value_id":null,
 "ad_val_rule_id":null,
 "columnname":"M_Product_Category_ID",
 "created":"2003-12-23T23:25:12",
 "createdby":0,
 "defaultvalue":"-1",
 "defaultvalue2":null,
 "description":"Category of a Product",
 "displaylogic":null,
 "entitytype":"Material Management Rules",
 "fieldlength":0,
 "help":"Identifies the category which this product belongs to.  Product categories are used for pricing and selection.",
 "isactive":"Y",
 "iscentrallymaintained":"Y",
 "ismandatory":"N",
 "isrange":"N",
 "readonlylogic":null,
 "seqno":20,
 "updated":"2000-01-02T00:00:00",
 "updatedby":0,
 "valuemax":null,
 "valuemin":null,
 "vformat":null}, "children" : []},{"tablename" : "ad_process_para", "data" : {"ad_process_para_id":411,
 "name":"Product",
 "ad_client_id":0,
 "ad_element_id":454,
 "ad_org_id":0,
 "ad_process_id":245,
 "ad_reference_id":30,
 "ad_reference_value_id":null,
 "ad_val_rule_id":null,
 "columnname":"M_Product_ID",
 "created":"2003-12-23T23:25:43",
 "createdby":0,
 "defaultvalue":null,
 "defaultvalue2":null,
 "description":"Product, Service, Item",
 "displaylogic":null,
 "entitytype":"Material Management Rules",
 "fieldlength":0,
 "help":"Identifies an item which is either purchased or sold in this organization.",
 "isactive":"Y",
 "iscentrallymaintained":"Y",
 "ismandatory":"N",
 "isrange":"N",
 "readonlylogic":null,
 "seqno":30,
 "updated":"2000-01-02T00:00:00",
 "updatedby":0,
 "valuemax":null,
 "valuemin":null,
 "vformat":null}, "children" : []}]},
 {"tablename" : "ad_process", "data" : {"ad_process_id":346,
 "value":"M_Product_BOMs",
 "name":"Verify BOMs",
 "accesslevel":"3",
 "ad_client_id":0,
 "ad_form_id":null,
 "ad_org_id":0,
 "ad_printformat_id":null,
 "ad_reportview_id":null,
 "ad_tableselection_id":null,
 "ad_workflow_id":null,
 "classname":"org.compiere.process.BOMValidate",
 "copyfromprocess":null,
 "created":"2006-04-25T19:21:59",
 "createdby":100,
 "description":"Verify BOM Structures",
 "entitytype":"Material Management Rules",
 "help":"The Verify BOM Structures checks the elements and steps which comprise a Bill of Materials.",
 "isactive":"Y",
 "isbetafunctionality":"N",
 "isdirectprint":"N",
 "isreport":"N",
 "isserverprocess":"N",
 "jasperreport":null,
 "procedurename":null,
 "showhelp":"Y",
 "statistic_count":0,
 "statistic_seconds":0,
 "updated":"2006-04-25T19:42:58",
 "updatedby":100,
 "workflowvalue":null}, "children" : [{"tablename" : "ad_process_para", "data" : {"ad_process_para_id":716,
 "name":"Product Category",
 "ad_client_id":0,
 "ad_element_id":453,
 "ad_org_id":0,
 "ad_process_id":346,
 "ad_reference_id":19,
 "ad_reference_value_id":null,
 "ad_val_rule_id":null,
 "columnname":"M_Product_Category_ID",
 "created":"2006-04-25T19:33:32",
 "createdby":100,
 "defaultvalue":null,
 "defaultvalue2":null,
 "description":"Category of a Product",
 "displaylogic":null,
 "entitytype":"Material Management Rules",
 "fieldlength":0,
 "help":"Identifies the category which this product belongs to.  Product categories are used for pricing and selection.",
 "isactive":"Y",
 "iscentrallymaintained":"Y",
 "ismandatory":"N",
 "isrange":"N",
 "readonlylogic":null,
 "seqno":10,
 "updated":"2006-04-25T19:41:42",
 "updatedby":100,
 "valuemax":null,
 "valuemin":null,
 "vformat":null}, "children" : []},{"tablename" : "ad_process_para", "data" : {"ad_process_para_id":717,
 "name":"Re-Validate",
 "ad_client_id":0,
 "ad_element_id":null,
 "ad_org_id":0,
 "ad_process_id":346,
 "ad_reference_id":20,
 "ad_reference_value_id":null,
 "ad_val_rule_id":null,
 "columnname":"IsReValidate",
 "created":"2006-04-25T19:34:26",
 "createdby":100,
 "defaultvalue":"Y",
 "defaultvalue2":null,
 "description":"Re-Validate entries",
 "displaylogic":null,
 "entitytype":"Material Management Rules",
 "fieldlength":0,
 "help":null,
 "isactive":"Y",
 "iscentrallymaintained":"Y",
 "ismandatory":"Y",
 "isrange":"N",
 "readonlylogic":null,
 "seqno":20,
 "updated":"2006-04-25T19:34:26",
 "updatedby":100,
 "valuemax":null,
 "valuemin":null,
 "vformat":null}, "children" : []}]},
 {"tablename" : "ad_process", "data" : {"ad_process_id":53763,
 "value":"ResetUsage",
 "name":"Reset Usage",
 "accesslevel":"3",
 "ad_client_id":0,
 "ad_form_id":null,
 "ad_org_id":0,
 "ad_printformat_id":null,
 "ad_reportview_id":null,
 "ad_tableselection_id":null,
 "ad_workflow_id":null,
 "classname":"org.compiere.process.ResetUsage",
 "copyfromprocess":"N",
 "created":"2015-03-23T15:42:25",
 "createdby":100,
 "description":"Reset Average Usage, Max and Min Reorder Points",
 "entitytype":"Material Management Rules",
 "help":null,
 "isactive":"Y",
 "isbetafunctionality":"N",
 "isdirectprint":"N",
 "isreport":"N",
 "isserverprocess":"N",
 "jasperreport":null,
 "procedurename":null,
 "showhelp":"Y",
 "statistic_count":0,
 "statistic_seconds":0,
 "updated":"2016-04-11T16:47:15",
 "updatedby":0,
 "workflowvalue":null}, "children" : [{"tablename" : "ad_process_para", "data" : {"ad_process_para_id":55223,
 "name":"Product",
 "ad_client_id":0,
 "ad_element_id":null,
 "ad_org_id":0,
 "ad_process_id":53763,
 "ad_reference_id":30,
 "ad_reference_value_id":162,
 "ad_val_rule_id":null,
 "columnname":"Product",
 "created":"2015-03-23T15:44:25",
 "createdby":100,
 "defaultvalue":"@M_Product_ID@",
 "defaultvalue2":null,
 "description":null,
 "displaylogic":null,
 "entitytype":"Material Management Rules",
 "fieldlength":0,
 "help":null,
 "isactive":"Y",
 "iscentrallymaintained":"Y",
 "ismandatory":"N",
 "isrange":"N",
 "readonlylogic":null,
 "seqno":1,
 "updated":"2016-04-11T16:47:07",
 "updatedby":0,
 "valuemax":null,
 "valuemin":null,
 "vformat":null}, "children" : []},{"tablename" : "ad_process_para", "data" : {"ad_process_para_id":55224,
 "name":"Product Category",
 "ad_client_id":0,
 "ad_element_id":453,
 "ad_org_id":0,
 "ad_process_id":53763,
 "ad_reference_id":19,
 "ad_reference_value_id":null,
 "ad_val_rule_id":null,
 "columnname":"M_Product_Category_ID",
 "created":"2015-03-23T15:45:33",
 "createdby":100,
 "defaultvalue":"-1",
 "defaultvalue2":null,
 "description":"Category of a Product",
 "displaylogic":null,
 "entitytype":"Material Management Rules",
 "fieldlength":0,
 "help":"Identifies the category which this product belongs to.  Product categories are used for pricing and selection.",
 "isactive":"Y",
 "iscentrallymaintained":"Y",
 "ismandatory":"N",
 "isrange":"N",
 "readonlylogic":null,
 "seqno":10,
 "updated":"2016-04-11T16:47:07",
 "updatedby":0,
 "valuemax":null,
 "valuemin":null,
 "vformat":null}, "children" : []},{"tablename" : "ad_process_para", "data" : {"ad_process_para_id":55225,
 "name":"ABCClass",
 "ad_client_id":0,
 "ad_element_id":null,
 "ad_org_id":0,
 "ad_process_id":53763,
 "ad_reference_id":10,
 "ad_reference_value_id":null,
 "ad_val_rule_id":null,
 "columnname":"ABCClass",
 "created":"2015-03-23T15:46:03",
 "createdby":100,
 "defaultvalue":null,
 "defaultvalue2":null,
 "description":null,
 "displaylogic":null,
 "entitytype":"Material Management Rules",
 "fieldlength":5,
 "help":"Use to limit on Product Classification",
 "isactive":"Y",
 "iscentrallymaintained":"Y",
 "ismandatory":"N",
 "isrange":"N",
 "readonlylogic":null,
 "seqno":20,
 "updated":"2016-04-11T16:47:07",
 "updatedby":0,
 "valuemax":null,
 "valuemin":null,
 "vformat":null}, "children" : []},{"tablename" : "ad_process_para", "data" : {"ad_process_para_id":55226,
 "name":"ResetAve",
 "ad_client_id":0,
 "ad_element_id":null,
 "ad_org_id":0,
 "ad_process_id":53763,
 "ad_reference_id":20,
 "ad_reference_value_id":null,
 "ad_val_rule_id":null,
 "columnname":"ResetAve",
 "created":"2015-03-23T15:46:36",
 "createdby":100,
 "defaultvalue":null,
 "defaultvalue2":null,
 "description":"Recalculate Average, Max and Min",
 "displaylogic":null,
 "entitytype":"Material Management Rules",
 "fieldlength":0,
 "help":null,
 "isactive":"Y",
 "iscentrallymaintained":"Y",
 "ismandatory":"N",
 "isrange":"N",
 "readonlylogic":null,
 "seqno":30,
 "updated":"2016-04-11T16:47:07",
 "updatedby":0,
 "valuemax":null,
 "valuemin":null,
 "vformat":null}, "children" : []},{"tablename" : "ad_process_para", "data" : {"ad_process_para_id":55227,
 "name":"ResetMin",
 "ad_client_id":0,
 "ad_element_id":null,
 "ad_org_id":0,
 "ad_process_id":53763,
 "ad_reference_id":20,
 "ad_reference_value_id":null,
 "ad_val_rule_id":null,
 "columnname":"ResetMin",
 "created":"2015-03-23T15:47:04",
 "createdby":100,
 "defaultvalue":null,
 "defaultvalue2":null,
 "description":"Reset Minimum based on Average Usage x Days Safety Stock",
 "displaylogic":null,
 "entitytype":"Material Management Rules",
 "fieldlength":0,
 "help":null,
 "isactive":"Y",
 "iscentrallymaintained":"Y",
 "ismandatory":"N",
 "isrange":"N",
 "readonlylogic":null,
 "seqno":40,
 "updated":"2016-04-11T16:47:07",
 "updatedby":0,
 "valuemax":null,
 "valuemin":null,
 "vformat":null}, "children" : []},{"tablename" : "ad_process_para", "data" : {"ad_process_para_id":55228,
 "name":"Substitute",
 "ad_client_id":0,
 "ad_element_id":null,
 "ad_org_id":0,
 "ad_process_id":53763,
 "ad_reference_id":20,
 "ad_reference_value_id":null,
 "ad_val_rule_id":null,
 "columnname":"Substitute",
 "created":"2015-03-23T15:47:37",
 "createdby":100,
 "defaultvalue":null,
 "defaultvalue2":null,
 "description":"Substitute Daily Usage x Lead Time for Maximum",
 "displaylogic":null,
 "entitytype":"Material Management Rules",
 "fieldlength":0,
 "help":null,
 "isactive":"Y",
 "iscentrallymaintained":"Y",
 "ismandatory":"N",
 "isrange":"N",
 "readonlylogic":null,
 "seqno":50,
 "updated":"2016-04-11T16:47:07",
 "updatedby":0,
 "valuemax":null,
 "valuemin":null,
 "vformat":null}, "children" : []},{"tablename" : "ad_process_para", "data" : {"ad_process_para_id":55229,
 "name":"Adjust",
 "ad_client_id":0,
 "ad_element_id":null,
 "ad_org_id":0,
 "ad_process_id":53763,
 "ad_reference_id":20,
 "ad_reference_value_id":null,
 "ad_val_rule_id":null,
 "columnname":"Adjust",
 "created":"2015-03-23T15:48:10",
 "createdby":100,
 "defaultvalue":null,
 "defaultvalue2":null,
 "description":"Adjust Replenish Max and Min for Seasonality Factor",
 "displaylogic":null,
 "entitytype":"Material Management Rules",
 "fieldlength":0,
 "help":null,
 "isactive":"Y",
 "iscentrallymaintained":"Y",
 "ismandatory":"N",
 "isrange":"N",
 "readonlylogic":null,
 "seqno":60,
 "updated":"2016-04-11T16:47:07",
 "updatedby":0,
 "valuemax":null,
 "valuemin":null,
 "vformat":null}, "children" : []}]}]