[{"tablename" : "ad_process", "data" : {"ad_process_id":53473,
 "value":"Aged Inventory Report",
 "name":"Aged Inventory Report",
 "accesslevel":"3",
 "ad_client_id":0,
 "ad_form_id":null,
 "ad_org_id":0,
 "ad_printformat_id":null,
 "ad_reportview_id":53067,
 "ad_tableselection_id":null,
 "ad_workflow_id":null,
 "classname":"org.compiere.process.AgedInventoryReport",
 "copyfromprocess":"N",
 "created":"2013-09-28T15:17:14",
 "createdby":100,
 "description":null,
 "entitytype":"Manufacturing Processes",
 "help":null,
 "isactive":"Y",
 "isbetafunctionality":"N",
 "isdirectprint":"N",
 "isreport":"Y",
 "isserverprocess":"N",
 "jasperreport":null,
 "procedurename":null,
 "showhelp":"Y",
 "statistic_count":0,
 "statistic_seconds":0,
 "updated":"2013-09-28T15:17:14",
 "updatedby":100,
 "workflowvalue":null}, "children" : [{"tablename" : "ad_process_para", "data" : {"ad_process_para_id":54077,
 "name":"Product",
 "ad_client_id":0,
 "ad_element_id":454,
 "ad_org_id":0,
 "ad_process_id":53473,
 "ad_reference_id":30,
 "ad_reference_value_id":null,
 "ad_val_rule_id":null,
 "columnname":"M_Product_ID",
 "created":"2013-09-28T15:18:12",
 "createdby":100,
 "defaultvalue":null,
 "defaultvalue2":null,
 "description":"Product, Service, Item",
 "displaylogic":null,
 "entitytype":"Manufacturing Processes",
 "fieldlength":0,
 "help":"Identifies an item which is either purchased or sold in this organization.",
 "isactive":"Y",
 "iscentrallymaintained":"Y",
 "ismandatory":"N",
 "isrange":"N",
 "readonlylogic":null,
 "seqno":10,
 "updated":"2016-04-12T09:52:23.093499",
 "updatedby":100,
 "valuemax":null,
 "valuemin":null,
 "vformat":null}, "children" : []},{"tablename" : "ad_process_para", "data" : {"ad_process_para_id":54078,
 "name":"Movement Date",
 "ad_client_id":0,
 "ad_element_id":1037,
 "ad_org_id":0,
 "ad_process_id":53473,
 "ad_reference_id":15,
 "ad_reference_value_id":null,
 "ad_val_rule_id":null,
 "columnname":"MovementDate",
 "created":"2013-09-28T15:18:45",
 "createdby":100,
 "defaultvalue":null,
 "defaultvalue2":null,
 "description":"Date a product was moved in or out of inventory",
 "displaylogic":null,
 "entitytype":"Manufacturing Processes",
 "fieldlength":0,
 "help":"The Movement Date indicates the date that a product moved in or out of inventory.  This is the result of a shipment, receipt or inventory movement.",
 "isactive":"Y",
 "iscentrallymaintained":"Y",
 "ismandatory":"Y",
 "isrange":"N",
 "readonlylogic":null,
 "seqno":20,
 "updated":"2016-04-12T09:52:23.093499",
 "updatedby":100,
 "valuemax":null,
 "valuemin":null,
 "vformat":null}, "children" : []},{"tablename" : "ad_process_para", "data" : {"ad_process_para_id":54079,
 "name":"Product Category",
 "ad_client_id":0,
 "ad_element_id":453,
 "ad_org_id":0,
 "ad_process_id":53473,
 "ad_reference_id":19,
 "ad_reference_value_id":163,
 "ad_val_rule_id":null,
 "columnname":"M_Product_Category_ID",
 "created":"2013-09-28T15:19:14",
 "createdby":100,
 "defaultvalue":null,
 "defaultvalue2":null,
 "description":"Category of a Product",
 "displaylogic":null,
 "entitytype":"Manufacturing Processes",
 "fieldlength":0,
 "help":"Identifies the category which this product belongs to.  Product categories are used for pricing and selection.",
 "isactive":"Y",
 "iscentrallymaintained":"Y",
 "ismandatory":"N",
 "isrange":"N",
 "readonlylogic":null,
 "seqno":30,
 "updated":"2016-04-12T09:52:23.093499",
 "updatedby":100,
 "valuemax":null,
 "valuemin":null,
 "vformat":null}, "children" : []},{"tablename" : "ad_process_para", "data" : {"ad_process_para_id":54080,
 "name":"Accounting Schema",
 "ad_client_id":0,
 "ad_element_id":181,
 "ad_org_id":0,
 "ad_process_id":53473,
 "ad_reference_id":18,
 "ad_reference_value_id":null,
 "ad_val_rule_id":null,
 "columnname":"C_AcctSchema_ID",
 "created":"2013-09-28T15:19:49",
 "createdby":100,
 "defaultvalue":null,
 "defaultvalue2":null,
 "description":"Rules for accounting",
 "displaylogic":null,
 "entitytype":"Manufacturing Processes",
 "fieldlength":0,
 "help":"An Accounting Schema defines the rules used in accounting such as costing method, currency and calendar",
 "isactive":"Y",
 "iscentrallymaintained":"Y",
 "ismandatory":"Y",
 "isrange":"N",
 "readonlylogic":null,
 "seqno":40,
 "updated":"2016-04-12T09:52:23.093499",
 "updatedby":100,
 "valuemax":null,
 "valuemin":null,
 "vformat":null}, "children" : []}]},
 {"tablename" : "ad_process", "data" : {"ad_process_id":53685,
 "value":"Re-Calculate MRP",
 "name":"MRP Calculation",
 "accesslevel":"3",
 "ad_client_id":0,
 "ad_form_id":null,
 "ad_org_id":0,
 "ad_printformat_id":null,
 "ad_reportview_id":null,
 "ad_tableselection_id":null,
 "ad_workflow_id":null,
 "classname":"org.adempiere.process.CalculateMiniMRP",
 "copyfromprocess":"N",
 "created":"2014-08-02T11:24:24",
 "createdby":100,
 "description":"MRP Calculation",
 "entitytype":"Manufacturing Processes",
 "help":null,
 "isactive":"Y",
 "isbetafunctionality":"N",
 "isdirectprint":"N",
 "isreport":"N",
 "isserverprocess":"N",
 "jasperreport":null,
 "procedurename":null,
 "showhelp":"Y",
 "statistic_count":0,
 "statistic_seconds":0,
 "updated":"2019-02-04T13:38:50",
 "updatedby":0,
 "workflowvalue":null}, "children" : [{"tablename" : "ad_process_para", "data" : {"ad_process_para_id":54912,
 "name":"Date",
 "ad_client_id":0,
 "ad_element_id":null,
 "ad_org_id":0,
 "ad_process_id":53685,
 "ad_reference_id":15,
 "ad_reference_value_id":null,
 "ad_val_rule_id":null,
 "columnname":"Date",
 "created":"2014-08-02T11:25:37",
 "createdby":100,
 "defaultvalue":null,
 "defaultvalue2":null,
 "description":"Horizon Date for Mini MRP Calculations.",
 "displaylogic":null,
 "entitytype":"Manufacturing Processes",
 "fieldlength":0,
 "help":"Date Range (Horizone) for Mini MRP Calculations.",
 "isactive":"N",
 "iscentrallymaintained":"Y",
 "ismandatory":"Y",
 "isrange":"Y",
 "readonlylogic":null,
 "seqno":10,
 "updated":"2016-04-11T16:43:04",
 "updatedby":0,
 "valuemax":null,
 "valuemin":null,
 "vformat":null}, "children" : []},{"tablename" : "ad_process_para", "data" : {"ad_process_para_id":54913,
 "name":"Product Category",
 "ad_client_id":0,
 "ad_element_id":453,
 "ad_org_id":0,
 "ad_process_id":53685,
 "ad_reference_id":18,
 "ad_reference_value_id":null,
 "ad_val_rule_id":null,
 "columnname":"M_Product_Category_ID",
 "created":"2014-08-02T11:27:52",
 "createdby":100,
 "defaultvalue":null,
 "defaultvalue2":null,
 "description":"Product Category ID on which MiniMRP Calculation has been applied.",
 "displaylogic":null,
 "entitytype":"Manufacturing Processes",
 "fieldlength":0,
 "help":"Product Category ID on which MiniMRP Calculation has been applied.",
 "isactive":"N",
 "iscentrallymaintained":"Y",
 "ismandatory":"N",
 "isrange":"N",
 "readonlylogic":null,
 "seqno":20,
 "updated":"2016-04-11T16:43:04",
 "updatedby":0,
 "valuemax":null,
 "valuemin":null,
 "vformat":null}, "children" : []}]},
 {"tablename" : "ad_process", "data" : {"ad_process_id":53778,
 "value":"MRPCascadingRequirements",
 "name":"MRP Cascading Requirements Report",
 "accesslevel":"3",
 "ad_client_id":0,
 "ad_form_id":null,
 "ad_org_id":0,
 "ad_printformat_id":null,
 "ad_reportview_id":53136,
 "ad_tableselection_id":null,
 "ad_workflow_id":null,
 "classname":"org.adempiere.process.GenerateMiniMRPReport",
 "copyfromprocess":null,
 "created":"2015-06-02T13:25:55",
 "createdby":100,
 "description":null,
 "entitytype":"Manufacturing Processes",
 "help":null,
 "isactive":"Y",
 "isbetafunctionality":"N",
 "isdirectprint":"N",
 "isreport":"Y",
 "isserverprocess":"N",
 "jasperreport":null,
 "procedurename":null,
 "showhelp":"Y",
 "statistic_count":0,
 "statistic_seconds":0,
 "updated":"2016-07-01T00:51:37",
 "updatedby":0,
 "workflowvalue":null}, "children" : [{"tablename" : "ad_process_para", "data" : {"ad_process_para_id":55262,
 "name":"Product Category",
 "ad_client_id":0,
 "ad_element_id":453,
 "ad_org_id":0,
 "ad_process_id":53778,
 "ad_reference_id":18,
 "ad_reference_value_id":null,
 "ad_val_rule_id":null,
 "columnname":"M_Product_Category_ID",
 "created":"2015-06-02T13:25:56",
 "createdby":100,
 "defaultvalue":null,
 "defaultvalue2":null,
 "description":"Category of a Product",
 "displaylogic":null,
 "entitytype":"Manufacturing Processes",
 "fieldlength":0,
 "help":"Identifies the category which this product belongs to.  Product categories are used for pricing and selection.",
 "isactive":"Y",
 "iscentrallymaintained":"Y",
 "ismandatory":"N",
 "isrange":"N",
 "readonlylogic":null,
 "seqno":10,
 "updated":"2015-06-02T13:25:56",
 "updatedby":100,
 "valuemax":null,
 "valuemin":null,
 "vformat":null}, "children" : []},{"tablename" : "ad_process_para", "data" : {"ad_process_para_id":55263,
 "name":"Product",
 "ad_client_id":0,
 "ad_element_id":454,
 "ad_org_id":0,
 "ad_process_id":53778,
 "ad_reference_id":18,
 "ad_reference_value_id":null,
 "ad_val_rule_id":52433,
 "columnname":"M_Product_ID",
 "created":"2015-06-02T13:25:58",
 "createdby":100,
 "defaultvalue":null,
 "defaultvalue2":null,
 "description":"Product, Service, Item",
 "displaylogic":null,
 "entitytype":"Manufacturing Processes",
 "fieldlength":0,
 "help":"Identifies an item which is either purchased or sold in this organization.",
 "isactive":"Y",
 "iscentrallymaintained":"Y",
 "ismandatory":"N",
 "isrange":"N",
 "readonlylogic":null,
 "seqno":20,
 "updated":"2016-04-12T09:52:23.093499",
 "updatedby":100,
 "valuemax":null,
 "valuemin":null,
 "vformat":null}, "children" : []},{"tablename" : "ad_process_para", "data" : {"ad_process_para_id":55351,
 "name":"MRP_Run ID",
 "ad_client_id":0,
 "ad_element_id":58006,
 "ad_org_id":0,
 "ad_process_id":53778,
 "ad_reference_id":19,
 "ad_reference_value_id":null,
 "ad_val_rule_id":null,
 "columnname":"MRP_Run_ID",
 "created":"2016-01-08T09:28:19",
 "createdby":0,
 "defaultvalue":"@MRP_Run_ID@",
 "defaultvalue2":null,
 "description":null,
 "displaylogic":null,
 "entitytype":"Manufacturing Processes",
 "fieldlength":10,
 "help":null,
 "isactive":"Y",
 "iscentrallymaintained":"Y",
 "ismandatory":"Y",
 "isrange":"N",
 "readonlylogic":"1=1",
 "seqno":5,
 "updated":"2016-04-12T09:52:23.093499",
 "updatedby":0,
 "valuemax":null,
 "valuemin":null,
 "vformat":null}, "children" : []},{"tablename" : "ad_process_para", "data" : {"ad_process_para_id":55352,
 "name":"Has Supply/Demand",
 "ad_client_id":0,
 "ad_element_id":null,
 "ad_org_id":0,
 "ad_process_id":53778,
 "ad_reference_id":17,
 "ad_reference_value_id":319,
 "ad_val_rule_id":null,
 "columnname":"HasSupplyDemand",
 "created":"2016-01-08T09:29:58",
 "createdby":0,
 "defaultvalue":"Y",
 "defaultvalue2":null,
 "description":"This product has supply or demand in the current MRP run.",
 "displaylogic":null,
 "entitytype":"Manufacturing Processes",
 "fieldlength":1,
 "help":null,
 "isactive":"Y",
 "iscentrallymaintained":"Y",
 "ismandatory":"N",
 "isrange":"N",
 "readonlylogic":null,
 "seqno":30,
 "updated":"2016-04-12T09:52:23.093499",
 "updatedby":0,
 "valuemax":null,
 "valuemin":null,
 "vformat":null}, "children" : []}]},
 {"tablename" : "ad_process", "data" : {"ad_process_id":53820,
 "value":"MiniMRP_Production_Report",
 "name":"MiniMRP Production Report",
 "accesslevel":"3",
 "ad_client_id":0,
 "ad_form_id":null,
 "ad_org_id":0,
 "ad_printformat_id":null,
 "ad_reportview_id":53186,
 "ad_tableselection_id":null,
 "ad_workflow_id":null,
 "classname":"org.adempiere.process.GenerateMRPProductionReport",
 "copyfromprocess":"N",
 "created":"2016-01-06T15:26:44",
 "createdby":100,
 "description":"Showing report of Planned Production generated from current MRPRun.",
 "entitytype":"Manufacturing Processes",
 "help":null,
 "isactive":"Y",
 "isbetafunctionality":"N",
 "isdirectprint":"N",
 "isreport":"Y",
 "isserverprocess":"N",
 "jasperreport":null,
 "procedurename":null,
 "showhelp":"Y",
 "statistic_count":0,
 "statistic_seconds":0,
 "updated":"2016-01-06T15:26:44",
 "updatedby":100,
 "workflowvalue":null}, "children" : [{"tablename" : "ad_process_para", "data" : {"ad_process_para_id":55479,
 "name":"MRP_Run ID",
 "ad_client_id":0,
 "ad_element_id":58006,
 "ad_org_id":0,
 "ad_process_id":53820,
 "ad_reference_id":30,
 "ad_reference_value_id":null,
 "ad_val_rule_id":null,
 "columnname":"MRP_Run_ID",
 "created":"2016-04-29T12:27:42",
 "createdby":100,
 "defaultvalue":"@MRP_Run_ID@",
 "defaultvalue2":null,
 "description":null,
 "displaylogic":null,
 "entitytype":"Manufacturing Processes",
 "fieldlength":0,
 "help":null,
 "isactive":"Y",
 "iscentrallymaintained":"Y",
 "ismandatory":"N",
 "isrange":"N",
 "readonlylogic":"1=1",
 "seqno":10,
 "updated":"2016-07-01T00:52:17.972991",
 "updatedby":100,
 "valuemax":null,
 "valuemin":null,
 "vformat":null}, "children" : []}]},
 {"tablename" : "ad_process", "data" : {"ad_process_id":53821,
 "value":"MiniMRP_Requisition_Report",
 "name":"MiniMRP Requisition Report",
 "accesslevel":"3",
 "ad_client_id":0,
 "ad_form_id":null,
 "ad_org_id":0,
 "ad_printformat_id":null,
 "ad_reportview_id":53187,
 "ad_tableselection_id":null,
 "ad_workflow_id":null,
 "classname":"org.adempiere.process.GenerateMRPRequisitionReport",
 "copyfromprocess":"N",
 "created":"2016-01-06T15:28:25",
 "createdby":100,
 "description":"Showing report of Suggested Requisition generated from current MRPRun.",
 "entitytype":"Manufacturing Processes",
 "help":null,
 "isactive":"Y",
 "isbetafunctionality":"N",
 "isdirectprint":"N",
 "isreport":"Y",
 "isserverprocess":"N",
 "jasperreport":null,
 "procedurename":null,
 "showhelp":"Y",
 "statistic_count":0,
 "statistic_seconds":0,
 "updated":"2016-01-06T15:28:25",
 "updatedby":100,
 "workflowvalue":null}, "children" : [{"tablename" : "ad_process_para", "data" : {"ad_process_para_id":55478,
 "name":"MRP_Run ID",
 "ad_client_id":0,
 "ad_element_id":58006,
 "ad_org_id":0,
 "ad_process_id":53821,
 "ad_reference_id":30,
 "ad_reference_value_id":null,
 "ad_val_rule_id":null,
 "columnname":"MRP_Run_ID",
 "created":"2016-04-29T12:25:48",
 "createdby":100,
 "defaultvalue":"@MRP_Run_ID@",
 "defaultvalue2":null,
 "description":null,
 "displaylogic":null,
 "entitytype":"Manufacturing Processes",
 "fieldlength":0,
 "help":null,
 "isactive":"Y",
 "iscentrallymaintained":"Y",
 "ismandatory":"N",
 "isrange":"N",
 "readonlylogic":"1=1",
 "seqno":10,
 "updated":"2016-07-01T00:52:17.972991",
 "updatedby":0,
 "valuemax":null,
 "valuemin":null,
 "vformat":null}, "children" : []}]},
 {"tablename" : "ad_process", "data" : {"ad_process_id":53870,
 "value":"MRPInitialSetup",
 "name":"MRP Initial Setup",
 "accesslevel":"7",
 "ad_client_id":0,
 "ad_form_id":null,
 "ad_org_id":0,
 "ad_printformat_id":null,
 "ad_reportview_id":null,
 "ad_tableselection_id":null,
 "ad_workflow_id":null,
 "classname":"org.adempiere.process.MRPInitialSetup",
 "copyfromprocess":"N",
 "created":"2016-06-03T18:03:51",
 "createdby":100,
 "description":"Initial setup to get you started in MRP",
 "entitytype":"Manufacturing Processes",
 "help":null,
 "isactive":"Y",
 "isbetafunctionality":"N",
 "isdirectprint":"N",
 "isreport":"N",
 "isserverprocess":"N",
 "jasperreport":null,
 "procedurename":null,
 "showhelp":"Y",
 "statistic_count":0,
 "statistic_seconds":0,
 "updated":"2016-06-03T18:03:51",
 "updatedby":100,
 "workflowvalue":null}, "children" : [{"tablename" : "ad_process_para", "data" : {"ad_process_para_id":55539,
 "name":"Create Planned Order Document Type",
 "ad_client_id":0,
 "ad_element_id":null,
 "ad_org_id":0,
 "ad_process_id":53870,
 "ad_reference_id":20,
 "ad_reference_value_id":null,
 "ad_val_rule_id":null,
 "columnname":"isCreateDocTypePlannedOrder",
 "created":"2016-06-03T18:05:03",
 "createdby":100,
 "defaultvalue":"Y",
 "defaultvalue2":null,
 "description":null,
 "displaylogic":null,
 "entitytype":"Manufacturing Processes",
 "fieldlength":1,
 "help":null,
 "isactive":"Y",
 "iscentrallymaintained":"N",
 "ismandatory":"N",
 "isrange":"N",
 "readonlylogic":null,
 "seqno":10,
 "updated":"2016-07-01T00:52:06",
 "updatedby":0,
 "valuemax":null,
 "valuemin":null,
 "vformat":null}, "children" : []},{"tablename" : "ad_process_para", "data" : {"ad_process_para_id":55540,
 "name":"Create Manufacturing Order Document Type",
 "ad_client_id":0,
 "ad_element_id":null,
 "ad_org_id":0,
 "ad_process_id":53870,
 "ad_reference_id":20,
 "ad_reference_value_id":null,
 "ad_val_rule_id":null,
 "columnname":"isCreateDocTypeConfirmedOrder",
 "created":"2016-06-03T18:06:03",
 "createdby":100,
 "defaultvalue":"Y",
 "defaultvalue2":null,
 "description":"This is a Confirmed Manufacturing Order",
 "displaylogic":null,
 "entitytype":"Manufacturing Processes",
 "fieldlength":1,
 "help":null,
 "isactive":"Y",
 "iscentrallymaintained":"N",
 "ismandatory":"N",
 "isrange":"N",
 "readonlylogic":null,
 "seqno":20,
 "updated":"2016-07-01T00:52:06",
 "updatedby":0,
 "valuemax":null,
 "valuemin":null,
 "vformat":null}, "children" : []},{"tablename" : "ad_process_para", "data" : {"ad_process_para_id":55541,
 "name":"Create MRP Requisition Document Type",
 "ad_client_id":0,
 "ad_element_id":null,
 "ad_org_id":0,
 "ad_process_id":53870,
 "ad_reference_id":20,
 "ad_reference_value_id":null,
 "ad_val_rule_id":null,
 "columnname":"isCreateDocTypeMRPRequisition",
 "created":"2016-06-03T18:06:45",
 "createdby":100,
 "defaultvalue":"Y",
 "defaultvalue2":null,
 "description":"Create MRP Requisition Document Type",
 "displaylogic":null,
 "entitytype":"Manufacturing Processes",
 "fieldlength":1,
 "help":null,
 "isactive":"Y",
 "iscentrallymaintained":"N",
 "ismandatory":"N",
 "isrange":"N",
 "readonlylogic":null,
 "seqno":30,
 "updated":"2016-06-03T18:06:45",
 "updatedby":100,
 "valuemax":null,
 "valuemin":null,
 "vformat":null}, "children" : []},{"tablename" : "ad_process_para", "data" : {"ad_process_para_id":55542,
 "name":"Create Purchase Order Document Type",
 "ad_client_id":0,
 "ad_element_id":null,
 "ad_org_id":0,
 "ad_process_id":53870,
 "ad_reference_id":20,
 "ad_reference_value_id":null,
 "ad_val_rule_id":null,
 "columnname":"isCreateDocTypePurchaseOrder",
 "created":"2016-06-03T18:07:26",
 "createdby":100,
 "defaultvalue":"N",
 "defaultvalue2":null,
 "description":"Create Purchase Order Document Type",
 "displaylogic":null,
 "entitytype":"Manufacturing Processes",
 "fieldlength":1,
 "help":null,
 "isactive":"Y",
 "iscentrallymaintained":"N",
 "ismandatory":"N",
 "isrange":"N",
 "readonlylogic":null,
 "seqno":40,
 "updated":"2016-07-01T00:52:06",
 "updatedby":0,
 "valuemax":null,
 "valuemin":null,
 "vformat":null}, "children" : []}]},
 {"tablename" : "ad_process", "data" : {"ad_process_id":53891,
 "value":"MRP_Run_Reset",
 "name":"MRP_Run_Reset",
 "accesslevel":"3",
 "ad_client_id":0,
 "ad_form_id":null,
 "ad_org_id":0,
 "ad_printformat_id":null,
 "ad_reportview_id":null,
 "ad_tableselection_id":null,
 "ad_workflow_id":null,
 "classname":"org.adempiere.process.MRPClearState",
 "copyfromprocess":"N",
 "created":"2016-08-30T17:19:05",
 "createdby":100,
 "description":null,
 "entitytype":"Manufacturing Processes",
 "help":null,
 "isactive":"Y",
 "isbetafunctionality":"N",
 "isdirectprint":"N",
 "isreport":"N",
 "isserverprocess":"N",
 "jasperreport":null,
 "procedurename":null,
 "showhelp":"Y",
 "statistic_count":0,
 "statistic_seconds":0,
 "updated":"2016-08-30T17:19:05",
 "updatedby":100,
 "workflowvalue":null}, "children" : [{"tablename" : "ad_process_para", "data" : {"ad_process_para_id":55614,
 "name":"MRP_Run ID",
 "ad_client_id":0,
 "ad_element_id":58006,
 "ad_org_id":0,
 "ad_process_id":53891,
 "ad_reference_id":19,
 "ad_reference_value_id":null,
 "ad_val_rule_id":null,
 "columnname":"MRP_Run_ID",
 "created":"2016-08-30T17:19:42",
 "createdby":100,
 "defaultvalue":null,
 "defaultvalue2":null,
 "description":null,
 "displaylogic":null,
 "entitytype":"Manufacturing Processes",
 "fieldlength":0,
 "help":null,
 "isactive":"Y",
 "iscentrallymaintained":"Y",
 "ismandatory":"Y",
 "isrange":"N",
 "readonlylogic":null,
 "seqno":10,
 "updated":"2019-02-04T13:39:33.247367",
 "updatedby":0,
 "valuemax":null,
 "valuemin":null,
 "vformat":null}, "children" : []}]},
 {"tablename" : "ad_process", "data" : {"ad_process_id":53944,
 "value":"MRPCapacityCascadingRequirements",
 "name":"MRP Capacity Cascading Requirements Report",
 "accesslevel":"3",
 "ad_client_id":0,
 "ad_form_id":null,
 "ad_org_id":0,
 "ad_printformat_id":null,
 "ad_reportview_id":53220,
 "ad_tableselection_id":null,
 "ad_workflow_id":null,
 "classname":"org.adempiere.process.GenerateMiniMRPReport",
 "copyfromprocess":"N",
 "created":"2017-04-12T18:07:11",
 "createdby":100,
 "description":null,
 "entitytype":"Manufacturing Processes",
 "help":null,
 "isactive":"Y",
 "isbetafunctionality":"N",
 "isdirectprint":"N",
 "isreport":"Y",
 "isserverprocess":"N",
 "jasperreport":null,
 "procedurename":null,
 "showhelp":"Y",
 "statistic_count":0,
 "statistic_seconds":0,
 "updated":"2017-04-12T18:07:11",
 "updatedby":100,
 "workflowvalue":null}, "children" : [{"tablename" : "ad_process_para", "data" : {"ad_process_para_id":55784,
 "name":"MRP_Run ID",
 "ad_client_id":0,
 "ad_element_id":58006,
 "ad_org_id":0,
 "ad_process_id":53944,
 "ad_reference_id":19,
 "ad_reference_value_id":null,
 "ad_val_rule_id":null,
 "columnname":"MRP_Run_ID",
 "created":"2017-04-12T18:08:14",
 "createdby":100,
 "defaultvalue":"@MRP_Run_ID@",
 "defaultvalue2":null,
 "description":null,
 "displaylogic":null,
 "entitytype":"Manufacturing Processes",
 "fieldlength":10,
 "help":null,
 "isactive":"Y",
 "iscentrallymaintained":"Y",
 "ismandatory":"Y",
 "isrange":"N",
 "readonlylogic":"1=1",
 "seqno":10,
 "updated":"2019-02-04T13:39:33.247367",
 "updatedby":100,
 "valuemax":null,
 "valuemin":null,
 "vformat":null}, "children" : []},{"tablename" : "ad_process_para", "data" : {"ad_process_para_id":55785,
 "name":"Work Centre",
 "ad_client_id":0,
 "ad_element_id":58633,
 "ad_org_id":0,
 "ad_process_id":53944,
 "ad_reference_id":19,
 "ad_reference_value_id":null,
 "ad_val_rule_id":null,
 "columnname":"M_WorkCentre_ID",
 "created":"2017-04-12T18:09:15",
 "createdby":100,
 "defaultvalue":null,
 "defaultvalue2":null,
 "description":null,
 "displaylogic":null,
 "entitytype":"Manufacturing Processes",
 "fieldlength":0,
 "help":null,
 "isactive":"Y",
 "iscentrallymaintained":"Y",
 "ismandatory":"N",
 "isrange":"N",
 "readonlylogic":null,
 "seqno":20,
 "updated":"2019-02-04T13:39:33.247367",
 "updatedby":100,
 "valuemax":null,
 "valuemin":null,
 "vformat":null}, "children" : []},{"tablename" : "ad_process_para", "data" : {"ad_process_para_id":55786,
 "name":"Product",
 "ad_client_id":0,
 "ad_element_id":454,
 "ad_org_id":0,
 "ad_process_id":53944,
 "ad_reference_id":19,
 "ad_reference_value_id":null,
 "ad_val_rule_id":52514,
 "columnname":"M_Product_ID",
 "created":"2017-04-12T18:14:02",
 "createdby":100,
 "defaultvalue":null,
 "defaultvalue2":null,
 "description":"Product, Service, Item",
 "displaylogic":null,
 "entitytype":"Manufacturing Processes",
 "fieldlength":10,
 "help":"Identifies an item which is either purchased or sold in this organization.",
 "isactive":"Y",
 "iscentrallymaintained":"Y",
 "ismandatory":"N",
 "isrange":"N",
 "readonlylogic":null,
 "seqno":30,
 "updated":"2019-02-04T13:39:33.247367",
 "updatedby":100,
 "valuemax":null,
 "valuemin":null,
 "vformat":null}, "children" : []}]}]