[{"tablename" : "ad_table", "data" : {"ad_table_id":645,
 "tablename":"AD_WF_Process",
 "name":"Workflow Process",
 "accesslevel":"7",
 "ad_client_id":0,
 "ad_org_id":0,
 "ad_val_rule_id":null,
 "ad_window_id":297,
 "copycolumnsfromtable":null,
 "created":"2004-01-01T23:35:02",
 "createdby":0,
 "description":"Actual Workflow Process Instance",
 "entitytype":"Workflow",
 "help":null,
 "importtable":null,
 "isactive":"Y",
 "iscentrallymaintained":"Y",
 "ischangelog":"N",
 "isdeleteable":"N",
 "ishighvolume":"N",
 "issecurityenabled":"N",
 "istscapable":"N",
 "isview":"N",
 "loadseq":135,
 "po_window_id":null,
 "replicationtype":"L",
 "sqlstatement":null,
 "updated":"2000-01-02T00:00:00",
 "updatedby":0}, "children" : [{"tablename" : "ad_column", "data" : {"ad_column_id":10456,
 "columnname":"Created",
 "name":"Created",
 "ad_chart_id":null,
 "ad_client_id":0,
 "ad_element_id":245,
 "ad_infowindow_id":null,
 "ad_org_id":0,
 "ad_process_id":null,
 "ad_reference_id":16,
 "ad_reference_value_id":null,
 "ad_table_id":645,
 "ad_val_rule_id":null,
 "callout":null,
 "columnsql":null,
 "created":"2004-01-01T23:35:03",
 "createdby":0,
 "defaultvalue":null,
 "description":"Date this record was created",
 "entitytype":"Workflow",
 "fieldlength":7,
 "formatpattern":null,
 "help":"The Created field indicates the date that this record was created.",
 "infofactoryclass":null,
 "isactive":"Y",
 "isallowcopy":"N",
 "isallowlogging":"Y",
 "isalwaysupdateable":"N",
 "isautocomplete":"N",
 "isencrypted":"N",
 "isidentifier":"N",
 "isincludeints":"N",
 "iskey":"N",
 "ismandatory":"Y",
 "isparent":"N",
 "issecure":"N",
 "isselectioncolumn":"N",
 "issyncdatabase":"N",
 "istoolbarbutton":"N",
 "istranslated":"N",
 "isupdateable":"N",
 "mandatorylogic":null,
 "readonlylogic":null,
 "seqno":0,
 "updated":"2000-01-02T00:00:00",
 "updatedby":0,
 "valuemax":null,
 "valuemin":null,
 "version":1,
 "vformat":null}, "children" : []},{"tablename" : "ad_column", "data" : {"ad_column_id":10457,
 "columnname":"Processing",
 "name":"Process Now",
 "ad_chart_id":null,
 "ad_client_id":0,
 "ad_element_id":524,
 "ad_infowindow_id":null,
 "ad_org_id":0,
 "ad_process_id":null,
 "ad_reference_id":28,
 "ad_reference_value_id":null,
 "ad_table_id":645,
 "ad_val_rule_id":null,
 "callout":null,
 "columnsql":null,
 "created":"2004-01-01T23:35:03",
 "createdby":0,
 "defaultvalue":null,
 "description":null,
 "entitytype":"Workflow",
 "fieldlength":1,
 "formatpattern":null,
 "help":null,
 "infofactoryclass":null,
 "isactive":"Y",
 "isallowcopy":"N",
 "isallowlogging":"Y",
 "isalwaysupdateable":"N",
 "isautocomplete":"N",
 "isencrypted":"N",
 "isidentifier":"N",
 "isincludeints":"N",
 "iskey":"N",
 "ismandatory":"N",
 "isparent":"N",
 "issecure":"N",
 "isselectioncolumn":"N",
 "issyncdatabase":"N",
 "istoolbarbutton":"N",
 "istranslated":"N",
 "isupdateable":"Y",
 "mandatorylogic":null,
 "readonlylogic":null,
 "seqno":0,
 "updated":"2000-01-02T00:00:00",
 "updatedby":0,
 "valuemax":null,
 "valuemin":null,
 "version":1,
 "vformat":null}, "children" : []},{"tablename" : "ad_column", "data" : {"ad_column_id":10459,
 "columnname":"Updated",
 "name":"Updated",
 "ad_chart_id":null,
 "ad_client_id":0,
 "ad_element_id":607,
 "ad_infowindow_id":null,
 "ad_org_id":0,
 "ad_process_id":null,
 "ad_reference_id":16,
 "ad_reference_value_id":null,
 "ad_table_id":645,
 "ad_val_rule_id":null,
 "callout":null,
 "columnsql":null,
 "created":"2004-01-01T23:35:03",
 "createdby":0,
 "defaultvalue":null,
 "description":"Date this record was updated",
 "entitytype":"Workflow",
 "fieldlength":7,
 "formatpattern":null,
 "help":"The Updated field indicates the date that this record was updated.",
 "infofactoryclass":null,
 "isactive":"Y",
 "isallowcopy":"N",
 "isallowlogging":"Y",
 "isalwaysupdateable":"N",
 "isautocomplete":"N",
 "isencrypted":"N",
 "isidentifier":"N",
 "isincludeints":"N",
 "iskey":"N",
 "ismandatory":"Y",
 "isparent":"N",
 "issecure":"N",
 "isselectioncolumn":"N",
 "issyncdatabase":"N",
 "istoolbarbutton":"N",
 "istranslated":"N",
 "isupdateable":"N",
 "mandatorylogic":null,
 "readonlylogic":null,
 "seqno":0,
 "updated":"2000-01-02T00:00:00",
 "updatedby":0,
 "valuemax":null,
 "valuemin":null,
 "version":1,
 "vformat":null}, "children" : []},{"tablename" : "ad_column", "data" : {"ad_column_id":10460,
 "columnname":"Processed",
 "name":"Processed",
 "ad_chart_id":null,
 "ad_client_id":0,
 "ad_element_id":1047,
 "ad_infowindow_id":null,
 "ad_org_id":0,
 "ad_process_id":null,
 "ad_reference_id":20,
 "ad_reference_value_id":null,
 "ad_table_id":645,
 "ad_val_rule_id":null,
 "callout":null,
 "columnsql":null,
 "created":"2004-01-01T23:35:03",
 "createdby":0,
 "defaultvalue":null,
 "description":"The document has been processed",
 "entitytype":"Workflow",
 "fieldlength":1,
 "formatpattern":null,
 "help":"The Processed checkbox indicates that a document has been processed.",
 "infofactoryclass":null,
 "isactive":"Y",
 "isallowcopy":"Y",
 "isallowlogging":"Y",
 "isalwaysupdateable":"N",
 "isautocomplete":"N",
 "isencrypted":"N",
 "isidentifier":"N",
 "isincludeints":"N",
 "iskey":"N",
 "ismandatory":"Y",
 "isparent":"N",
 "issecure":"N",
 "isselectioncolumn":"N",
 "issyncdatabase":"N",
 "istoolbarbutton":"N",
 "istranslated":"N",
 "isupdateable":"Y",
 "mandatorylogic":null,
 "readonlylogic":null,
 "seqno":0,
 "updated":"2000-01-02T00:00:00",
 "updatedby":0,
 "valuemax":null,
 "valuemin":null,
 "version":1,
 "vformat":null}, "children" : []},{"tablename" : "ad_column", "data" : {"ad_column_id":10461,
 "columnname":"IsActive",
 "name":"Active",
 "ad_chart_id":null,
 "ad_client_id":0,
 "ad_element_id":348,
 "ad_infowindow_id":null,
 "ad_org_id":0,
 "ad_process_id":null,
 "ad_reference_id":20,
 "ad_reference_value_id":null,
 "ad_table_id":645,
 "ad_val_rule_id":null,
 "callout":null,
 "columnsql":null,
 "created":"2004-01-01T23:35:03",
 "createdby":0,
 "defaultvalue":"Y",
 "description":"The record is active in the system",
 "entitytype":"Workflow",
 "fieldlength":1,
 "formatpattern":null,
 "help":"There are two methods of making records unavailable in the system: One is to delete the record, the other is to de-activate the record. A de-activated record is not available for selection, but available for reports.\nThere are two reasons for de-activating and not deleting records:\n(1) The system requires the record for audit purposes.\n(2) The record is referenced by other records. E.g., you cannot delete a Business Partner, if there are invoices for this partner record existing. You de-activate the Business Partner and prevent that this record is used for future entries.",
 "infofactoryclass":null,
 "isactive":"Y",
 "isallowcopy":"N",
 "isallowlogging":"Y",
 "isalwaysupdateable":"N",
 "isautocomplete":"N",
 "isencrypted":"N",
 "isidentifier":"N",
 "isincludeints":"N",
 "iskey":"N",
 "ismandatory":"Y",
 "isparent":"N",
 "issecure":"N",
 "isselectioncolumn":"N",
 "issyncdatabase":"N",
 "istoolbarbutton":"N",
 "istranslated":"N",
 "isupdateable":"Y",
 "mandatorylogic":null,
 "readonlylogic":null,
 "seqno":0,
 "updated":"2000-01-02T00:00:00",
 "updatedby":0,
 "valuemax":null,
 "valuemin":null,
 "version":1,
 "vformat":null}, "children" : []},{"tablename" : "ad_column", "data" : {"ad_column_id":10462,
 "columnname":"AD_Workflow_ID",
 "name":"Workflow",
 "ad_chart_id":null,
 "ad_client_id":0,
 "ad_element_id":144,
 "ad_infowindow_id":null,
 "ad_org_id":0,
 "ad_process_id":null,
 "ad_reference_id":19,
 "ad_reference_value_id":null,
 "ad_table_id":645,
 "ad_val_rule_id":null,
 "callout":null,
 "columnsql":null,
 "created":"2004-01-01T23:35:03",
 "createdby":0,
 "defaultvalue":null,
 "description":"Workflow or combination of tasks",
 "entitytype":"Workflow",
 "fieldlength":22,
 "formatpattern":null,
 "help":"The Workflow field identifies a unique Workflow in the system.",
 "infofactoryclass":null,
 "isactive":"Y",
 "isallowcopy":"Y",
 "isallowlogging":"Y",
 "isalwaysupdateable":"N",
 "isautocomplete":"N",
 "isencrypted":"N",
 "isidentifier":"Y",
 "isincludeints":"N",
 "iskey":"N",
 "ismandatory":"Y",
 "isparent":"N",
 "issecure":"N",
 "isselectioncolumn":"N",
 "issyncdatabase":"N",
 "istoolbarbutton":"N",
 "istranslated":"N",
 "isupdateable":"Y",
 "mandatorylogic":null,
 "readonlylogic":null,
 "seqno":1,
 "updated":"2000-01-02T00:00:00",
 "updatedby":0,
 "valuemax":null,
 "valuemin":null,
 "version":1,
 "vformat":null}, "children" : []},{"tablename" : "ad_column", "data" : {"ad_column_id":10463,
 "columnname":"AD_Client_ID",
 "name":"Client",
 "ad_chart_id":null,
 "ad_client_id":0,
 "ad_element_id":102,
 "ad_infowindow_id":null,
 "ad_org_id":0,
 "ad_process_id":null,
 "ad_reference_id":19,
 "ad_reference_value_id":null,
 "ad_table_id":645,
 "ad_val_rule_id":null,
 "callout":null,
 "columnsql":null,
 "created":"2004-01-01T23:35:03",
 "createdby":0,
 "defaultvalue":"@#AD_Client_ID@",
 "description":"Client/Tenant for this installation.",
 "entitytype":"Workflow",
 "fieldlength":22,
 "formatpattern":null,
 "help":"A Client is a company or a legal entity. You cannot share data between Clients. Tenant is a synonym for Client.",
 "infofactoryclass":null,
 "isactive":"Y",
 "isallowcopy":"N",
 "isallowlogging":"Y",
 "isalwaysupdateable":"N",
 "isautocomplete":"N",
 "isencrypted":"N",
 "isidentifier":"N",
 "isincludeints":"N",
 "iskey":"N",
 "ismandatory":"Y",
 "isparent":"N",
 "issecure":"N",
 "isselectioncolumn":"N",
 "issyncdatabase":"N",
 "istoolbarbutton":"N",
 "istranslated":"N",
 "isupdateable":"N",
 "mandatorylogic":null,
 "readonlylogic":null,
 "seqno":0,
 "updated":"2000-01-02T00:00:00",
 "updatedby":0,
 "valuemax":null,
 "valuemin":null,
 "version":1,
 "vformat":null}, "children" : []},{"tablename" : "ad_column", "data" : {"ad_column_id":10464,
 "columnname":"CreatedBy",
 "name":"Created By",
 "ad_chart_id":null,
 "ad_client_id":0,
 "ad_element_id":246,
 "ad_infowindow_id":null,
 "ad_org_id":0,
 "ad_process_id":null,
 "ad_reference_id":18,
 "ad_reference_value_id":110,
 "ad_table_id":645,
 "ad_val_rule_id":null,
 "callout":null,
 "columnsql":null,
 "created":"2004-01-01T23:35:03",
 "createdby":0,
 "defaultvalue":null,
 "description":"User who created this records",
 "entitytype":"Workflow",
 "fieldlength":22,
 "formatpattern":null,
 "help":"The Created By field indicates the user who created this record.",
 "infofactoryclass":null,
 "isactive":"Y",
 "isallowcopy":"N",
 "isallowlogging":"Y",
 "isalwaysupdateable":"N",
 "isautocomplete":"N",
 "isencrypted":"N",
 "isidentifier":"N",
 "isincludeints":"N",
 "iskey":"N",
 "ismandatory":"Y",
 "isparent":"N",
 "issecure":"N",
 "isselectioncolumn":"N",
 "issyncdatabase":"N",
 "istoolbarbutton":"N",
 "istranslated":"N",
 "isupdateable":"N",
 "mandatorylogic":null,
 "readonlylogic":null,
 "seqno":0,
 "updated":"2000-01-02T00:00:00",
 "updatedby":0,
 "valuemax":null,
 "valuemin":null,
 "version":1,
 "vformat":null}, "children" : []},{"tablename" : "ad_column", "data" : {"ad_column_id":10465,
 "columnname":"AD_Org_ID",
 "name":"Organisation",
 "ad_chart_id":null,
 "ad_client_id":0,
 "ad_element_id":113,
 "ad_infowindow_id":null,
 "ad_org_id":0,
 "ad_process_id":null,
 "ad_reference_id":19,
 "ad_reference_value_id":null,
 "ad_table_id":645,
 "ad_val_rule_id":104,
 "callout":null,
 "columnsql":null,
 "created":"2004-01-01T23:35:03",
 "createdby":0,
 "defaultvalue":"@#AD_Org_ID@",
 "description":"Organisational entity within client",
 "entitytype":"Workflow",
 "fieldlength":22,
 "formatpattern":null,
 "help":"An organisation is a unit of your client or legal entity - examples are store, department. You can share data between organisations.",
 "infofactoryclass":null,
 "isactive":"Y",
 "isallowcopy":"N",
 "isallowlogging":"Y",
 "isalwaysupdateable":"N",
 "isautocomplete":"N",
 "isencrypted":"N",
 "isidentifier":"N",
 "isincludeints":"N",
 "iskey":"N",
 "ismandatory":"Y",
 "isparent":"N",
 "issecure":"N",
 "isselectioncolumn":"N",
 "issyncdatabase":"N",
 "istoolbarbutton":"N",
 "istranslated":"N",
 "isupdateable":"N",
 "mandatorylogic":null,
 "readonlylogic":null,
 "seqno":0,
 "updated":"2000-01-02T00:00:00",
 "updatedby":0,
 "valuemax":null,
 "valuemin":null,
 "version":1,
 "vformat":null}, "children" : []},{"tablename" : "ad_column", "data" : {"ad_column_id":10466,
 "columnname":"WFState",
 "name":"Workflow State",
 "ad_chart_id":null,
 "ad_client_id":0,
 "ad_element_id":2332,
 "ad_infowindow_id":null,
 "ad_org_id":0,
 "ad_process_id":null,
 "ad_reference_id":17,
 "ad_reference_value_id":305,
 "ad_table_id":645,
 "ad_val_rule_id":null,
 "callout":null,
 "columnsql":null,
 "created":"2004-01-01T23:35:03",
 "createdby":0,
 "defaultvalue":null,
 "description":"State of the execution of the workflow",
 "entitytype":"Workflow",
 "fieldlength":2,
 "formatpattern":null,
 "help":null,
 "infofactoryclass":null,
 "isactive":"Y",
 "isallowcopy":"Y",
 "isallowlogging":"Y",
 "isalwaysupdateable":"N",
 "isautocomplete":"N",
 "isencrypted":"N",
 "isidentifier":"N",
 "isincludeints":"N",
 "iskey":"N",
 "ismandatory":"Y",
 "isparent":"N",
 "issecure":"N",
 "isselectioncolumn":"N",
 "issyncdatabase":"N",
 "istoolbarbutton":"N",
 "istranslated":"N",
 "isupdateable":"Y",
 "mandatorylogic":null,
 "readonlylogic":null,
 "seqno":0,
 "updated":"2000-01-02T00:00:00",
 "updatedby":0,
 "valuemax":null,
 "valuemin":null,
 "version":1,
 "vformat":null}, "children" : []},{"tablename" : "ad_column", "data" : {"ad_column_id":10467,
 "columnname":"AD_User_ID",
 "name":"User/Contact",
 "ad_chart_id":null,
 "ad_client_id":0,
 "ad_element_id":138,
 "ad_infowindow_id":null,
 "ad_org_id":0,
 "ad_process_id":null,
 "ad_reference_id":30,
 "ad_reference_value_id":286,
 "ad_table_id":645,
 "ad_val_rule_id":null,
 "callout":null,
 "columnsql":null,
 "created":"2004-01-01T23:35:03",
 "createdby":0,
 "defaultvalue":null,
 "description":"User within the system - Internal or Business Partner Contact",
 "entitytype":"Workflow",
 "fieldlength":22,
 "formatpattern":null,
 "help":"The User identifies a unique user in the system. This could be an internal user or a business partner contact",
 "infofactoryclass":null,
 "isactive":"Y",
 "isallowcopy":"Y",
 "isallowlogging":"Y",
 "isalwaysupdateable":"N",
 "isautocomplete":"N",
 "isencrypted":"N",
 "isidentifier":"N",
 "isincludeints":"N",
 "iskey":"N",
 "ismandatory":"N",
 "isparent":"N",
 "issecure":"N",
 "isselectioncolumn":"N",
 "issyncdatabase":"N",
 "istoolbarbutton":"N",
 "istranslated":"N",
 "isupdateable":"Y",
 "mandatorylogic":null,
 "readonlylogic":null,
 "seqno":0,
 "updated":"2000-01-02T00:00:00",
 "updatedby":0,
 "valuemax":null,
 "valuemin":null,
 "version":1,
 "vformat":null}, "children" : []},{"tablename" : "ad_column", "data" : {"ad_column_id":10468,
 "columnname":"UpdatedBy",
 "name":"Updated By",
 "ad_chart_id":null,
 "ad_client_id":0,
 "ad_element_id":608,
 "ad_infowindow_id":null,
 "ad_org_id":0,
 "ad_process_id":null,
 "ad_reference_id":18,
 "ad_reference_value_id":110,
 "ad_table_id":645,
 "ad_val_rule_id":null,
 "callout":null,
 "columnsql":null,
 "created":"2004-01-01T23:35:03",
 "createdby":0,
 "defaultvalue":null,
 "description":"User who updated this records",
 "entitytype":"Workflow",
 "fieldlength":22,
 "formatpattern":null,
 "help":"The Updated By field indicates the user who updated this record.",
 "infofactoryclass":null,
 "isactive":"Y",
 "isallowcopy":"N",
 "isallowlogging":"Y",
 "isalwaysupdateable":"N",
 "isautocomplete":"N",
 "isencrypted":"N",
 "isidentifier":"N",
 "isincludeints":"N",
 "iskey":"N",
 "ismandatory":"Y",
 "isparent":"N",
 "issecure":"N",
 "isselectioncolumn":"N",
 "issyncdatabase":"N",
 "istoolbarbutton":"N",
 "istranslated":"N",
 "isupdateable":"N",
 "mandatorylogic":null,
 "readonlylogic":null,
 "seqno":0,
 "updated":"2000-01-02T00:00:00",
 "updatedby":0,
 "valuemax":null,
 "valuemin":null,
 "version":1,
 "vformat":null}, "children" : []},{"tablename" : "ad_column", "data" : {"ad_column_id":10470,
 "columnname":"AD_WF_Process_ID",
 "name":"Workflow Process",
 "ad_chart_id":null,
 "ad_client_id":0,
 "ad_element_id":2312,
 "ad_infowindow_id":null,
 "ad_org_id":0,
 "ad_process_id":null,
 "ad_reference_id":19,
 "ad_reference_value_id":null,
 "ad_table_id":645,
 "ad_val_rule_id":null,
 "callout":null,
 "columnsql":null,
 "created":"2004-01-01T23:35:03",
 "createdby":0,
 "defaultvalue":null,
 "description":"Actual Workflow Process Instance",
 "entitytype":"Workflow",
 "fieldlength":22,
 "formatpattern":null,
 "help":"Instance of a workflow execution",
 "infofactoryclass":null,
 "isactive":"Y",
 "isallowcopy":"N",
 "isallowlogging":"Y",
 "isalwaysupdateable":"N",
 "isautocomplete":"N",
 "isencrypted":"N",
 "isidentifier":"N",
 "isincludeints":"N",
 "iskey":"Y",
 "ismandatory":"Y",
 "isparent":"N",
 "issecure":"N",
 "isselectioncolumn":"N",
 "issyncdatabase":"N",
 "istoolbarbutton":"N",
 "istranslated":"N",
 "isupdateable":"N",
 "mandatorylogic":null,
 "readonlylogic":null,
 "seqno":0,
 "updated":"2000-01-02T00:00:00",
 "updatedby":0,
 "valuemax":null,
 "valuemin":null,
 "version":1,
 "vformat":null}, "children" : []},{"tablename" : "ad_column", "data" : {"ad_column_id":10471,
 "columnname":"AD_Message_ID",
 "name":"Message",
 "ad_chart_id":null,
 "ad_client_id":0,
 "ad_element_id":1752,
 "ad_infowindow_id":null,
 "ad_org_id":0,
 "ad_process_id":null,
 "ad_reference_id":19,
 "ad_reference_value_id":null,
 "ad_table_id":645,
 "ad_val_rule_id":null,
 "callout":null,
 "columnsql":null,
 "created":"2004-01-01T23:35:03",
 "createdby":0,
 "defaultvalue":null,
 "description":"System Message",
 "entitytype":"Workflow",
 "fieldlength":22,
 "formatpattern":null,
 "help":"Information and Error messages",
 "infofactoryclass":null,
 "isactive":"Y",
 "isallowcopy":"Y",
 "isallowlogging":"Y",
 "isalwaysupdateable":"N",
 "isautocomplete":"N",
 "isencrypted":"N",
 "isidentifier":"N",
 "isincludeints":"N",
 "iskey":"N",
 "ismandatory":"N",
 "isparent":"N",
 "issecure":"N",
 "isselectioncolumn":"N",
 "issyncdatabase":"N",
 "istoolbarbutton":"N",
 "istranslated":"N",
 "isupdateable":"Y",
 "mandatorylogic":null,
 "readonlylogic":null,
 "seqno":0,
 "updated":"2000-01-02T00:00:00",
 "updatedby":0,
 "valuemax":null,
 "valuemin":null,
 "version":1,
 "vformat":null}, "children" : []},{"tablename" : "ad_column", "data" : {"ad_column_id":10809,
 "columnname":"TextMsg",
 "name":"Text Message",
 "ad_chart_id":null,
 "ad_client_id":0,
 "ad_element_id":2438,
 "ad_infowindow_id":null,
 "ad_org_id":0,
 "ad_process_id":null,
 "ad_reference_id":14,
 "ad_reference_value_id":null,
 "ad_table_id":645,
 "ad_val_rule_id":null,
 "callout":null,
 "columnsql":null,
 "created":"2004-02-19T10:29:54",
 "createdby":0,
 "defaultvalue":null,
 "description":"Text Message",
 "entitytype":"Workflow",
 "fieldlength":2000,
 "formatpattern":null,
 "help":null,
 "infofactoryclass":null,
 "isactive":"Y",
 "isallowcopy":"Y",
 "isallowlogging":"Y",
 "isalwaysupdateable":"N",
 "isautocomplete":"N",
 "isencrypted":"N",
 "isidentifier":"N",
 "isincludeints":"N",
 "iskey":"N",
 "ismandatory":"N",
 "isparent":"N",
 "issecure":"N",
 "isselectioncolumn":"N",
 "issyncdatabase":"N",
 "istoolbarbutton":"N",
 "istranslated":"N",
 "isupdateable":"Y",
 "mandatorylogic":null,
 "readonlylogic":null,
 "seqno":0,
 "updated":"2000-01-02T00:00:00",
 "updatedby":0,
 "valuemax":null,
 "valuemin":null,
 "version":1,
 "vformat":null}, "children" : []},{"tablename" : "ad_column", "data" : {"ad_column_id":11547,
 "columnname":"AD_Table_ID",
 "name":"Table",
 "ad_chart_id":null,
 "ad_client_id":0,
 "ad_element_id":126,
 "ad_infowindow_id":null,
 "ad_org_id":0,
 "ad_process_id":null,
 "ad_reference_id":30,
 "ad_reference_value_id":null,
 "ad_table_id":645,
 "ad_val_rule_id":null,
 "callout":null,
 "columnsql":null,
 "created":"2004-03-17T17:57:43",
 "createdby":0,
 "defaultvalue":null,
 "description":"Database Table information",
 "entitytype":"Workflow",
 "fieldlength":22,
 "formatpattern":null,
 "help":"The Database Table provides the information of the table definition",
 "infofactoryclass":null,
 "isactive":"Y",
 "isallowcopy":"Y",
 "isallowlogging":"Y",
 "isalwaysupdateable":"N",
 "isautocomplete":"N",
 "isencrypted":"N",
 "isidentifier":"N",
 "isincludeints":"N",
 "iskey":"N",
 "ismandatory":"Y",
 "isparent":"N",
 "issecure":"N",
 "isselectioncolumn":"N",
 "issyncdatabase":"N",
 "istoolbarbutton":"N",
 "istranslated":"N",
 "isupdateable":"Y",
 "mandatorylogic":null,
 "readonlylogic":null,
 "seqno":0,
 "updated":"2000-01-02T00:00:00",
 "updatedby":0,
 "valuemax":null,
 "valuemin":null,
 "version":1,
 "vformat":null}, "children" : []},{"tablename" : "ad_column", "data" : {"ad_column_id":11548,
 "columnname":"Priority",
 "name":"Priority",
 "ad_chart_id":null,
 "ad_client_id":0,
 "ad_element_id":1514,
 "ad_infowindow_id":null,
 "ad_org_id":0,
 "ad_process_id":null,
 "ad_reference_id":11,
 "ad_reference_value_id":null,
 "ad_table_id":645,
 "ad_val_rule_id":null,
 "callout":null,
 "columnsql":null,
 "created":"2004-03-17T17:57:43",
 "createdby":0,
 "defaultvalue":null,
 "description":"Indicates if this request is of a high, medium or low priority.",
 "entitytype":"Workflow",
 "fieldlength":22,
 "formatpattern":null,
 "help":"The Priority indicates the importance of this request.",
 "infofactoryclass":null,
 "isactive":"Y",
 "isallowcopy":"Y",
 "isallowlogging":"Y",
 "isalwaysupdateable":"N",
 "isautocomplete":"N",
 "isencrypted":"N",
 "isidentifier":"N",
 "isincludeints":"N",
 "iskey":"N",
 "ismandatory":"N",
 "isparent":"N",
 "issecure":"N",
 "isselectioncolumn":"N",
 "issyncdatabase":"N",
 "istoolbarbutton":"N",
 "istranslated":"N",
 "isupdateable":"Y",
 "mandatorylogic":null,
 "readonlylogic":null,
 "seqno":0,
 "updated":"2000-01-02T00:00:00",
 "updatedby":0,
 "valuemax":null,
 "valuemin":null,
 "version":1,
 "vformat":null}, "children" : []},{"tablename" : "ad_column", "data" : {"ad_column_id":11549,
 "columnname":"Record_ID",
 "name":"Record ID",
 "ad_chart_id":null,
 "ad_client_id":0,
 "ad_element_id":538,
 "ad_infowindow_id":null,
 "ad_org_id":0,
 "ad_process_id":null,
 "ad_reference_id":28,
 "ad_reference_value_id":null,
 "ad_table_id":645,
 "ad_val_rule_id":null,
 "callout":null,
 "columnsql":null,
 "created":"2004-03-17T17:57:43",
 "createdby":0,
 "defaultvalue":null,
 "description":"Direct internal record ID",
 "entitytype":"Workflow",
 "fieldlength":22,
 "formatpattern":null,
 "help":"The Record ID is the internal unique identifier of a record. Please note that zooming to the record may not be successful for Orders, Invoices and Shipment/Receipts as sometimes the Sales Order type is not known.",
 "infofactoryclass":null,
 "isactive":"Y",
 "isallowcopy":"Y",
 "isallowlogging":"Y",
 "isalwaysupdateable":"N",
 "isautocomplete":"N",
 "isencrypted":"N",
 "isidentifier":"N",
 "isincludeints":"N",
 "iskey":"N",
 "ismandatory":"Y",
 "isparent":"N",
 "issecure":"N",
 "isselectioncolumn":"N",
 "issyncdatabase":"N",
 "istoolbarbutton":"N",
 "istranslated":"N",
 "isupdateable":"Y",
 "mandatorylogic":null,
 "readonlylogic":null,
 "seqno":0,
 "updated":"2000-01-02T00:00:00",
 "updatedby":0,
 "valuemax":null,
 "valuemin":null,
 "version":1,
 "vformat":null}, "children" : []},{"tablename" : "ad_table_attribute", "data" : {"ad_table_attribute_id":50643,
 "name":"ad_wf_process_pkey",
 "ad_client_id":0,
 "ad_org_id":0,
 "ad_table_id":645,
 "created":"2022-11-02T05:57:56.041854",
 "createdby":100,
 "entitytype":"Workflow",
 "errormsg":null,
 "isactive":"Y",
 "tableattributedefinition":"PRIMARY KEY (ad_wf_process_id)",
 "tableattributetype":"CP",
 "tsvdefinition":null,
 "updated":"2022-11-02T05:57:56.041854",
 "updatedby":100}, "children" : []},{"tablename" : "ad_table_attribute", "data" : {"ad_table_attribute_id":50644,
 "name":"aduser_adwfprocess",
 "ad_client_id":0,
 "ad_org_id":0,
 "ad_table_id":645,
 "created":"2022-11-02T05:57:56.041854",
 "createdby":100,
 "entitytype":"Workflow",
 "errormsg":null,
 "isactive":"Y",
 "tableattributedefinition":"FOREIGN KEY (ad_user_id) REFERENCES ad_user(ad_user_id) DEFERRABLE INITIALLY DEFERRED",
 "tableattributetype":"CF",
 "tsvdefinition":null,
 "updated":"2022-11-02T05:57:56.041854",
 "updatedby":100}, "children" : []},{"tablename" : "ad_table_attribute", "data" : {"ad_table_attribute_id":50645,
 "name":"wf_instanceorg",
 "ad_client_id":0,
 "ad_org_id":0,
 "ad_table_id":645,
 "created":"2022-11-02T05:57:56.041854",
 "createdby":100,
 "entitytype":"Workflow",
 "errormsg":null,
 "isactive":"Y",
 "tableattributedefinition":"FOREIGN KEY (ad_org_id) REFERENCES ad_org(ad_org_id) DEFERRABLE INITIALLY DEFERRED",
 "tableattributetype":"CF",
 "tsvdefinition":null,
 "updated":"2022-11-02T05:57:56.041854",
 "updatedby":100}, "children" : []},{"tablename" : "ad_table_attribute", "data" : {"ad_table_attribute_id":50646,
 "name":"wf_instanceclient",
 "ad_client_id":0,
 "ad_org_id":0,
 "ad_table_id":645,
 "created":"2022-11-02T05:57:56.041854",
 "createdby":100,
 "entitytype":"Workflow",
 "errormsg":null,
 "isactive":"Y",
 "tableattributedefinition":"FOREIGN KEY (ad_client_id) REFERENCES ad_client(ad_client_id) DEFERRABLE INITIALLY DEFERRED",
 "tableattributetype":"CF",
 "tsvdefinition":null,
 "updated":"2022-11-02T05:57:56.041854",
 "updatedby":100}, "children" : []},{"tablename" : "ad_table_attribute", "data" : {"ad_table_attribute_id":50647,
 "name":"adworkflow_adwfprocess",
 "ad_client_id":0,
 "ad_org_id":0,
 "ad_table_id":645,
 "created":"2022-11-02T05:57:56.041854",
 "createdby":100,
 "entitytype":"Workflow",
 "errormsg":null,
 "isactive":"Y",
 "tableattributedefinition":"FOREIGN KEY (ad_workflow_id) REFERENCES ad_workflow(ad_workflow_id) ON DELETE CASCADE DEFERRABLE INITIALLY DEFERRED",
 "tableattributetype":"CF",
 "tsvdefinition":null,
 "updated":"2022-11-02T05:57:56.041854",
 "updatedby":100}, "children" : []},{"tablename" : "ad_table_attribute", "data" : {"ad_table_attribute_id":50648,
 "name":"adtable_adwfprocess",
 "ad_client_id":0,
 "ad_org_id":0,
 "ad_table_id":645,
 "created":"2022-11-02T05:57:56.041854",
 "createdby":100,
 "entitytype":"Workflow",
 "errormsg":null,
 "isactive":"Y",
 "tableattributedefinition":"FOREIGN KEY (ad_table_id) REFERENCES ad_table(ad_table_id) DEFERRABLE INITIALLY DEFERRED",
 "tableattributetype":"CF",
 "tsvdefinition":null,
 "updated":"2022-11-02T05:57:56.041854",
 "updatedby":100}, "children" : []},{"tablename" : "ad_table_attribute", "data" : {"ad_table_attribute_id":50649,
 "name":"adwfprocess_adwfprocess",
 "ad_client_id":0,
 "ad_org_id":0,
 "ad_table_id":645,
 "created":"2022-11-02T05:57:56.041854",
 "createdby":100,
 "entitytype":"Workflow",
 "errormsg":null,
 "isactive":"Y",
 "tableattributedefinition":"FOREIGN KEY (ad_wf_process_id) REFERENCES ad_wf_process(ad_wf_process_id) DEFERRABLE INITIALLY DEFERRED",
 "tableattributetype":"CF",
 "tsvdefinition":null,
 "updated":"2022-11-02T05:57:56.041854",
 "updatedby":100}, "children" : []},{"tablename" : "ad_table_attribute", "data" : {"ad_table_attribute_id":50650,
 "name":"admessage_adwfprocess",
 "ad_client_id":0,
 "ad_org_id":0,
 "ad_table_id":645,
 "created":"2022-11-02T05:57:56.041854",
 "createdby":100,
 "entitytype":"Workflow",
 "errormsg":null,
 "isactive":"Y",
 "tableattributedefinition":"FOREIGN KEY (ad_message_id) REFERENCES ad_message(ad_message_id) DEFERRABLE INITIALLY DEFERRED",
 "tableattributetype":"CF",
 "tsvdefinition":null,
 "updated":"2022-11-02T05:57:56.041854",
 "updatedby":100}, "children" : []},{"tablename" : "ad_table_attribute", "data" : {"ad_table_attribute_id":52923,
 "name":"ad_wf_process_workflow",
 "ad_client_id":0,
 "ad_org_id":0,
 "ad_table_id":645,
 "created":"2022-11-02T06:15:05.061147",
 "createdby":100,
 "entitytype":"Workflow",
 "errormsg":null,
 "isactive":"Y",
 "tableattributedefinition":" USING btree (ad_workflow_id)",
 "tableattributetype":"I",
 "tsvdefinition":null,
 "updated":"2022-11-02T06:15:05.061147",
 "updatedby":100}, "children" : []},{"tablename" : "ad_table_attribute", "data" : {"ad_table_attribute_id":53312,
 "name":"ad_wf_process_processed_check",
 "ad_client_id":0,
 "ad_org_id":0,
 "ad_table_id":645,
 "created":"2022-11-02T12:40:39.392787",
 "createdby":100,
 "entitytype":"Workflow",
 "errormsg":null,
 "isactive":"Y",
 "tableattributedefinition":"CHECK ((processed = ANY (ARRAY['Y'::bpchar, 'N'::bpchar])))",
 "tableattributetype":"CC",
 "tsvdefinition":null,
 "updated":"2022-11-02T12:40:39.392787",
 "updatedby":100}, "children" : []},{"tablename" : "ad_table_attribute", "data" : {"ad_table_attribute_id":53313,
 "name":"ad_wf_process_isactive_check",
 "ad_client_id":0,
 "ad_org_id":0,
 "ad_table_id":645,
 "created":"2022-11-02T12:40:39.392787",
 "createdby":100,
 "entitytype":"Workflow",
 "errormsg":null,
 "isactive":"Y",
 "tableattributedefinition":"CHECK ((isactive = ANY (ARRAY['Y'::bpchar, 'N'::bpchar])))",
 "tableattributetype":"CC",
 "tsvdefinition":null,
 "updated":"2022-11-02T12:40:39.392787",
 "updatedby":100}, "children" : []}]}]