[{"tablename" : "ad_table", "data" : {"ad_table_id":789,
 "tablename":"C_Job",
 "name":"Position",
 "accesslevel":"2",
 "ad_client_id":0,
 "ad_org_id":0,
 "ad_val_rule_id":null,
 "ad_window_id":351,
 "copycolumnsfromtable":null,
 "created":"2005-05-15T01:00:53",
 "createdby":100,
 "description":null,
 "entitytype":"Human Resource & Payroll",
 "help":null,
 "importtable":"N",
 "isactive":"Y",
 "iscentrallymaintained":"Y",
 "ischangelog":"N",
 "isdeleteable":"Y",
 "ishighvolume":"N",
 "issecurityenabled":"N",
 "istscapable":"N",
 "isview":"N",
 "loadseq":140,
 "po_window_id":null,
 "replicationtype":"L",
 "sqlstatement":null,
 "updated":"2005-11-09T14:22:28",
 "updatedby":100}, "children" : [{"tablename" : "ad_column", "data" : {"ad_column_id":13781,
 "columnname":"C_Job_ID",
 "name":"Position",
 "ad_chart_id":null,
 "ad_client_id":0,
 "ad_element_id":2761,
 "ad_infowindow_id":null,
 "ad_org_id":0,
 "ad_process_id":null,
 "ad_reference_id":13,
 "ad_reference_value_id":null,
 "ad_table_id":789,
 "ad_val_rule_id":null,
 "callout":null,
 "columnsql":null,
 "created":"2005-05-15T01:00:58",
 "createdby":100,
 "defaultvalue":null,
 "description":"Job Position",
 "entitytype":"Human Resource & Payroll",
 "fieldlength":10,
 "formatpattern":null,
 "help":null,
 "infofactoryclass":null,
 "isactive":"Y",
 "isallowcopy":"N",
 "isallowlogging":"Y",
 "isalwaysupdateable":"N",
 "isautocomplete":"N",
 "isencrypted":"N",
 "isidentifier":"N",
 "isincludeints":"N",
 "iskey":"Y",
 "ismandatory":"Y",
 "isparent":"N",
 "issecure":"N",
 "isselectioncolumn":"N",
 "issyncdatabase":"N",
 "istoolbarbutton":"N",
 "istranslated":"N",
 "isupdateable":"N",
 "mandatorylogic":null,
 "readonlylogic":null,
 "seqno":null,
 "updated":"2005-05-15T01:00:58",
 "updatedby":100,
 "valuemax":null,
 "valuemin":null,
 "version":0,
 "vformat":null}, "children" : []},{"tablename" : "ad_column", "data" : {"ad_column_id":13782,
 "columnname":"AD_Client_ID",
 "name":"Client",
 "ad_chart_id":null,
 "ad_client_id":0,
 "ad_element_id":102,
 "ad_infowindow_id":null,
 "ad_org_id":0,
 "ad_process_id":null,
 "ad_reference_id":19,
 "ad_reference_value_id":null,
 "ad_table_id":789,
 "ad_val_rule_id":129,
 "callout":null,
 "columnsql":null,
 "created":"2005-05-15T01:00:58",
 "createdby":100,
 "defaultvalue":"@#AD_Client_ID@",
 "description":"Client/Tenant for this installation.",
 "entitytype":"Human Resource & Payroll",
 "fieldlength":10,
 "formatpattern":null,
 "help":"A Client is a company or a legal entity. You cannot share data between Clients. Tenant is a synonym for Client.",
 "infofactoryclass":null,
 "isactive":"Y",
 "isallowcopy":"N",
 "isallowlogging":"Y",
 "isalwaysupdateable":"N",
 "isautocomplete":"N",
 "isencrypted":"N",
 "isidentifier":"N",
 "isincludeints":"N",
 "iskey":"N",
 "ismandatory":"Y",
 "isparent":"N",
 "issecure":"N",
 "isselectioncolumn":"N",
 "issyncdatabase":"N",
 "istoolbarbutton":"N",
 "istranslated":"N",
 "isupdateable":"N",
 "mandatorylogic":null,
 "readonlylogic":null,
 "seqno":null,
 "updated":"2005-05-15T01:00:58",
 "updatedby":100,
 "valuemax":null,
 "valuemin":null,
 "version":0,
 "vformat":null}, "children" : []},{"tablename" : "ad_column", "data" : {"ad_column_id":13783,
 "columnname":"AD_Org_ID",
 "name":"Organisation",
 "ad_chart_id":null,
 "ad_client_id":0,
 "ad_element_id":113,
 "ad_infowindow_id":null,
 "ad_org_id":0,
 "ad_process_id":null,
 "ad_reference_id":19,
 "ad_reference_value_id":null,
 "ad_table_id":789,
 "ad_val_rule_id":104,
 "callout":null,
 "columnsql":null,
 "created":"2005-05-15T01:00:58",
 "createdby":100,
 "defaultvalue":"@#AD_Org_ID@",
 "description":"Organisational entity within client",
 "entitytype":"Human Resource & Payroll",
 "fieldlength":10,
 "formatpattern":null,
 "help":"An organisation is a unit of your client or legal entity - examples are store, department. You can share data between organisations.",
 "infofactoryclass":null,
 "isactive":"Y",
 "isallowcopy":"N",
 "isallowlogging":"Y",
 "isalwaysupdateable":"N",
 "isautocomplete":"N",
 "isencrypted":"N",
 "isidentifier":"N",
 "isincludeints":"N",
 "iskey":"N",
 "ismandatory":"Y",
 "isparent":"N",
 "issecure":"N",
 "isselectioncolumn":"N",
 "issyncdatabase":"N",
 "istoolbarbutton":"N",
 "istranslated":"N",
 "isupdateable":"N",
 "mandatorylogic":null,
 "readonlylogic":null,
 "seqno":null,
 "updated":"2005-05-15T01:00:58",
 "updatedby":100,
 "valuemax":null,
 "valuemin":null,
 "version":0,
 "vformat":null}, "children" : []},{"tablename" : "ad_column", "data" : {"ad_column_id":13784,
 "columnname":"IsActive",
 "name":"Active",
 "ad_chart_id":null,
 "ad_client_id":0,
 "ad_element_id":348,
 "ad_infowindow_id":null,
 "ad_org_id":0,
 "ad_process_id":null,
 "ad_reference_id":20,
 "ad_reference_value_id":null,
 "ad_table_id":789,
 "ad_val_rule_id":null,
 "callout":null,
 "columnsql":null,
 "created":"2005-05-15T01:00:58",
 "createdby":100,
 "defaultvalue":"Y",
 "description":"The record is active in the system",
 "entitytype":"Human Resource & Payroll",
 "fieldlength":1,
 "formatpattern":null,
 "help":"There are two methods of making records unavailable in the system: One is to delete the record, the other is to de-activate the record. A de-activated record is not available for selection, but available for reports.\nThere are two reasons for de-activating and not deleting records:\n(1) The system requires the record for audit purposes.\n(2) The record is referenced by other records. E.g., you cannot delete a Business Partner, if there are invoices for this partner record existing. You de-activate the Business Partner and prevent that this record is used for future entries.",
 "infofactoryclass":null,
 "isactive":"Y",
 "isallowcopy":"N",
 "isallowlogging":"Y",
 "isalwaysupdateable":"N",
 "isautocomplete":"N",
 "isencrypted":"N",
 "isidentifier":"N",
 "isincludeints":"N",
 "iskey":"N",
 "ismandatory":"Y",
 "isparent":"N",
 "issecure":"N",
 "isselectioncolumn":"N",
 "issyncdatabase":"N",
 "istoolbarbutton":"N",
 "istranslated":"N",
 "isupdateable":"Y",
 "mandatorylogic":null,
 "readonlylogic":null,
 "seqno":null,
 "updated":"2005-05-15T01:00:58",
 "updatedby":100,
 "valuemax":null,
 "valuemin":null,
 "version":0,
 "vformat":null}, "children" : []},{"tablename" : "ad_column", "data" : {"ad_column_id":13785,
 "columnname":"Created",
 "name":"Created",
 "ad_chart_id":null,
 "ad_client_id":0,
 "ad_element_id":245,
 "ad_infowindow_id":null,
 "ad_org_id":0,
 "ad_process_id":null,
 "ad_reference_id":16,
 "ad_reference_value_id":null,
 "ad_table_id":789,
 "ad_val_rule_id":null,
 "callout":null,
 "columnsql":null,
 "created":"2005-05-15T01:00:59",
 "createdby":100,
 "defaultvalue":null,
 "description":"Date this record was created",
 "entitytype":"Human Resource & Payroll",
 "fieldlength":7,
 "formatpattern":null,
 "help":"The Created field indicates the date that this record was created.",
 "infofactoryclass":null,
 "isactive":"Y",
 "isallowcopy":"N",
 "isallowlogging":"Y",
 "isalwaysupdateable":"N",
 "isautocomplete":"N",
 "isencrypted":"N",
 "isidentifier":"N",
 "isincludeints":"N",
 "iskey":"N",
 "ismandatory":"Y",
 "isparent":"N",
 "issecure":"N",
 "isselectioncolumn":"N",
 "issyncdatabase":"N",
 "istoolbarbutton":"N",
 "istranslated":"N",
 "isupdateable":"N",
 "mandatorylogic":null,
 "readonlylogic":null,
 "seqno":null,
 "updated":"2005-05-15T01:00:59",
 "updatedby":100,
 "valuemax":null,
 "valuemin":null,
 "version":0,
 "vformat":null}, "children" : []},{"tablename" : "ad_column", "data" : {"ad_column_id":13786,
 "columnname":"CreatedBy",
 "name":"Created By",
 "ad_chart_id":null,
 "ad_client_id":0,
 "ad_element_id":246,
 "ad_infowindow_id":null,
 "ad_org_id":0,
 "ad_process_id":null,
 "ad_reference_id":18,
 "ad_reference_value_id":110,
 "ad_table_id":789,
 "ad_val_rule_id":null,
 "callout":null,
 "columnsql":null,
 "created":"2005-05-15T01:00:59",
 "createdby":100,
 "defaultvalue":null,
 "description":"User who created this records",
 "entitytype":"Human Resource & Payroll",
 "fieldlength":10,
 "formatpattern":null,
 "help":"The Created By field indicates the user who created this record.",
 "infofactoryclass":null,
 "isactive":"Y",
 "isallowcopy":"N",
 "isallowlogging":"Y",
 "isalwaysupdateable":"N",
 "isautocomplete":"N",
 "isencrypted":"N",
 "isidentifier":"N",
 "isincludeints":"N",
 "iskey":"N",
 "ismandatory":"Y",
 "isparent":"N",
 "issecure":"N",
 "isselectioncolumn":"N",
 "issyncdatabase":"N",
 "istoolbarbutton":"N",
 "istranslated":"N",
 "isupdateable":"N",
 "mandatorylogic":null,
 "readonlylogic":null,
 "seqno":null,
 "updated":"2005-05-15T01:00:59",
 "updatedby":100,
 "valuemax":null,
 "valuemin":null,
 "version":0,
 "vformat":null}, "children" : []},{"tablename" : "ad_column", "data" : {"ad_column_id":13787,
 "columnname":"Updated",
 "name":"Updated",
 "ad_chart_id":null,
 "ad_client_id":0,
 "ad_element_id":607,
 "ad_infowindow_id":null,
 "ad_org_id":0,
 "ad_process_id":null,
 "ad_reference_id":16,
 "ad_reference_value_id":null,
 "ad_table_id":789,
 "ad_val_rule_id":null,
 "callout":null,
 "columnsql":null,
 "created":"2005-05-15T01:00:59",
 "createdby":100,
 "defaultvalue":null,
 "description":"Date this record was updated",
 "entitytype":"Human Resource & Payroll",
 "fieldlength":7,
 "formatpattern":null,
 "help":"The Updated field indicates the date that this record was updated.",
 "infofactoryclass":null,
 "isactive":"Y",
 "isallowcopy":"N",
 "isallowlogging":"Y",
 "isalwaysupdateable":"N",
 "isautocomplete":"N",
 "isencrypted":"N",
 "isidentifier":"N",
 "isincludeints":"N",
 "iskey":"N",
 "ismandatory":"Y",
 "isparent":"N",
 "issecure":"N",
 "isselectioncolumn":"N",
 "issyncdatabase":"N",
 "istoolbarbutton":"N",
 "istranslated":"N",
 "isupdateable":"N",
 "mandatorylogic":null,
 "readonlylogic":null,
 "seqno":null,
 "updated":"2005-05-15T01:00:59",
 "updatedby":100,
 "valuemax":null,
 "valuemin":null,
 "version":0,
 "vformat":null}, "children" : []},{"tablename" : "ad_column", "data" : {"ad_column_id":13788,
 "columnname":"UpdatedBy",
 "name":"Updated By",
 "ad_chart_id":null,
 "ad_client_id":0,
 "ad_element_id":608,
 "ad_infowindow_id":null,
 "ad_org_id":0,
 "ad_process_id":null,
 "ad_reference_id":18,
 "ad_reference_value_id":110,
 "ad_table_id":789,
 "ad_val_rule_id":null,
 "callout":null,
 "columnsql":null,
 "created":"2005-05-15T01:00:59",
 "createdby":100,
 "defaultvalue":null,
 "description":"User who updated this records",
 "entitytype":"Human Resource & Payroll",
 "fieldlength":10,
 "formatpattern":null,
 "help":"The Updated By field indicates the user who updated this record.",
 "infofactoryclass":null,
 "isactive":"Y",
 "isallowcopy":"N",
 "isallowlogging":"Y",
 "isalwaysupdateable":"N",
 "isautocomplete":"N",
 "isencrypted":"N",
 "isidentifier":"N",
 "isincludeints":"N",
 "iskey":"N",
 "ismandatory":"Y",
 "isparent":"N",
 "issecure":"N",
 "isselectioncolumn":"N",
 "issyncdatabase":"N",
 "istoolbarbutton":"N",
 "istranslated":"N",
 "isupdateable":"N",
 "mandatorylogic":null,
 "readonlylogic":null,
 "seqno":null,
 "updated":"2005-05-15T01:00:59",
 "updatedby":100,
 "valuemax":null,
 "valuemin":null,
 "version":0,
 "vformat":null}, "children" : []},{"tablename" : "ad_column", "data" : {"ad_column_id":13789,
 "columnname":"Name",
 "name":"Name",
 "ad_chart_id":null,
 "ad_client_id":0,
 "ad_element_id":469,
 "ad_infowindow_id":null,
 "ad_org_id":0,
 "ad_process_id":null,
 "ad_reference_id":10,
 "ad_reference_value_id":null,
 "ad_table_id":789,
 "ad_val_rule_id":null,
 "callout":null,
 "columnsql":null,
 "created":"2005-05-15T01:00:59",
 "createdby":100,
 "defaultvalue":null,
 "description":"Alphanumeric identifier of the entity",
 "entitytype":"Human Resource & Payroll",
 "fieldlength":60,
 "formatpattern":null,
 "help":"The name of an entity (record) is used as an default search option in addition to the search key. The name is up to 60 characters in length.",
 "infofactoryclass":null,
 "isactive":"Y",
 "isallowcopy":"Y",
 "isallowlogging":"Y",
 "isalwaysupdateable":"N",
 "isautocomplete":"N",
 "isencrypted":"N",
 "isidentifier":"Y",
 "isincludeints":"N",
 "iskey":"N",
 "ismandatory":"Y",
 "isparent":"N",
 "issecure":"N",
 "isselectioncolumn":"Y",
 "issyncdatabase":"N",
 "istoolbarbutton":"N",
 "istranslated":"N",
 "isupdateable":"Y",
 "mandatorylogic":null,
 "readonlylogic":null,
 "seqno":1,
 "updated":"2005-05-15T01:00:59",
 "updatedby":100,
 "valuemax":null,
 "valuemin":null,
 "version":0,
 "vformat":null}, "children" : []},{"tablename" : "ad_column", "data" : {"ad_column_id":13790,
 "columnname":"Description",
 "name":"Description",
 "ad_chart_id":null,
 "ad_client_id":0,
 "ad_element_id":275,
 "ad_infowindow_id":null,
 "ad_org_id":0,
 "ad_process_id":null,
 "ad_reference_id":10,
 "ad_reference_value_id":null,
 "ad_table_id":789,
 "ad_val_rule_id":null,
 "callout":null,
 "columnsql":null,
 "created":"2005-05-15T01:00:59",
 "createdby":100,
 "defaultvalue":null,
 "description":"Optional short description of the record",
 "entitytype":"Human Resource & Payroll",
 "fieldlength":255,
 "formatpattern":null,
 "help":"A description is limited to 255 characters.",
 "infofactoryclass":null,
 "isactive":"Y",
 "isallowcopy":"Y",
 "isallowlogging":"Y",
 "isalwaysupdateable":"N",
 "isautocomplete":"N",
 "isencrypted":"N",
 "isidentifier":"N",
 "isincludeints":"N",
 "iskey":"N",
 "ismandatory":"N",
 "isparent":"N",
 "issecure":"N",
 "isselectioncolumn":"Y",
 "issyncdatabase":"N",
 "istoolbarbutton":"N",
 "istranslated":"N",
 "isupdateable":"Y",
 "mandatorylogic":null,
 "readonlylogic":null,
 "seqno":null,
 "updated":"2005-05-15T01:00:59",
 "updatedby":100,
 "valuemax":null,
 "valuemin":null,
 "version":0,
 "vformat":null}, "children" : []},{"tablename" : "ad_column", "data" : {"ad_column_id":13791,
 "columnname":"Help",
 "name":"Comment/Help",
 "ad_chart_id":null,
 "ad_client_id":0,
 "ad_element_id":326,
 "ad_infowindow_id":null,
 "ad_org_id":0,
 "ad_process_id":null,
 "ad_reference_id":14,
 "ad_reference_value_id":null,
 "ad_table_id":789,
 "ad_val_rule_id":null,
 "callout":null,
 "columnsql":null,
 "created":"2005-05-15T01:00:59",
 "createdby":100,
 "defaultvalue":null,
 "description":"Comment or Hint",
 "entitytype":"Human Resource & Payroll",
 "fieldlength":2000,
 "formatpattern":null,
 "help":"The Help field contains a hint, comment or help about the use of this item.",
 "infofactoryclass":null,
 "isactive":"Y",
 "isallowcopy":"Y",
 "isallowlogging":"Y",
 "isalwaysupdateable":"N",
 "isautocomplete":"N",
 "isencrypted":"N",
 "isidentifier":"N",
 "isincludeints":"N",
 "iskey":"N",
 "ismandatory":"N",
 "isparent":"N",
 "issecure":"N",
 "isselectioncolumn":"N",
 "issyncdatabase":"N",
 "istoolbarbutton":"N",
 "istranslated":"N",
 "isupdateable":"Y",
 "mandatorylogic":null,
 "readonlylogic":null,
 "seqno":null,
 "updated":"2005-05-15T01:00:59",
 "updatedby":100,
 "valuemax":null,
 "valuemin":null,
 "version":0,
 "vformat":null}, "children" : []},{"tablename" : "ad_column", "data" : {"ad_column_id":13792,
 "columnname":"C_JobCategory_ID",
 "name":"Position Category",
 "ad_chart_id":null,
 "ad_client_id":0,
 "ad_element_id":2762,
 "ad_infowindow_id":null,
 "ad_org_id":0,
 "ad_process_id":null,
 "ad_reference_id":19,
 "ad_reference_value_id":null,
 "ad_table_id":789,
 "ad_val_rule_id":null,
 "callout":null,
 "columnsql":null,
 "created":"2005-05-15T01:00:59",
 "createdby":100,
 "defaultvalue":null,
 "description":"Job Position Category",
 "entitytype":"Human Resource & Payroll",
 "fieldlength":10,
 "formatpattern":null,
 "help":"Classification of Job Positions",
 "infofactoryclass":null,
 "isactive":"Y",
 "isallowcopy":"Y",
 "isallowlogging":"Y",
 "isalwaysupdateable":"N",
 "isautocomplete":"N",
 "isencrypted":"N",
 "isidentifier":"N",
 "isincludeints":"N",
 "iskey":"N",
 "ismandatory":"Y",
 "isparent":"N",
 "issecure":"N",
 "isselectioncolumn":"N",
 "issyncdatabase":"N",
 "istoolbarbutton":"N",
 "istranslated":"N",
 "isupdateable":"Y",
 "mandatorylogic":null,
 "readonlylogic":null,
 "seqno":null,
 "updated":"2005-05-15T01:09:07",
 "updatedby":100,
 "valuemax":null,
 "valuemin":null,
 "version":0,
 "vformat":null}, "children" : []},{"tablename" : "ad_column", "data" : {"ad_column_id":14397,
 "columnname":"IsEmployee",
 "name":"Employee",
 "ad_chart_id":null,
 "ad_client_id":0,
 "ad_element_id":373,
 "ad_infowindow_id":null,
 "ad_org_id":0,
 "ad_process_id":null,
 "ad_reference_id":20,
 "ad_reference_value_id":null,
 "ad_table_id":789,
 "ad_val_rule_id":null,
 "callout":null,
 "columnsql":null,
 "created":"2005-09-16T18:08:32",
 "createdby":100,
 "defaultvalue":"Y",
 "description":"Indicates if  this Business Partner is an employee",
 "entitytype":"Human Resource & Payroll",
 "fieldlength":1,
 "formatpattern":null,
 "help":"The Employee checkbox indicates if this Business Partner is an Employee.  If it is selected, additional fields will display which further identify this employee.",
 "infofactoryclass":null,
 "isactive":"Y",
 "isallowcopy":"Y",
 "isallowlogging":"Y",
 "isalwaysupdateable":"N",
 "isautocomplete":"N",
 "isencrypted":"N",
 "isidentifier":"N",
 "isincludeints":"N",
 "iskey":"N",
 "ismandatory":"Y",
 "isparent":"N",
 "issecure":"N",
 "isselectioncolumn":"N",
 "issyncdatabase":"N",
 "istoolbarbutton":"N",
 "istranslated":"N",
 "isupdateable":"Y",
 "mandatorylogic":null,
 "readonlylogic":null,
 "seqno":null,
 "updated":"2005-09-16T18:08:49",
 "updatedby":100,
 "valuemax":null,
 "valuemin":null,
 "version":0,
 "vformat":null}, "children" : []},{"tablename" : "ad_table_attribute", "data" : {"ad_table_attribute_id":51219,
 "name":"c_job_pkey",
 "ad_client_id":0,
 "ad_org_id":0,
 "ad_table_id":789,
 "created":"2022-11-02T05:57:56.041854",
 "createdby":100,
 "entitytype":"Human Resource & Payroll",
 "errormsg":null,
 "isactive":"Y",
 "tableattributedefinition":"PRIMARY KEY (c_job_id)",
 "tableattributetype":"CP",
 "tsvdefinition":null,
 "updated":"2022-11-02T05:57:56.041854",
 "updatedby":100}, "children" : []},{"tablename" : "ad_table_attribute", "data" : {"ad_table_attribute_id":51220,
 "name":"cjobcategory_cjob",
 "ad_client_id":0,
 "ad_org_id":0,
 "ad_table_id":789,
 "created":"2022-11-02T05:57:56.041854",
 "createdby":100,
 "entitytype":"Human Resource & Payroll",
 "errormsg":null,
 "isactive":"Y",
 "tableattributedefinition":"FOREIGN KEY (c_jobcategory_id) REFERENCES c_jobcategory(c_jobcategory_id) DEFERRABLE INITIALLY DEFERRED",
 "tableattributetype":"CF",
 "tsvdefinition":null,
 "updated":"2022-11-02T05:57:56.041854",
 "updatedby":100}, "children" : []},{"tablename" : "ad_table_attribute", "data" : {"ad_table_attribute_id":53568,
 "name":"c_job_isactive_check",
 "ad_client_id":0,
 "ad_org_id":0,
 "ad_table_id":789,
 "created":"2022-11-02T12:40:39.392787",
 "createdby":100,
 "entitytype":"Human Resource & Payroll",
 "errormsg":null,
 "isactive":"Y",
 "tableattributedefinition":"CHECK ((isactive = ANY (ARRAY['Y'::bpchar, 'N'::bpchar])))",
 "tableattributetype":"CC",
 "tsvdefinition":null,
 "updated":"2022-11-02T12:40:39.392787",
 "updatedby":100}, "children" : []}]},
 {"tablename" : "ad_table", "data" : {"ad_table_id":790,
 "tablename":"C_JobCategory",
 "name":"Position Category",
 "accesslevel":"2",
 "ad_client_id":0,
 "ad_org_id":0,
 "ad_val_rule_id":null,
 "ad_window_id":352,
 "copycolumnsfromtable":null,
 "created":"2005-05-15T01:02:37",
 "createdby":100,
 "description":null,
 "entitytype":"Human Resource & Payroll",
 "help":null,
 "importtable":"N",
 "isactive":"Y",
 "iscentrallymaintained":"Y",
 "ischangelog":"N",
 "isdeleteable":"Y",
 "ishighvolume":"N",
 "issecurityenabled":"N",
 "istscapable":"N",
 "isview":"N",
 "loadseq":135,
 "po_window_id":null,
 "replicationtype":"L",
 "sqlstatement":null,
 "updated":"2005-09-03T12:10:59",
 "updatedby":100}, "children" : [{"tablename" : "ad_column", "data" : {"ad_column_id":13793,
 "columnname":"C_JobCategory_ID",
 "name":"Position Category",
 "ad_chart_id":null,
 "ad_client_id":0,
 "ad_element_id":2762,
 "ad_infowindow_id":null,
 "ad_org_id":0,
 "ad_process_id":null,
 "ad_reference_id":13,
 "ad_reference_value_id":null,
 "ad_table_id":790,
 "ad_val_rule_id":null,
 "callout":null,
 "columnsql":null,
 "created":"2005-05-15T01:02:42",
 "createdby":100,
 "defaultvalue":null,
 "description":"Job Position Category",
 "entitytype":"Human Resource & Payroll",
 "fieldlength":10,
 "formatpattern":null,
 "help":"Classification of Job Positions",
 "infofactoryclass":null,
 "isactive":"Y",
 "isallowcopy":"N",
 "isallowlogging":"Y",
 "isalwaysupdateable":"N",
 "isautocomplete":"N",
 "isencrypted":"N",
 "isidentifier":"N",
 "isincludeints":"N",
 "iskey":"Y",
 "ismandatory":"Y",
 "isparent":"N",
 "issecure":"N",
 "isselectioncolumn":"N",
 "issyncdatabase":"N",
 "istoolbarbutton":"N",
 "istranslated":"N",
 "isupdateable":"N",
 "mandatorylogic":null,
 "readonlylogic":null,
 "seqno":null,
 "updated":"2005-05-15T01:08:13",
 "updatedby":100,
 "valuemax":null,
 "valuemin":null,
 "version":0,
 "vformat":null}, "children" : []},{"tablename" : "ad_column", "data" : {"ad_column_id":13794,
 "columnname":"AD_Client_ID",
 "name":"Client",
 "ad_chart_id":null,
 "ad_client_id":0,
 "ad_element_id":102,
 "ad_infowindow_id":null,
 "ad_org_id":0,
 "ad_process_id":null,
 "ad_reference_id":19,
 "ad_reference_value_id":null,
 "ad_table_id":790,
 "ad_val_rule_id":129,
 "callout":null,
 "columnsql":null,
 "created":"2005-05-15T01:02:42",
 "createdby":100,
 "defaultvalue":"@#AD_Client_ID@",
 "description":"Client/Tenant for this installation.",
 "entitytype":"Human Resource & Payroll",
 "fieldlength":10,
 "formatpattern":null,
 "help":"A Client is a company or a legal entity. You cannot share data between Clients. Tenant is a synonym for Client.",
 "infofactoryclass":null,
 "isactive":"Y",
 "isallowcopy":"N",
 "isallowlogging":"Y",
 "isalwaysupdateable":"N",
 "isautocomplete":"N",
 "isencrypted":"N",
 "isidentifier":"N",
 "isincludeints":"N",
 "iskey":"N",
 "ismandatory":"Y",
 "isparent":"N",
 "issecure":"N",
 "isselectioncolumn":"N",
 "issyncdatabase":"N",
 "istoolbarbutton":"N",
 "istranslated":"N",
 "isupdateable":"N",
 "mandatorylogic":null,
 "readonlylogic":null,
 "seqno":null,
 "updated":"2005-05-15T01:02:42",
 "updatedby":100,
 "valuemax":null,
 "valuemin":null,
 "version":0,
 "vformat":null}, "children" : []},{"tablename" : "ad_column", "data" : {"ad_column_id":13795,
 "columnname":"AD_Org_ID",
 "name":"Organisation",
 "ad_chart_id":null,
 "ad_client_id":0,
 "ad_element_id":113,
 "ad_infowindow_id":null,
 "ad_org_id":0,
 "ad_process_id":null,
 "ad_reference_id":19,
 "ad_reference_value_id":null,
 "ad_table_id":790,
 "ad_val_rule_id":104,
 "callout":null,
 "columnsql":null,
 "created":"2005-05-15T01:02:42",
 "createdby":100,
 "defaultvalue":"@#AD_Org_ID@",
 "description":"Organisational entity within client",
 "entitytype":"Human Resource & Payroll",
 "fieldlength":10,
 "formatpattern":null,
 "help":"An organisation is a unit of your client or legal entity - examples are store, department. You can share data between organisations.",
 "infofactoryclass":null,
 "isactive":"Y",
 "isallowcopy":"N",
 "isallowlogging":"Y",
 "isalwaysupdateable":"N",
 "isautocomplete":"N",
 "isencrypted":"N",
 "isidentifier":"N",
 "isincludeints":"N",
 "iskey":"N",
 "ismandatory":"Y",
 "isparent":"N",
 "issecure":"N",
 "isselectioncolumn":"N",
 "issyncdatabase":"N",
 "istoolbarbutton":"N",
 "istranslated":"N",
 "isupdateable":"N",
 "mandatorylogic":null,
 "readonlylogic":null,
 "seqno":null,
 "updated":"2005-05-15T01:02:42",
 "updatedby":100,
 "valuemax":null,
 "valuemin":null,
 "version":0,
 "vformat":null}, "children" : []},{"tablename" : "ad_column", "data" : {"ad_column_id":13796,
 "columnname":"IsActive",
 "name":"Active",
 "ad_chart_id":null,
 "ad_client_id":0,
 "ad_element_id":348,
 "ad_infowindow_id":null,
 "ad_org_id":0,
 "ad_process_id":null,
 "ad_reference_id":20,
 "ad_reference_value_id":null,
 "ad_table_id":790,
 "ad_val_rule_id":null,
 "callout":null,
 "columnsql":null,
 "created":"2005-05-15T01:02:42",
 "createdby":100,
 "defaultvalue":"Y",
 "description":"The record is active in the system",
 "entitytype":"Human Resource & Payroll",
 "fieldlength":1,
 "formatpattern":null,
 "help":"There are two methods of making records unavailable in the system: One is to delete the record, the other is to de-activate the record. A de-activated record is not available for selection, but available for reports.\nThere are two reasons for de-activating and not deleting records:\n(1) The system requires the record for audit purposes.\n(2) The record is referenced by other records. E.g., you cannot delete a Business Partner, if there are invoices for this partner record existing. You de-activate the Business Partner and prevent that this record is used for future entries.",
 "infofactoryclass":null,
 "isactive":"Y",
 "isallowcopy":"N",
 "isallowlogging":"Y",
 "isalwaysupdateable":"N",
 "isautocomplete":"N",
 "isencrypted":"N",
 "isidentifier":"N",
 "isincludeints":"N",
 "iskey":"N",
 "ismandatory":"Y",
 "isparent":"N",
 "issecure":"N",
 "isselectioncolumn":"N",
 "issyncdatabase":"N",
 "istoolbarbutton":"N",
 "istranslated":"N",
 "isupdateable":"Y",
 "mandatorylogic":null,
 "readonlylogic":null,
 "seqno":null,
 "updated":"2005-05-15T01:02:42",
 "updatedby":100,
 "valuemax":null,
 "valuemin":null,
 "version":0,
 "vformat":null}, "children" : []},{"tablename" : "ad_column", "data" : {"ad_column_id":13797,
 "columnname":"Created",
 "name":"Created",
 "ad_chart_id":null,
 "ad_client_id":0,
 "ad_element_id":245,
 "ad_infowindow_id":null,
 "ad_org_id":0,
 "ad_process_id":null,
 "ad_reference_id":16,
 "ad_reference_value_id":null,
 "ad_table_id":790,
 "ad_val_rule_id":null,
 "callout":null,
 "columnsql":null,
 "created":"2005-05-15T01:02:42",
 "createdby":100,
 "defaultvalue":null,
 "description":"Date this record was created",
 "entitytype":"Human Resource & Payroll",
 "fieldlength":7,
 "formatpattern":null,
 "help":"The Created field indicates the date that this record was created.",
 "infofactoryclass":null,
 "isactive":"Y",
 "isallowcopy":"N",
 "isallowlogging":"Y",
 "isalwaysupdateable":"N",
 "isautocomplete":"N",
 "isencrypted":"N",
 "isidentifier":"N",
 "isincludeints":"N",
 "iskey":"N",
 "ismandatory":"Y",
 "isparent":"N",
 "issecure":"N",
 "isselectioncolumn":"N",
 "issyncdatabase":"N",
 "istoolbarbutton":"N",
 "istranslated":"N",
 "isupdateable":"N",
 "mandatorylogic":null,
 "readonlylogic":null,
 "seqno":null,
 "updated":"2005-05-15T01:02:42",
 "updatedby":100,
 "valuemax":null,
 "valuemin":null,
 "version":0,
 "vformat":null}, "children" : []},{"tablename" : "ad_column", "data" : {"ad_column_id":13798,
 "columnname":"CreatedBy",
 "name":"Created By",
 "ad_chart_id":null,
 "ad_client_id":0,
 "ad_element_id":246,
 "ad_infowindow_id":null,
 "ad_org_id":0,
 "ad_process_id":null,
 "ad_reference_id":18,
 "ad_reference_value_id":110,
 "ad_table_id":790,
 "ad_val_rule_id":null,
 "callout":null,
 "columnsql":null,
 "created":"2005-05-15T01:02:43",
 "createdby":100,
 "defaultvalue":null,
 "description":"User who created this records",
 "entitytype":"Human Resource & Payroll",
 "fieldlength":10,
 "formatpattern":null,
 "help":"The Created By field indicates the user who created this record.",
 "infofactoryclass":null,
 "isactive":"Y",
 "isallowcopy":"N",
 "isallowlogging":"Y",
 "isalwaysupdateable":"N",
 "isautocomplete":"N",
 "isencrypted":"N",
 "isidentifier":"N",
 "isincludeints":"N",
 "iskey":"N",
 "ismandatory":"Y",
 "isparent":"N",
 "issecure":"N",
 "isselectioncolumn":"N",
 "issyncdatabase":"N",
 "istoolbarbutton":"N",
 "istranslated":"N",
 "isupdateable":"N",
 "mandatorylogic":null,
 "readonlylogic":null,
 "seqno":null,
 "updated":"2005-05-15T01:02:43",
 "updatedby":100,
 "valuemax":null,
 "valuemin":null,
 "version":0,
 "vformat":null}, "children" : []},{"tablename" : "ad_column", "data" : {"ad_column_id":13799,
 "columnname":"Updated",
 "name":"Updated",
 "ad_chart_id":null,
 "ad_client_id":0,
 "ad_element_id":607,
 "ad_infowindow_id":null,
 "ad_org_id":0,
 "ad_process_id":null,
 "ad_reference_id":16,
 "ad_reference_value_id":null,
 "ad_table_id":790,
 "ad_val_rule_id":null,
 "callout":null,
 "columnsql":null,
 "created":"2005-05-15T01:02:43",
 "createdby":100,
 "defaultvalue":null,
 "description":"Date this record was updated",
 "entitytype":"Human Resource & Payroll",
 "fieldlength":7,
 "formatpattern":null,
 "help":"The Updated field indicates the date that this record was updated.",
 "infofactoryclass":null,
 "isactive":"Y",
 "isallowcopy":"N",
 "isallowlogging":"Y",
 "isalwaysupdateable":"N",
 "isautocomplete":"N",
 "isencrypted":"N",
 "isidentifier":"N",
 "isincludeints":"N",
 "iskey":"N",
 "ismandatory":"Y",
 "isparent":"N",
 "issecure":"N",
 "isselectioncolumn":"N",
 "issyncdatabase":"N",
 "istoolbarbutton":"N",
 "istranslated":"N",
 "isupdateable":"N",
 "mandatorylogic":null,
 "readonlylogic":null,
 "seqno":null,
 "updated":"2005-05-15T01:02:43",
 "updatedby":100,
 "valuemax":null,
 "valuemin":null,
 "version":0,
 "vformat":null}, "children" : []},{"tablename" : "ad_column", "data" : {"ad_column_id":13800,
 "columnname":"UpdatedBy",
 "name":"Updated By",
 "ad_chart_id":null,
 "ad_client_id":0,
 "ad_element_id":608,
 "ad_infowindow_id":null,
 "ad_org_id":0,
 "ad_process_id":null,
 "ad_reference_id":18,
 "ad_reference_value_id":110,
 "ad_table_id":790,
 "ad_val_rule_id":null,
 "callout":null,
 "columnsql":null,
 "created":"2005-05-15T01:02:43",
 "createdby":100,
 "defaultvalue":null,
 "description":"User who updated this records",
 "entitytype":"Human Resource & Payroll",
 "fieldlength":10,
 "formatpattern":null,
 "help":"The Updated By field indicates the user who updated this record.",
 "infofactoryclass":null,
 "isactive":"Y",
 "isallowcopy":"N",
 "isallowlogging":"Y",
 "isalwaysupdateable":"N",
 "isautocomplete":"N",
 "isencrypted":"N",
 "isidentifier":"N",
 "isincludeints":"N",
 "iskey":"N",
 "ismandatory":"Y",
 "isparent":"N",
 "issecure":"N",
 "isselectioncolumn":"N",
 "issyncdatabase":"N",
 "istoolbarbutton":"N",
 "istranslated":"N",
 "isupdateable":"N",
 "mandatorylogic":null,
 "readonlylogic":null,
 "seqno":null,
 "updated":"2005-05-15T01:02:43",
 "updatedby":100,
 "valuemax":null,
 "valuemin":null,
 "version":0,
 "vformat":null}, "children" : []},{"tablename" : "ad_column", "data" : {"ad_column_id":13801,
 "columnname":"Name",
 "name":"Name",
 "ad_chart_id":null,
 "ad_client_id":0,
 "ad_element_id":469,
 "ad_infowindow_id":null,
 "ad_org_id":0,
 "ad_process_id":null,
 "ad_reference_id":10,
 "ad_reference_value_id":null,
 "ad_table_id":790,
 "ad_val_rule_id":null,
 "callout":null,
 "columnsql":null,
 "created":"2005-05-15T01:02:43",
 "createdby":100,
 "defaultvalue":null,
 "description":"Alphanumeric identifier of the entity",
 "entitytype":"Human Resource & Payroll",
 "fieldlength":60,
 "formatpattern":null,
 "help":"The name of an entity (record) is used as an default search option in addition to the search key. The name is up to 60 characters in length.",
 "infofactoryclass":null,
 "isactive":"Y",
 "isallowcopy":"Y",
 "isallowlogging":"Y",
 "isalwaysupdateable":"N",
 "isautocomplete":"N",
 "isencrypted":"N",
 "isidentifier":"Y",
 "isincludeints":"N",
 "iskey":"N",
 "ismandatory":"Y",
 "isparent":"N",
 "issecure":"N",
 "isselectioncolumn":"Y",
 "issyncdatabase":"N",
 "istoolbarbutton":"N",
 "istranslated":"N",
 "isupdateable":"Y",
 "mandatorylogic":null,
 "readonlylogic":null,
 "seqno":1,
 "updated":"2005-05-15T01:02:43",
 "updatedby":100,
 "valuemax":null,
 "valuemin":null,
 "version":0,
 "vformat":null}, "children" : []},{"tablename" : "ad_column", "data" : {"ad_column_id":13802,
 "columnname":"Description",
 "name":"Description",
 "ad_chart_id":null,
 "ad_client_id":0,
 "ad_element_id":275,
 "ad_infowindow_id":null,
 "ad_org_id":0,
 "ad_process_id":null,
 "ad_reference_id":10,
 "ad_reference_value_id":null,
 "ad_table_id":790,
 "ad_val_rule_id":null,
 "callout":null,
 "columnsql":null,
 "created":"2005-05-15T01:02:43",
 "createdby":100,
 "defaultvalue":null,
 "description":"Optional short description of the record",
 "entitytype":"Human Resource & Payroll",
 "fieldlength":255,
 "formatpattern":null,
 "help":"A description is limited to 255 characters.",
 "infofactoryclass":null,
 "isactive":"Y",
 "isallowcopy":"Y",
 "isallowlogging":"Y",
 "isalwaysupdateable":"N",
 "isautocomplete":"N",
 "isencrypted":"N",
 "isidentifier":"N",
 "isincludeints":"N",
 "iskey":"N",
 "ismandatory":"N",
 "isparent":"N",
 "issecure":"N",
 "isselectioncolumn":"Y",
 "issyncdatabase":"N",
 "istoolbarbutton":"N",
 "istranslated":"N",
 "isupdateable":"Y",
 "mandatorylogic":null,
 "readonlylogic":null,
 "seqno":null,
 "updated":"2005-05-15T01:02:43",
 "updatedby":100,
 "valuemax":null,
 "valuemin":null,
 "version":0,
 "vformat":null}, "children" : []},{"tablename" : "ad_column", "data" : {"ad_column_id":13803,
 "columnname":"Help",
 "name":"Comment/Help",
 "ad_chart_id":null,
 "ad_client_id":0,
 "ad_element_id":326,
 "ad_infowindow_id":null,
 "ad_org_id":0,
 "ad_process_id":null,
 "ad_reference_id":14,
 "ad_reference_value_id":null,
 "ad_table_id":790,
 "ad_val_rule_id":null,
 "callout":null,
 "columnsql":null,
 "created":"2005-05-15T01:02:43",
 "createdby":100,
 "defaultvalue":null,
 "description":"Comment or Hint",
 "entitytype":"Human Resource & Payroll",
 "fieldlength":2000,
 "formatpattern":null,
 "help":"The Help field contains a hint, comment or help about the use of this item.",
 "infofactoryclass":null,
 "isactive":"Y",
 "isallowcopy":"Y",
 "isallowlogging":"Y",
 "isalwaysupdateable":"N",
 "isautocomplete":"N",
 "isencrypted":"N",
 "isidentifier":"N",
 "isincludeints":"N",
 "iskey":"N",
 "ismandatory":"N",
 "isparent":"N",
 "issecure":"N",
 "isselectioncolumn":"N",
 "issyncdatabase":"N",
 "istoolbarbutton":"N",
 "istranslated":"N",
 "isupdateable":"Y",
 "mandatorylogic":null,
 "readonlylogic":null,
 "seqno":null,
 "updated":"2005-05-15T01:02:43",
 "updatedby":100,
 "valuemax":null,
 "valuemin":null,
 "version":0,
 "vformat":null}, "children" : []},{"tablename" : "ad_table_attribute", "data" : {"ad_table_attribute_id":51224,
 "name":"c_jobcategory_pkey",
 "ad_client_id":0,
 "ad_org_id":0,
 "ad_table_id":790,
 "created":"2022-11-02T05:57:56.041854",
 "createdby":100,
 "entitytype":"Human Resource & Payroll",
 "errormsg":null,
 "isactive":"Y",
 "tableattributedefinition":"PRIMARY KEY (c_jobcategory_id)",
 "tableattributetype":"CP",
 "tsvdefinition":null,
 "updated":"2022-11-02T05:57:56.041854",
 "updatedby":100}, "children" : []},{"tablename" : "ad_table_attribute", "data" : {"ad_table_attribute_id":53570,
 "name":"c_jobcategory_isactive_check",
 "ad_client_id":0,
 "ad_org_id":0,
 "ad_table_id":790,
 "created":"2022-11-02T12:40:39.392787",
 "createdby":100,
 "entitytype":"Human Resource & Payroll",
 "errormsg":null,
 "isactive":"Y",
 "tableattributedefinition":"CHECK ((isactive = ANY (ARRAY['Y'::bpchar, 'N'::bpchar])))",
 "tableattributetype":"CC",
 "tsvdefinition":null,
 "updated":"2022-11-02T12:40:39.392787",
 "updatedby":100}, "children" : []}]},
 {"tablename" : "ad_table", "data" : {"ad_table_id":791,
 "tablename":"C_JobAssignment",
 "name":"Position Assignment",
 "accesslevel":"2",
 "ad_client_id":0,
 "ad_org_id":0,
 "ad_val_rule_id":null,
 "ad_window_id":351,
 "copycolumnsfromtable":null,
 "created":"2005-05-15T01:10:37",
 "createdby":100,
 "description":null,
 "entitytype":"Human Resource & Payroll",
 "help":null,
 "importtable":"N",
 "isactive":"Y",
 "iscentrallymaintained":"Y",
 "ischangelog":"N",
 "isdeleteable":"Y",
 "ishighvolume":"N",
 "issecurityenabled":"N",
 "istscapable":"N",
 "isview":"N",
 "loadseq":145,
 "po_window_id":null,
 "replicationtype":"L",
 "sqlstatement":null,
 "updated":"2005-09-03T12:11:02",
 "updatedby":100}, "children" : [{"tablename" : "ad_column", "data" : {"ad_column_id":13804,
 "columnname":"C_JobAssignment_ID",
 "name":"Position Assignment",
 "ad_chart_id":null,
 "ad_client_id":0,
 "ad_element_id":2763,
 "ad_infowindow_id":null,
 "ad_org_id":0,
 "ad_process_id":null,
 "ad_reference_id":13,
 "ad_reference_value_id":null,
 "ad_table_id":791,
 "ad_val_rule_id":null,
 "callout":null,
 "columnsql":null,
 "created":"2005-05-15T01:10:47",
 "createdby":100,
 "defaultvalue":null,
 "description":"Assignment of Employee (User) to Job Position",
 "entitytype":"Human Resource & Payroll",
 "fieldlength":10,
 "formatpattern":null,
 "help":null,
 "infofactoryclass":null,
 "isactive":"Y",
 "isallowcopy":"N",
 "isallowlogging":"Y",
 "isalwaysupdateable":"N",
 "isautocomplete":"N",
 "isencrypted":"N",
 "isidentifier":"N",
 "isincludeints":"N",
 "iskey":"Y",
 "ismandatory":"Y",
 "isparent":"N",
 "issecure":"N",
 "isselectioncolumn":"N",
 "issyncdatabase":"N",
 "istoolbarbutton":"N",
 "istranslated":"N",
 "isupdateable":"N",
 "mandatorylogic":null,
 "readonlylogic":null,
 "seqno":0,
 "updated":"2010-06-14T20:09:43.671039",
 "updatedby":100,
 "valuemax":null,
 "valuemin":null,
 "version":0,
 "vformat":null}, "children" : []},{"tablename" : "ad_column", "data" : {"ad_column_id":13805,
 "columnname":"AD_Client_ID",
 "name":"Client",
 "ad_chart_id":null,
 "ad_client_id":0,
 "ad_element_id":102,
 "ad_infowindow_id":null,
 "ad_org_id":0,
 "ad_process_id":null,
 "ad_reference_id":19,
 "ad_reference_value_id":null,
 "ad_table_id":791,
 "ad_val_rule_id":129,
 "callout":null,
 "columnsql":null,
 "created":"2005-05-15T01:10:48",
 "createdby":100,
 "defaultvalue":"@AD_Client_ID@",
 "description":"Client/Tenant for this installation.",
 "entitytype":"Human Resource & Payroll",
 "fieldlength":10,
 "formatpattern":null,
 "help":"A Client is a company or a legal entity. You cannot share data between Clients. Tenant is a synonym for Client.",
 "infofactoryclass":null,
 "isactive":"Y",
 "isallowcopy":"N",
 "isallowlogging":"Y",
 "isalwaysupdateable":"N",
 "isautocomplete":"N",
 "isencrypted":"N",
 "isidentifier":"N",
 "isincludeints":"N",
 "iskey":"N",
 "ismandatory":"Y",
 "isparent":"N",
 "issecure":"N",
 "isselectioncolumn":"N",
 "issyncdatabase":"N",
 "istoolbarbutton":"N",
 "istranslated":"N",
 "isupdateable":"N",
 "mandatorylogic":null,
 "readonlylogic":null,
 "seqno":null,
 "updated":"2005-05-15T01:10:48",
 "updatedby":100,
 "valuemax":null,
 "valuemin":null,
 "version":0,
 "vformat":null}, "children" : []},{"tablename" : "ad_column", "data" : {"ad_column_id":13806,
 "columnname":"AD_Org_ID",
 "name":"Organisation",
 "ad_chart_id":null,
 "ad_client_id":0,
 "ad_element_id":113,
 "ad_infowindow_id":null,
 "ad_org_id":0,
 "ad_process_id":null,
 "ad_reference_id":19,
 "ad_reference_value_id":null,
 "ad_table_id":791,
 "ad_val_rule_id":104,
 "callout":null,
 "columnsql":null,
 "created":"2005-05-15T01:10:48",
 "createdby":100,
 "defaultvalue":"@AD_Org_ID@",
 "description":"Organisational entity within client",
 "entitytype":"Human Resource & Payroll",
 "fieldlength":10,
 "formatpattern":null,
 "help":"An organisation is a unit of your client or legal entity - examples are store, department. You can share data between organisations.",
 "infofactoryclass":null,
 "isactive":"Y",
 "isallowcopy":"N",
 "isallowlogging":"Y",
 "isalwaysupdateable":"N",
 "isautocomplete":"N",
 "isencrypted":"N",
 "isidentifier":"N",
 "isincludeints":"N",
 "iskey":"N",
 "ismandatory":"Y",
 "isparent":"N",
 "issecure":"N",
 "isselectioncolumn":"N",
 "issyncdatabase":"N",
 "istoolbarbutton":"N",
 "istranslated":"N",
 "isupdateable":"N",
 "mandatorylogic":null,
 "readonlylogic":null,
 "seqno":null,
 "updated":"2005-05-15T01:10:48",
 "updatedby":100,
 "valuemax":null,
 "valuemin":null,
 "version":0,
 "vformat":null}, "children" : []},{"tablename" : "ad_column", "data" : {"ad_column_id":13807,
 "columnname":"IsActive",
 "name":"Active",
 "ad_chart_id":null,
 "ad_client_id":0,
 "ad_element_id":348,
 "ad_infowindow_id":null,
 "ad_org_id":0,
 "ad_process_id":null,
 "ad_reference_id":20,
 "ad_reference_value_id":null,
 "ad_table_id":791,
 "ad_val_rule_id":null,
 "callout":null,
 "columnsql":null,
 "created":"2005-05-15T01:10:48",
 "createdby":100,
 "defaultvalue":"Y",
 "description":"The record is active in the system",
 "entitytype":"Human Resource & Payroll",
 "fieldlength":1,
 "formatpattern":null,
 "help":"There are two methods of making records unavailable in the system: One is to delete the record, the other is to de-activate the record. A de-activated record is not available for selection, but available for reports.\nThere are two reasons for de-activating and not deleting records:\n(1) The system requires the record for audit purposes.\n(2) The record is referenced by other records. E.g., you cannot delete a Business Partner, if there are invoices for this partner record existing. You de-activate the Business Partner and prevent that this record is used for future entries.",
 "infofactoryclass":null,
 "isactive":"Y",
 "isallowcopy":"N",
 "isallowlogging":"Y",
 "isalwaysupdateable":"N",
 "isautocomplete":"N",
 "isencrypted":"N",
 "isidentifier":"N",
 "isincludeints":"N",
 "iskey":"N",
 "ismandatory":"Y",
 "isparent":"N",
 "issecure":"N",
 "isselectioncolumn":"N",
 "issyncdatabase":"N",
 "istoolbarbutton":"N",
 "istranslated":"N",
 "isupdateable":"Y",
 "mandatorylogic":null,
 "readonlylogic":null,
 "seqno":null,
 "updated":"2005-05-15T01:10:48",
 "updatedby":100,
 "valuemax":null,
 "valuemin":null,
 "version":0,
 "vformat":null}, "children" : []},{"tablename" : "ad_column", "data" : {"ad_column_id":13808,
 "columnname":"Created",
 "name":"Created",
 "ad_chart_id":null,
 "ad_client_id":0,
 "ad_element_id":245,
 "ad_infowindow_id":null,
 "ad_org_id":0,
 "ad_process_id":null,
 "ad_reference_id":16,
 "ad_reference_value_id":null,
 "ad_table_id":791,
 "ad_val_rule_id":null,
 "callout":null,
 "columnsql":null,
 "created":"2005-05-15T01:10:48",
 "createdby":100,
 "defaultvalue":null,
 "description":"Date this record was created",
 "entitytype":"Human Resource & Payroll",
 "fieldlength":7,
 "formatpattern":null,
 "help":"The Created field indicates the date that this record was created.",
 "infofactoryclass":null,
 "isactive":"Y",
 "isallowcopy":"N",
 "isallowlogging":"Y",
 "isalwaysupdateable":"N",
 "isautocomplete":"N",
 "isencrypted":"N",
 "isidentifier":"N",
 "isincludeints":"N",
 "iskey":"N",
 "ismandatory":"Y",
 "isparent":"N",
 "issecure":"N",
 "isselectioncolumn":"N",
 "issyncdatabase":"N",
 "istoolbarbutton":"N",
 "istranslated":"N",
 "isupdateable":"N",
 "mandatorylogic":null,
 "readonlylogic":null,
 "seqno":null,
 "updated":"2005-05-15T01:10:48",
 "updatedby":100,
 "valuemax":null,
 "valuemin":null,
 "version":0,
 "vformat":null}, "children" : []},{"tablename" : "ad_column", "data" : {"ad_column_id":13809,
 "columnname":"CreatedBy",
 "name":"Created By",
 "ad_chart_id":null,
 "ad_client_id":0,
 "ad_element_id":246,
 "ad_infowindow_id":null,
 "ad_org_id":0,
 "ad_process_id":null,
 "ad_reference_id":18,
 "ad_reference_value_id":110,
 "ad_table_id":791,
 "ad_val_rule_id":null,
 "callout":null,
 "columnsql":null,
 "created":"2005-05-15T01:10:48",
 "createdby":100,
 "defaultvalue":null,
 "description":"User who created this records",
 "entitytype":"Human Resource & Payroll",
 "fieldlength":10,
 "formatpattern":null,
 "help":"The Created By field indicates the user who created this record.",
 "infofactoryclass":null,
 "isactive":"Y",
 "isallowcopy":"N",
 "isallowlogging":"Y",
 "isalwaysupdateable":"N",
 "isautocomplete":"N",
 "isencrypted":"N",
 "isidentifier":"N",
 "isincludeints":"N",
 "iskey":"N",
 "ismandatory":"Y",
 "isparent":"N",
 "issecure":"N",
 "isselectioncolumn":"N",
 "issyncdatabase":"N",
 "istoolbarbutton":"N",
 "istranslated":"N",
 "isupdateable":"N",
 "mandatorylogic":null,
 "readonlylogic":null,
 "seqno":null,
 "updated":"2005-05-15T01:10:48",
 "updatedby":100,
 "valuemax":null,
 "valuemin":null,
 "version":0,
 "vformat":null}, "children" : []},{"tablename" : "ad_column", "data" : {"ad_column_id":13810,
 "columnname":"Updated",
 "name":"Updated",
 "ad_chart_id":null,
 "ad_client_id":0,
 "ad_element_id":607,
 "ad_infowindow_id":null,
 "ad_org_id":0,
 "ad_process_id":null,
 "ad_reference_id":16,
 "ad_reference_value_id":null,
 "ad_table_id":791,
 "ad_val_rule_id":null,
 "callout":null,
 "columnsql":null,
 "created":"2005-05-15T01:10:48",
 "createdby":100,
 "defaultvalue":null,
 "description":"Date this record was updated",
 "entitytype":"Human Resource & Payroll",
 "fieldlength":7,
 "formatpattern":null,
 "help":"The Updated field indicates the date that this record was updated.",
 "infofactoryclass":null,
 "isactive":"Y",
 "isallowcopy":"N",
 "isallowlogging":"Y",
 "isalwaysupdateable":"N",
 "isautocomplete":"N",
 "isencrypted":"N",
 "isidentifier":"N",
 "isincludeints":"N",
 "iskey":"N",
 "ismandatory":"Y",
 "isparent":"N",
 "issecure":"N",
 "isselectioncolumn":"N",
 "issyncdatabase":"N",
 "istoolbarbutton":"N",
 "istranslated":"N",
 "isupdateable":"N",
 "mandatorylogic":null,
 "readonlylogic":null,
 "seqno":null,
 "updated":"2005-05-15T01:10:48",
 "updatedby":100,
 "valuemax":null,
 "valuemin":null,
 "version":0,
 "vformat":null}, "children" : []},{"tablename" : "ad_column", "data" : {"ad_column_id":13811,
 "columnname":"UpdatedBy",
 "name":"Updated By",
 "ad_chart_id":null,
 "ad_client_id":0,
 "ad_element_id":608,
 "ad_infowindow_id":null,
 "ad_org_id":0,
 "ad_process_id":null,
 "ad_reference_id":18,
 "ad_reference_value_id":110,
 "ad_table_id":791,
 "ad_val_rule_id":null,
 "callout":null,
 "columnsql":null,
 "created":"2005-05-15T01:10:48",
 "createdby":100,
 "defaultvalue":null,
 "description":"User who updated this records",
 "entitytype":"Human Resource & Payroll",
 "fieldlength":10,
 "formatpattern":null,
 "help":"The Updated By field indicates the user who updated this record.",
 "infofactoryclass":null,
 "isactive":"Y",
 "isallowcopy":"N",
 "isallowlogging":"Y",
 "isalwaysupdateable":"N",
 "isautocomplete":"N",
 "isencrypted":"N",
 "isidentifier":"N",
 "isincludeints":"N",
 "iskey":"N",
 "ismandatory":"Y",
 "isparent":"N",
 "issecure":"N",
 "isselectioncolumn":"N",
 "issyncdatabase":"N",
 "istoolbarbutton":"N",
 "istranslated":"N",
 "isupdateable":"N",
 "mandatorylogic":null,
 "readonlylogic":null,
 "seqno":null,
 "updated":"2005-05-15T01:10:48",
 "updatedby":100,
 "valuemax":null,
 "valuemin":null,
 "version":0,
 "vformat":null}, "children" : []},{"tablename" : "ad_column", "data" : {"ad_column_id":13812,
 "columnname":"AD_User_ID",
 "name":"User/Contact",
 "ad_chart_id":null,
 "ad_client_id":0,
 "ad_element_id":138,
 "ad_infowindow_id":null,
 "ad_org_id":0,
 "ad_process_id":null,
 "ad_reference_id":30,
 "ad_reference_value_id":null,
 "ad_table_id":791,
 "ad_val_rule_id":164,
 "callout":null,
 "columnsql":null,
 "created":"2005-05-15T01:10:48",
 "createdby":100,
 "defaultvalue":null,
 "description":"User within the system - Internal or Business Partner Contact",
 "entitytype":"Human Resource & Payroll",
 "fieldlength":10,
 "formatpattern":null,
 "help":"The User identifies a unique user in the system. This could be an internal user or a business partner contact",
 "infofactoryclass":null,
 "isactive":"Y",
 "isallowcopy":"Y",
 "isallowlogging":"Y",
 "isalwaysupdateable":"N",
 "isautocomplete":"N",
 "isencrypted":"N",
 "isidentifier":"Y",
 "isincludeints":"N",
 "iskey":"N",
 "ismandatory":"Y",
 "isparent":"Y",
 "issecure":"N",
 "isselectioncolumn":"N",
 "issyncdatabase":"N",
 "istoolbarbutton":"N",
 "istranslated":"N",
 "isupdateable":"N",
 "mandatorylogic":null,
 "readonlylogic":null,
 "seqno":2,
 "updated":"2005-05-15T17:59:23",
 "updatedby":100,
 "valuemax":null,
 "valuemin":null,
 "version":0,
 "vformat":null}, "children" : []},{"tablename" : "ad_column", "data" : {"ad_column_id":13813,
 "columnname":"C_Job_ID",
 "name":"Position",
 "ad_chart_id":null,
 "ad_client_id":0,
 "ad_element_id":2761,
 "ad_infowindow_id":null,
 "ad_org_id":0,
 "ad_process_id":null,
 "ad_reference_id":19,
 "ad_reference_value_id":null,
 "ad_table_id":791,
 "ad_val_rule_id":null,
 "callout":null,
 "columnsql":null,
 "created":"2005-05-15T01:10:48",
 "createdby":100,
 "defaultvalue":null,
 "description":"Job Position",
 "entitytype":"Human Resource & Payroll",
 "fieldlength":10,
 "formatpattern":null,
 "help":null,
 "infofactoryclass":null,
 "isactive":"Y",
 "isallowcopy":"Y",
 "isallowlogging":"Y",
 "isalwaysupdateable":"N",
 "isautocomplete":"N",
 "isencrypted":"N",
 "isidentifier":"Y",
 "isincludeints":"N",
 "iskey":"N",
 "ismandatory":"Y",
 "isparent":"Y",
 "issecure":"N",
 "isselectioncolumn":"N",
 "issyncdatabase":"N",
 "istoolbarbutton":"N",
 "istranslated":"N",
 "isupdateable":"N",
 "mandatorylogic":null,
 "readonlylogic":null,
 "seqno":1,
 "updated":"2005-05-15T17:59:13",
 "updatedby":100,
 "valuemax":null,
 "valuemin":null,
 "version":0,
 "vformat":null}, "children" : []},{"tablename" : "ad_column", "data" : {"ad_column_id":13814,
 "columnname":"ValidFrom",
 "name":"Valid from",
 "ad_chart_id":null,
 "ad_client_id":0,
 "ad_element_id":617,
 "ad_infowindow_id":null,
 "ad_org_id":0,
 "ad_process_id":null,
 "ad_reference_id":16,
 "ad_reference_value_id":null,
 "ad_table_id":791,
 "ad_val_rule_id":null,
 "callout":null,
 "columnsql":null,
 "created":"2005-05-15T01:10:48",
 "createdby":100,
 "defaultvalue":null,
 "description":"Valid from including this date (first day)",
 "entitytype":"Human Resource & Payroll",
 "fieldlength":7,
 "formatpattern":null,
 "help":"The Valid From date indicates the first day of a date range",
 "infofactoryclass":null,
 "isactive":"Y",
 "isallowcopy":"Y",
 "isallowlogging":"Y",
 "isalwaysupdateable":"N",
 "isautocomplete":"N",
 "isencrypted":"N",
 "isidentifier":"N",
 "isincludeints":"N",
 "iskey":"N",
 "ismandatory":"Y",
 "isparent":"N",
 "issecure":"N",
 "isselectioncolumn":"N",
 "issyncdatabase":"N",
 "istoolbarbutton":"N",
 "istranslated":"N",
 "isupdateable":"Y",
 "mandatorylogic":null,
 "readonlylogic":null,
 "seqno":null,
 "updated":"2005-05-15T01:10:48",
 "updatedby":100,
 "valuemax":null,
 "valuemin":null,
 "version":0,
 "vformat":null}, "children" : []},{"tablename" : "ad_column", "data" : {"ad_column_id":13815,
 "columnname":"ValidTo",
 "name":"Valid to",
 "ad_chart_id":null,
 "ad_client_id":0,
 "ad_element_id":618,
 "ad_infowindow_id":null,
 "ad_org_id":0,
 "ad_process_id":null,
 "ad_reference_id":16,
 "ad_reference_value_id":null,
 "ad_table_id":791,
 "ad_val_rule_id":null,
 "callout":null,
 "columnsql":null,
 "created":"2005-05-15T01:10:48",
 "createdby":100,
 "defaultvalue":null,
 "description":"Valid to including this date (last day)",
 "entitytype":"Human Resource & Payroll",
 "fieldlength":7,
 "formatpattern":null,
 "help":"The Valid To date indicates the last day of a date range",
 "infofactoryclass":null,
 "isactive":"Y",
 "isallowcopy":"Y",
 "isallowlogging":"Y",
 "isalwaysupdateable":"N",
 "isautocomplete":"N",
 "isencrypted":"N",
 "isidentifier":"N",
 "isincludeints":"N",
 "iskey":"N",
 "ismandatory":"N",
 "isparent":"N",
 "issecure":"N",
 "isselectioncolumn":"N",
 "issyncdatabase":"N",
 "istoolbarbutton":"N",
 "istranslated":"N",
 "isupdateable":"Y",
 "mandatorylogic":null,
 "readonlylogic":null,
 "seqno":null,
 "updated":"2005-05-15T01:10:48",
 "updatedby":100,
 "valuemax":null,
 "valuemin":null,
 "version":0,
 "vformat":null}, "children" : []},{"tablename" : "ad_column", "data" : {"ad_column_id":13816,
 "columnname":"Description",
 "name":"Description",
 "ad_chart_id":null,
 "ad_client_id":0,
 "ad_element_id":275,
 "ad_infowindow_id":null,
 "ad_org_id":0,
 "ad_process_id":null,
 "ad_reference_id":10,
 "ad_reference_value_id":null,
 "ad_table_id":791,
 "ad_val_rule_id":null,
 "callout":null,
 "columnsql":null,
 "created":"2005-05-15T01:10:48",
 "createdby":100,
 "defaultvalue":null,
 "description":"Optional short description of the record",
 "entitytype":"Human Resource & Payroll",
 "fieldlength":255,
 "formatpattern":null,
 "help":"A description is limited to 255 characters.",
 "infofactoryclass":null,
 "isactive":"Y",
 "isallowcopy":"Y",
 "isallowlogging":"Y",
 "isalwaysupdateable":"N",
 "isautocomplete":"N",
 "isencrypted":"N",
 "isidentifier":"N",
 "isincludeints":"N",
 "iskey":"N",
 "ismandatory":"N",
 "isparent":"N",
 "issecure":"N",
 "isselectioncolumn":"Y",
 "issyncdatabase":"N",
 "istoolbarbutton":"N",
 "istranslated":"N",
 "isupdateable":"Y",
 "mandatorylogic":null,
 "readonlylogic":null,
 "seqno":null,
 "updated":"2005-05-15T01:10:48",
 "updatedby":100,
 "valuemax":null,
 "valuemin":null,
 "version":0,
 "vformat":null}, "children" : []},{"tablename" : "ad_table_attribute", "data" : {"ad_table_attribute_id":51221,
 "name":"c_jobassignment_pkey",
 "ad_client_id":0,
 "ad_org_id":0,
 "ad_table_id":791,
 "created":"2022-11-02T05:57:56.041854",
 "createdby":100,
 "entitytype":"Human Resource & Payroll",
 "errormsg":null,
 "isactive":"Y",
 "tableattributedefinition":"PRIMARY KEY (c_jobassignment_id)",
 "tableattributetype":"CP",
 "tsvdefinition":null,
 "updated":"2022-11-02T05:57:56.041854",
 "updatedby":100}, "children" : []},{"tablename" : "ad_table_attribute", "data" : {"ad_table_attribute_id":51222,
 "name":"cjob_cjobassignment",
 "ad_client_id":0,
 "ad_org_id":0,
 "ad_table_id":791,
 "created":"2022-11-02T05:57:56.041854",
 "createdby":100,
 "entitytype":"Human Resource & Payroll",
 "errormsg":null,
 "isactive":"Y",
 "tableattributedefinition":"FOREIGN KEY (c_job_id) REFERENCES c_job(c_job_id) DEFERRABLE INITIALLY DEFERRED",
 "tableattributetype":"CF",
 "tsvdefinition":null,
 "updated":"2022-11-02T05:57:56.041854",
 "updatedby":100}, "children" : []},{"tablename" : "ad_table_attribute", "data" : {"ad_table_attribute_id":51223,
 "name":"aduser_cjobassignment",
 "ad_client_id":0,
 "ad_org_id":0,
 "ad_table_id":791,
 "created":"2022-11-02T05:57:56.041854",
 "createdby":100,
 "entitytype":"Human Resource & Payroll",
 "errormsg":null,
 "isactive":"Y",
 "tableattributedefinition":"FOREIGN KEY (ad_user_id) REFERENCES ad_user(ad_user_id) DEFERRABLE INITIALLY DEFERRED",
 "tableattributetype":"CF",
 "tsvdefinition":null,
 "updated":"2022-11-02T05:57:56.041854",
 "updatedby":100}, "children" : []},{"tablename" : "ad_table_attribute", "data" : {"ad_table_attribute_id":53569,
 "name":"c_jobassignment_isactive_check",
 "ad_client_id":0,
 "ad_org_id":0,
 "ad_table_id":791,
 "created":"2022-11-02T12:40:39.392787",
 "createdby":100,
 "entitytype":"Human Resource & Payroll",
 "errormsg":null,
 "isactive":"Y",
 "tableattributedefinition":"CHECK ((isactive = ANY (ARRAY['Y'::bpchar, 'N'::bpchar])))",
 "tableattributetype":"CC",
 "tsvdefinition":null,
 "updated":"2022-11-02T12:40:39.392787",
 "updatedby":100}, "children" : []}]}]